a contact +0000000 +0000011 26 38 12500
a contact +0000000 +0000011 38 26 12500
a contact +0000000 +0000011 24 36 12500
a contact +0000000 +0000011 36 24 12500
a contact +0000000 +0000058 17 34 12500
a contact +0000000 +0000162 10 23 12500
a contact +0000000 +0000187 19 33 12500
a contact +0000000 +0000148 16 29 12500
a contact +0000113 +0000285 7 33 12500
a contact +0000127 +0000365 34 37 12500
a contact +0000127 +0000365 37 34 12500
a contact +0000127 +0000365 35 32 12500
a contact +0000127 +0000365 32 35 12500
a contact +0000137 +0000326 22 23 12500
a contact +0000140 +0000375 14 23 12500
a contact +0000287 +0000531 8 33 12500
a contact +0000344 +0000584 6 23 12500
a contact +0000482 +0000720 31 28 12500
a contact +0000482 +0000720 33 30 12500
a contact +0000482 +0000720 30 33 12500
a contact +0000482 +0000720 28 31 12500
a contact +0000523 +0000723 3 27 12500
a contact +0000625 +0000869 1 30 12500
a contact +0000767 +0001001 16 38 12500
a contact +0000795 +0001002 9 33 12500
a contact +0000837 +0001075 26 29 12500
a contact +0000837 +0001075 24 27 12500
a contact +0000837 +0001075 27 24 12500
a contact +0000837 +0001075 29 26 12500
a contact +0000929 +0001046 13 30 12500
a contact +0000973 +0001139 21 36 12500
a contact +0001063 +0001283 11 33 12500
a contact +0001078 +0001314 20 38 12500
a contact +0001089 +0001267 6 32 12500
a contact +0001118 +0001335 5 31 12500
a contact +0001189 +0001298 14 32 12500
a contact +0001191 +0001429 35 23 12500
a contact +0001191 +0001429 23 35 12500
a contact +0001191 +0001429 25 37 12500
a contact +0001191 +0001429 37 25 12500
a contact +0001284 +0001301 22 32 12500
a contact +0001314 +0001525 17 33 12500
a contact +0001405 +0001635 10 26 12500
a contact +0001473 +0001621 19 32 12500
a contact +0001545 +0001783 33 36 12500
a contact +0001545 +0001783 38 31 12500
a contact +0001545 +0001783 36 33 12500
a contact +0001545 +0001783 31 38 12500
a contact +0001554 +0001796 7 32 12500
a contact +0001687 +0001781 14 26 12500
a contact +0001774 +0002006 8 32 12500
a contact +0001879 +0002004 6 26 12500
a contact +0001900 +0002138 27 34 12500
a contact +0001900 +0002138 34 27 12500
a contact +0001900 +0002138 32 29 12500
a contact +0001900 +0002138 29 32 12500
a contact +0002111 +0002339 1 29 12500
a contact +0002146 +0002324 12 26 12500
a contact +0002255 +0002493 28 25 12500
a contact +0002255 +0002493 25 28 12500
a contact +0002255 +0002493 30 23 12500
a contact +0002255 +0002493 23 30 12500
a contact +0002295 +0002477 9 32 12500
a contact +0002324 +0002401 16 37 12500
a contact +0002410 +0002654 21 35 12500
a contact +0002546 +0002772 11 32 12500
a contact +0002556 +0002793 20 37 12500
a contact +0002600 +0002805 5 34 12500
a contact +0002601 +0002839 14 31 12500
a contact +0002609 +0002847 24 36 12500
a contact +0002609 +0002847 36 24 12500
a contact +0002609 +0002847 26 38 12500
a contact +0002609 +0002847 38 26 12500
a contact +0002654 +0002883 22 31 12500
a contact +0002700 +0002896 37 39 12500
a contact +0002770 +0002798 2 34 12500
a contact +0002811 +0002978 17 32 12500
a contact +0002960 +0003031 10 25 12500
a contact +0002963 +0003201 34 37 12500
a contact +0002963 +0003201 35 32 12500
a contact +0002963 +0003201 37 34 12500
a contact +0002963 +0003201 32 35 12500
a contact +0003038 +0003270 7 31 12500
a contact +0003292 +0003456 8 31 12500
a contact +0003318 +0003556 28 31 12500
a contact +0003318 +0003556 30 33 12500
a contact +0003318 +0003556 31 28 12500
a contact +0003318 +0003556 33 30 12500
a contact +0003418 +0003540 8 28 12500
a contact +0003589 +0003833 12 25 12500
a contact +0003636 +0003764 1 28 12500
a contact +0003673 +0003911 24 27 12500
a contact +0003673 +0003911 29 26 12500
a contact +0003673 +0003911 27 24 12500
a contact +0003673 +0003911 26 29 12500
a contact +0003796 +0003955 9 31 12500
a contact +0003901 +0004121 21 38 12500
a contact +0004026 +0004262 11 31 12500
a contact +0004027 +0004265 37 25 12500
a contact +0004027 +0004265 25 37 12500
a contact +0004027 +0004265 23 35 12500
a contact +0004027 +0004265 35 23 12500
a contact +0004082 +0004313 14 34 12500
a contact +0004085 +0004228 20 36 12500
a contact +0004087 +0004268 5 33 12500
a contact +0004126 +0004365 22 34 12500
a contact +0004153 +0004397 36 39 12500
a contact +0004201 +0004348 2 33 12500
a contact +0004349 +0004384 17 31 12500
a contact +0004350 +0004497 18 34 12500
a contact +0004381 +0004619 33 36 12500
a contact +0004381 +0004619 38 31 12500
a contact +0004381 +0004619 31 38 12500
a contact +0004381 +0004619 36 33 12500
a contact +0004569 +0004706 7 34 12500
a contact +0004736 +0004974 27 34 12500
a contact +0004736 +0004974 32 29 12500
a contact +0004736 +0004974 29 32 12500
a contact +0004736 +0004974 34 27 12500
a contact +0004855 +0005073 8 27 12500
a contact +0005080 +0005301 12 24 12500
a contact +0005091 +0005329 30 23 12500
a contact +0005091 +0005329 25 28 12500
a contact +0005091 +0005329 28 25 12500
a contact +0005091 +0005329 23 30 12500
a contact +0005293 +0005439 9 34 12500
a contact +0005445 +0005682 24 36 12500
a contact +0005445 +0005682 26 38 12500
a contact +0005445 +0005682 38 26 12500
a contact +0005445 +0005682 36 24 12500
a contact +0005506 +0005749 11 34 12500
a contact +0005585 +0005717 5 32 12500
a contact +0005596 +0005726 10 33 12500
a contact +0005640 +0005870 35 39 12500
a contact +0005649 +0005705 14 33 12500
a contact +0005660 +0005791 22 33 12500
a contact +0005661 +0005864 2 32 12500
a contact +0005754 +0005886 2 35 12500
a contact +0005780 +0006018 18 33 12500
a contact +0005799 +0006037 35 32 12500
a contact +0005799 +0006037 37 34 12500
a contact +0005799 +0006037 32 35 12500
a contact +0005799 +0006037 34 37 12500
a contact +0006024 +0006090 17 37 12500
a contact +0006154 +0006392 30 33 12500
a contact +0006154 +0006392 31 28 12500
a contact +0006154 +0006392 33 30 12500
a contact +0006154 +0006392 28 31 12500
a contact +0006323 +0006569 8 30 12500
a contact +0006509 +0006747 26 29 12500
a contact +0006509 +0006747 24 27 12500
a contact +0006509 +0006747 27 24 12500
a contact +0006509 +0006747 29 26 12500
a contact +0006643 +0006704 12 23 12500
a contact +0006781 +0006931 9 33 12500
a contact +0006785 +0006988 4 36 12500
a contact +0006863 +0007100 35 23 12500
a contact +0006863 +0007100 37 25 12500
a contact +0006863 +0007100 23 35 12500
a contact +0006863 +0007100 25 37 12500
a contact +0006987 +0007231 11 33 12500
a contact +0007018 +0007256 10 32 12500
a contact +0007129 +0007365 2 31 12500
a contact +0007162 +0007317 38 39 12500
a contact +0007185 +0007405 2 38 12500
a contact +0007217 +0007455 38 31 12500
a contact +0007217 +0007455 36 33 12500
a contact +0007217 +0007455 33 36 12500
a contact +0007217 +0007455 31 38 12500
a contact +0007259 +0007496 18 32 12500
a contact +0007444 +0007616 17 36 12500
a contact +0007572 +0007810 34 27 12500
a contact +0007572 +0007810 27 34 12500
a contact +0007572 +0007810 29 32 12500
a contact +0007572 +0007810 32 29 12500
a contact +0007813 +0008034 8 29 12500
a contact +0007927 +0008165 28 25 12500
a contact +0007927 +0008165 25 28 12500
a contact +0007927 +0008165 23 30 12500
a contact +0007927 +0008165 30 23 12500
a contact +0008241 +0008487 4 35 12500
a contact +0008261 +0008430 9 32 12500
a contact +0008277 +0008447 3 23 12500
a contact +0008281 +0008518 36 24 12500
a contact +0008281 +0008518 24 36 12500
a contact +0008281 +0008518 26 38 12500
a contact +0008281 +0008518 38 26 12500
a contact +0008335 +0008382 13 35 12500
a contact +0008471 +0008705 11 32 12500
a contact +0008500 +0008731 10 31 12500
a contact +0008606 +0008851 2 34 12500
a contact +0008635 +0008873 37 34 12500
a contact +0008635 +0008873 34 37 12500
a contact +0008635 +0008873 32 35 12500
a contact +0008635 +0008873 35 32 12500
a contact +0008637 +0008846 15 23 12500
a contact +0008651 +0008895 2 37 12500
a contact +0008774 +0008942 34 39 12500
a contact +0008783 +0008938 18 31 12500
a contact +0008899 +0009111 17 35 12500
a contact +0008990 +0009228 30 33 12500
a contact +0008990 +0009228 31 28 12500
a contact +0008990 +0009228 28 31 12500
a contact +0008990 +0009228 33 30 12500
a contact +0009257 +0009404 7 28 12500
a contact +0009345 +0009583 27 24 12500
a contact +0009345 +0009583 29 26 12500
a contact +0009345 +0009583 24 27 12500
a contact +0009345 +0009583 26 29 12500
a contact +0009352 +0009443 8 28 12500
a contact +0009699 +0009936 25 37 12500
a contact +0009699 +0009936 23 35 12500
a contact +0009699 +0009936 35 23 12500
a contact +0009699 +0009936 37 25 12500
a contact +0009723 +0009943 13 38 12500
a contact +0009723 +0009964 3 26 12500
a contact +0009737 +0009931 9 31 12500
a contact +0009739 +0009949 4 38 12500
a contact +0009964 +0010165 11 31 12500
a contact +0010047 +0010146 10 34 12500
a contact +0010053 +0010291 33 36 12500
a contact +0010053 +0010291 38 31 12500
a contact +0010053 +0010291 36 33 12500
a contact +0010053 +0010291 31 38 12500
a contact +0010095 +0010319 2 33 12500
a contact +0010097 +0010342 15 26 12500
a contact +0010135 +0010373 2 36 12500
a contact +0010166 +0010275 11 38 12500
a contact +0010224 +0010459 33 39 12500
a contact +0010366 +0010598 17 38 12500
a contact +0010408 +0010646 34 27 12500
a contact +0010408 +0010646 29 32 12500
a contact +0010408 +0010646 32 29 12500
a contact +0010408 +0010646 27 34 12500
a contact +0010696 +0010930 7 27 12500
a contact +0010763 +0011000 23 30 12500
a contact +0010763 +0011000 28 25 12500
a contact +0010763 +0011000 25 28 12500
a contact +0010763 +0011000 30 23 12500
a contact +0011044 +0011227 15 31 12500
a contact +0011117 +0011354 38 26 12500
a contact +0011117 +0011354 24 36 12500
a contact +0011117 +0011354 26 38 12500
a contact +0011117 +0011354 36 24 12500
a contact +0011188 +0011434 13 37 12500
a contact +0011207 +0011436 3 25 12500
a contact +0011212 +0011431 9 34 12500
a contact +0011471 +0011709 37 34 12500
a contact +0011471 +0011709 34 37 12500
a contact +0011471 +0011709 32 35 12500
a contact +0011471 +0011709 35 32 12500
a contact +0011480 +0011597 11 34 12500
a contact +0011595 +0011793 11 37 12500
a contact +0011609 +0011755 2 32 12500
a contact +0011612 +0011780 15 25 12500
a contact +0011634 +0011843 2 35 12500
a contact +0011701 +0011943 32 39 12500
a contact +0011826 +0012064 30 33 12500
a contact +0011826 +0012064 31 28 12500
a contact +0011826 +0012064 33 30 12500
a contact +0011826 +0012064 28 31 12500
a contact +0011841 +0012081 17 37 12500
a contact +0011861 +0012009 20 32 12500
a contact +0012172 +0012413 7 30 12500
a contact +0012181 +0012418 26 29 12500
a contact +0012181 +0012418 27 24 12500
a contact +0012181 +0012418 29 26 12500
a contact +0012181 +0012418 24 27 12500
a contact +0012339 +0012510 19 30 12500
a contact +0012489 +0012736 15 34 12500
a contact +0012535 +0012772 23 35 12500
a contact +0012535 +0012772 35 23 12500
a contact +0012535 +0012772 37 25 12500
a contact +0012535 +0012772 25 37 12500
a contact +0012687 +0012925 9 33 12500
a contact +0012690 +0012895 13 36 12500
a contact +0012752 +0012841 3 24 12500
a contact +0012889 +0013127 38 31 12500
a contact +0012889 +0013127 31 38 12500
a contact +0012889 +0013127 33 36 12500
a contact +0012889 +0013127 36 33 12500
a contact +0013054 +0013287 11 36 12500
a contact +0013148 +0013305 2 38 12500
a contact +0013206 +0013390 31 39 12500
a contact +0013209 +0013335 5 38 12500
a contact +0013244 +0013482 29 32 12500
a contact +0013244 +0013482 34 27 12500
a contact +0013244 +0013482 32 29 12500
a contact +0013244 +0013482 27 34 12500
a contact +0013297 +0013535 20 31 12500
a contact +0013319 +0013563 17 36 12500
a contact +0013599 +0013836 28 25 12500
a contact +0013599 +0013836 30 23 12500
a contact +0013599 +0013836 23 30 12500
a contact +0013599 +0013836 25 28 12500
a contact +0013686 +0013849 7 29 12500
a contact +0013783 +0014027 19 29 12500
a contact +0013953 +0014190 26 38 12500
a contact +0013953 +0014190 36 24 12500
a contact +0013953 +0014190 38 26 12500
a contact +0013953 +0014190 24 36 12500
a contact +0013992 +0014190 15 33 12500
a contact +0014111 +0014200 1 35 12500
a contact +0014165 +0014410 9 32 12500
a contact +0014307 +0014545 34 37 12500
a contact +0014307 +0014545 32 35 12500
a contact +0014307 +0014545 35 32 12500
a contact +0014307 +0014545 37 34 12500
a contact +0014330 +0014540 12 38 12500
a contact +0014352 +0014446 9 35 12500
a contact +0014528 +0014772 11 35 12500
a contact +0014657 +0014834 5 37 12500
a contact +0014662 +0014900 33 30 12500
a contact +0014662 +0014900 31 28 12500
a contact +0014662 +0014900 30 33 12500
a contact +0014662 +0014900 28 31 12500
a contact +0014686 +0014747 2 37 12500
a contact +0014777 +0015012 20 34 12500
a contact +0014800 +0015044 17 35 12500
a contact +0014809 +0014919 21 32 12500
a contact +0014956 +0015161 18 28 12500
a contact +0015017 +0015254 27 24 12500
a contact +0015017 +0015254 29 26 12500
a contact +0015017 +0015254 24 27 12500
a contact +0015017 +0015254 26 29 12500
a contact +0015273 +0015490 19 28 12500
a contact +0015371 +0015608 23 35 12500
a contact +0015371 +0015608 25 37 12500
a contact +0015371 +0015608 35 23 12500
a contact +0015371 +0015608 37 25 12500
a contact +0015520 +0015740 1 38 12500
a contact +0015650 +0015884 9 31 12500
a contact +0015725 +0015963 38 31 12500
a contact +0015725 +0015963 33 36 12500
a contact +0015725 +0015963 31 38 12500
a contact +0015725 +0015963 36 33 12500
a contact +0015772 +0015974 9 38 12500
a contact +0015792 +0016038 12 37 12500
a contact +0016010 +0016253 11 38 12500
a contact +0016080 +0016318 27 34 12500
a contact +0016080 +0016318 34 27 12500
a contact +0016080 +0016318 32 29 12500
a contact +0016080 +0016318 29 32 12500
a contact +0016119 +0016322 5 36 12500
a contact +0016229 +0016462 21 31 12500
a contact +0016281 +0016526 17 38 12500
a contact +0016314 +0016426 20 33 12500
a contact +0016416 +0016662 18 27 12500
a contact +0016435 +0016672 28 25 12500
a contact +0016435 +0016672 23 30 12500
a contact +0016435 +0016672 30 23 12500
a contact +0016435 +0016672 25 28 12500
a contact +0016788 +0017026 36 24 12500
a contact +0016788 +0017026 38 26 12500
a contact +0016788 +0017026 24 36 12500
a contact +0016788 +0017026 26 38 12500
a contact +0016985 +0017231 1 37 12500
a contact +0017143 +0017381 37 34 12500
a contact +0017143 +0017381 35 32 12500
a contact +0017143 +0017381 34 37 12500
a contact +0017143 +0017381 32 35 12500
a contact +0017148 +0017338 9 34 12500
a contact +0017231 +0017469 9 37 12500
a contact +0017293 +0017491 12 36 12500
a contact +0017368 +0017532 13 34 12500
a contact +0017479 +0017662 4 34 12500
a contact +0017497 +0017733 11 37 12500
a contact +0017498 +0017736 28 31 12500
a contact +0017498 +0017736 33 30 12500
a contact +0017498 +0017736 31 28 12500
a contact +0017498 +0017736 30 33 12500
a contact +0017589 +0017805 5 35 12500
a contact +0017705 +0017942 21 34 12500
a contact +0017762 +0018006 17 37 12500
a contact +0017853 +0018090 27 24 12500
a contact +0017853 +0018090 29 26 12500
a contact +0017853 +0018090 26 29 12500
a contact +0017853 +0018090 24 27 12500
a contact +0017910 +0018123 18 30 12500
a contact +0017922 +0018063 16 32 12500
a contact +0018091 +0018261 22 30 12500
a contact +0018206 +0018444 35 23 12500
a contact +0018206 +0018444 37 25 12500
a contact +0018206 +0018444 25 37 12500
a contact +0018206 +0018444 23 35 12500
a contact +0018471 +0018659 3 34 12500
a contact +0018479 +0018701 1 36 12500
a contact +0018561 +0018799 31 38 12500
a contact +0018561 +0018799 33 36 12500
a contact +0018561 +0018799 36 33 12500
a contact +0018561 +0018799 38 31 12500
a contact +0018642 +0018708 1 33 12500
a contact +0018705 +0018728 9 33 12500
a contact +0018707 +0018952 9 36 12500
a contact +0018814 +0019051 13 33 12500
a contact +0018916 +0019154 34 27 12500
a contact +0018916 +0019154 29 32 12500
a contact +0018916 +0019154 27 34 12500
a contact +0018916 +0019154 32 29 12500
a contact +0018930 +0019174 4 33 12500
a contact +0018986 +0019214 11 36 12500
a contact +0019042 +0019206 6 35 12500
a contact +0019063 +0019285 5 38 12500
a contact +0019240 +0019358 21 33 12500
a contact +0019244 +0019485 17 36 12500
a contact +0019271 +0019508 30 23 12500
a contact +0019271 +0019508 28 25 12500
a contact +0019271 +0019508 25 28 12500
a contact +0019271 +0019508 23 30 12500
a contact +0019350 +0019592 16 31 12500
a contact +0019387 +0019595 19 35 12500
a contact +0019422 +0019500 10 29 12500
a contact +0019533 +0019777 22 29 12500
a contact +0019571 +0019788 14 29 12500
a contact +0019624 +0019862 24 36 12500
a contact +0019624 +0019862 26 38 12500
a contact +0019624 +0019862 36 24 12500
a contact +0019624 +0019862 38 26 12500
a contact +0019749 +0019920 8 35 12500
a contact +0019785 +0019989 6 29 12500
a contact +0019919 +0020164 3 33 12500
a contact +0019979 +0020217 32 35 12500
a contact +0019979 +0020217 34 37 12500
a contact +0019979 +0020217 37 34 12500
a contact +0019979 +0020217 35 32 12500
a contact +0020005 +0020145 1 35 12500
a contact +0020062 +0020262 1 32 12500
a contact +0020194 +0020430 9 35 12500
a contact +0020201 +0020418 16 25 12500
a contact +0020292 +0020531 13 32 12500
a contact +0020334 +0020572 33 30 12500
a contact +0020334 +0020572 28 31 12500
a contact +0020334 +0020572 30 33 12500
a contact +0020334 +0020572 31 28 12500
a contact +0020417 +0020642 4 32 12500
a contact +0020475 +0020697 11 35 12500
a contact +0020479 +0020724 6 38 12500
a contact +0020540 +0020762 5 37 12500
a contact +0020689 +0020926 29 26 12500
a contact +0020689 +0020926 26 29 12500
a contact +0020689 +0020926 27 24 12500
a contact +0020689 +0020926 24 27 12500
a contact +0020727 +0020960 17 35 12500
a contact +0020828 +0021056 10 28 12500
a contact +0020838 +0021058 16 34 12500
a contact +0020845 +0021091 19 38 12500
a contact +0021025 +0021239 22 28 12500
a contact +0021036 +0021280 14 28 12500
a contact +0021037 +0021164 7 38 12500
a contact +0021042 +0021280 23 35 12500
a contact +0021042 +0021280 37 25 12500
a contact +0021042 +0021280 25 37 12500
a contact +0021042 +0021280 35 23 12500
a contact +0021191 +0021430 8 38 12500
a contact +0021241 +0021487 6 28 12500
a contact +0021397 +0021600 38 31 12500
a contact +0021397 +0021600 33 36 12500
a contact +0021397 +0021600 36 33 12500
a contact +0021397 +0021600 31 38 12500
a contact +0021412 +0021600 3 32 12500
a contact +0021524 +0021600 1 31 12500
