a contact +0000000 +0000121 1 3 1
a contact +0000000 +0000100 10 14 1
a contact +0000006 +0000406 1 12 1
a contact +0000529 +0000835 1 10 1
a contact +0000983 +0001351 1 8 1
a contact +0001158 +0001555 1 2 1
a contact +0001454 +0001840 1 11 1
a contact +0001963 +0002300 1 13 1
a contact +0002420 +0002769 1 7 1
a contact +0002589 +0002990 1 5 1
a contact +0002910 +0003272 1 10 1
a contact +0003399 +0003760 1 12 1
a contact +0003857 +0004183 1 6 1
a contact +0004022 +0004426 1 4 1
a contact +0004376 +0004701 1 13 1
a contact +0004836 +0005214 1 11 1
a contact +0005292 +0005596 1 9 1
a contact +0005456 +0005863 1 3 1
a contact +0005854 +0006123 1 12 1
a contact +0006273 +0006664 1 10 1
a contact +0006725 +0007008 1 8 1
a contact +0006893 +0007300 1 2 1
a contact +0007354 +0007530 1 11 1
a contact +0007710 +0008110 1 13 1
a contact +0008156 +0008421 1 7 1
a contact +0008333 +0008737 1 5 1
a contact +0009148 +0009553 1 12 1
a contact +0009583 +0009835 1 6 1
a contact +0009776 +0010174 1 4 1
a contact +0010585 +0010992 1 11 1
a contact +0011007 +0011253 1 9 1
a contact +0011223 +0011612 1 3 1
a contact +0012022 +0012428 1 10 1
a contact +0012427 +0012674 1 8 1
a contact +0012674 +0013049 1 2 1
a contact +0013459 +0013862 1 13 1
a contact +0013843 +0014099 1 7 1
a contact +0014130 +0014485 1 5 1
a contact +0014859 +0015019 5 14 1
a contact +0014894 +0015295 1 12 1
a contact +0015257 +0015528 1 6 1
a contact +0015591 +0015920 1 4 1
a contact +0016143 +0016353 1 2 1
a contact +0016268 +0016495 4 14 1
a contact +0016329 +0016725 1 11 1
a contact +0016669 +0016960 1 9 1
a contact +0017058 +0017353 1 3 1
a contact +0017556 +0017844 1 5 1
a contact +0017695 +0017945 3 14 1
a contact +0017764 +0018155 1 10 1
a contact +0018082 +0018394 1 8 1
a contact +0018533 +0018783 1 2 1
a contact +0018981 +0019318 1 4 1
a contact +0019133 +0019377 2 14 1
a contact +0019197 +0019585 1 13 1
a contact +0019495 +0019829 1 7 1
a contact +0020019 +0020205 1 5 1
a contact +0020410 +0020781 1 3 1
a contact +0020581 +0020792 5 14 1
a contact +0020629 +0021014 1 12 1
a contact +0020847 +0020980 8 14 1
a contact +0020911 +0021266 1 6 1
a contact +0021536 +0021602 1 4 1
a contact +0021843 +0022234 1 2 1
a contact +0022045 +0022183 4 14 1
a contact +0022060 +0022444 1 11 1
a contact +0022237 +0022446 7 14 1
a contact +0022329 +0022703 1 9 1
a contact +0023278 +0023680 1 5 1
a contact +0023491 +0023874 1 10 1
a contact +0023650 +0023894 6 14 1
a contact +0023752 +0024141 1 8 1
a contact +0024714 +0025118 1 4 1
a contact +0024920 +0025305 1 13 1
a contact +0025082 +0025332 9 14 1
a contact +0025179 +0025578 1 7 1
a contact +0025735 +0025891 1 9 1
a contact +0026151 +0026551 1 3 1
a contact +0026350 +0026737 1 12 1
a contact +0026531 +0026760 8 14 1
a contact +0026611 +0027015 1 6 1
a contact +0027152 +0027383 1 8 1
a contact +0027589 +0027979 1 2 1
a contact +0027779 +0028170 1 11 1
a contact +0028005 +0028170 7 14 1
a contact +0028049 +0028451 1 9 1
a contact +0028580 +0028862 1 7 1
a contact +0029027 +0029402 1 5 1
a contact +0029209 +0029604 1 10 1
a contact +0029494 +0029886 1 8 1
a contact +0030012 +0030331 1 6 1
a contact +0030464 +0030821 1 4 1
a contact +0030640 +0031039 1 13 1
a contact +0030947 +0031319 1 7 1
a contact +0031447 +0031794 1 9 1
a contact +0031901 +0032237 1 3 1
a contact +0032071 +0032474 1 12 1
a contact +0032408 +0032749 1 6 1
a contact +0032882 +0033251 1 8 1
a contact +0033337 +0033650 1 2 1
a contact +0033505 +0033911 1 11 1
a contact +0033881 +0034174 1 9 1
a contact +0034319 +0034703 1 7 1
a contact +0034772 +0035062 1 5 1
a contact +0034941 +0035347 1 10 1
a contact +0035370 +0035589 1 8 1
a contact +0035756 +0036151 1 6 1
a contact +0036204 +0036474 1 4 1
a contact +0036379 +0036785 1 13 1
a contact +0036911 +0036957 1 7 1
a contact +0037193 +0037596 1 9 1
a contact +0037633 +0037888 1 3 1
a contact +0037821 +0038222 1 12 1
a contact +0038631 +0039036 1 8 1
a contact +0039059 +0039303 1 2 1
a contact +0039266 +0039660 1 11 1
a contact +0040068 +0040474 1 7 1
a contact +0040481 +0040723 1 5 1
a contact +0040714 +0041097 1 10 1
a contact +0041504 +0041910 1 6 1
a contact +0041899 +0042146 1 4 1
a contact +0042168 +0042534 1 13 1
a contact +0042935 +0043030 13 14 1
a contact +0042940 +0043343 1 9 1
a contact +0043313 +0043573 1 3 1
a contact +0043626 +0043970 1 12 1
a contact +0044208 +0044367 1 10 1
a contact +0044325 +0044530 12 14 1
a contact +0044375 +0044774 1 8 1
a contact +0044726 +0045004 1 2 1
a contact +0045090 +0045404 1 11 1
a contact +0045611 +0045871 1 13 1
a contact +0045746 +0045990 11 14 1
a contact +0045810 +0046205 1 7 1
a contact +0046138 +0046437 1 5 1
a contact +0046560 +0046836 1 10 1
a contact +0047032 +0047351 1 12 1
a contact +0047179 +0047429 10 14 1
a contact +0047243 +0047635 1 6 1
a contact +0047550 +0047872 1 4 1
a contact +0048040 +0048263 1 13 1
a contact +0048460 +0048818 1 11 1
a contact +0048623 +0048852 13 14 1
a contact +0048676 +0049064 1 9 1
a contact +0048944 +0048981 5 14 1
a contact +0048964 +0049308 1 3 1
a contact +0049535 +0049679 1 12 1
a contact +0049892 +0050276 1 10 1
a contact +0050078 +0050255 12 14 1
a contact +0050108 +0050494 1 8 1
a contact +0050299 +0050477 4 14 1
a contact +0050381 +0050746 1 2 1
a contact +0051326 +0051724 1 13 1
a contact +0051538 +0051924 1 7 1
a contact +0051579 +0051607 11 14 1
a contact +0051703 +0051933 3 14 1
a contact +0051802 +0052183 1 5 1
a contact +0052762 +0053166 1 12 1
a contact +0052968 +0053354 1 6 1
a contact +0053126 +0053376 2 14 1
a contact +0053227 +0053621 1 4 1
a contact +0053792 +0053902 1 2 1
a contact +0054199 +0054602 1 11 1
a contact +0054398 +0054786 1 9 1
a contact +0054566 +0054809 5 14 1
a contact +0054656 +0055059 1 3 1
a contact +0055200 +0055405 1 5 1
a contact +0055637 +0056032 1 10 1
a contact +0055827 +0056218 1 8 1
a contact +0056026 +0056230 4 14 1
a contact +0056091 +0056495 1 2 1
a contact +0056625 +0056888 1 4 1
a contact +0057075 +0057456 1 13 1
a contact +0057257 +0057651 1 7 1
a contact +0057526 +0057618 3 14 1
a contact +0057533 +0057931 1 5 1
a contact +0058056 +0058361 1 3 1
a contact +0058513 +0058877 1 12 1
a contact +0058687 +0059086 1 6 1
a contact +0058981 +0059365 1 4 1
a contact +0059490 +0059826 1 2 1
a contact +0059950 +0060294 1 11 1
a contact +0060119 +0060521 1 9 1
a contact +0060438 +0060797 1 3 1
a contact +0060925 +0061286 1 5 1
a contact +0061387 +0061708 1 10 1
a contact +0061552 +0061957 1 8 1
a contact +0061905 +0062225 1 2 1
a contact +0062362 +0062740 1 4 1
a contact +0062822 +0063121 1 13 1
a contact +0062987 +0063393 1 7 1
a contact +0063384 +0063646 1 5 1
a contact +0063799 +0064190 1 3 1
a contact +0064256 +0064532 1 12 1
a contact +0064424 +0064800 1 6 1
