<?xml version="1.0" encoding="utf-8" standalone="no"?>
<!DOCTYPE svg PUBLIC "-//W3C//DTD SVG 1.1//EN"
  "http://www.w3.org/Graphics/SVG/1.1/DTD/svg11.dtd">
<!-- Created with matplotlib (https://matplotlib.org/) -->
<svg height="345.6pt" version="1.1" viewBox="0 0 460.8 345.6" width="460.8pt" xmlns="http://www.w3.org/2000/svg" xmlns:xlink="http://www.w3.org/1999/xlink">
 <defs>
  <style type="text/css">
*{stroke-linecap:butt;stroke-linejoin:round;}
  </style>
 </defs>
 <g id="figure_1">
  <g id="patch_1">
   <path d="M 0 345.6 
L 460.8 345.6 
L 460.8 0 
L 0 0 
z
" style="fill:#ffffff;"/>
  </g>
  <g id="axes_1">
   <g id="patch_2">
    <path d="M 57.6 307.584 
L 414.72 307.584 
L 414.72 41.472 
L 57.6 41.472 
z
" style="fill:#ffffff;"/>
   </g>
   <g id="patch_3">
    <path clip-path="url(#p4b0f8544aa)" d="M 73.832727 83.236648 
L 77.480531 83.236648 
L 77.480531 83.236648 
L 73.832727 83.236648 
z
"/>
   </g>
   <g id="patch_4">
    <path clip-path="url(#p4b0f8544aa)" d="M 110.310766 83.236648 
L 113.95857 83.236648 
L 113.95857 83.363226 
L 110.310766 83.363226 
z
"/>
   </g>
   <g id="patch_5">
    <path clip-path="url(#p4b0f8544aa)" d="M 146.788805 83.236648 
L 150.436609 83.236648 
L 150.436609 84.008819 
L 146.788805 84.008819 
z
"/>
   </g>
   <g id="patch_6">
    <path clip-path="url(#p4b0f8544aa)" d="M 183.266844 83.236648 
L 186.914648 83.236648 
L 186.914648 85.806042 
L 183.266844 85.806042 
z
"/>
   </g>
   <g id="patch_7">
    <path clip-path="url(#p4b0f8544aa)" d="M 219.744883 83.236648 
L 223.392686 83.236648 
L 223.392686 89.100339 
L 219.744883 89.100339 
z
"/>
   </g>
   <g id="patch_8">
    <path clip-path="url(#p4b0f8544aa)" d="M 256.222921 83.236648 
L 259.870725 83.236648 
L 259.870725 95.879747 
L 256.222921 95.879747 
z
"/>
   </g>
   <g id="patch_9">
    <path clip-path="url(#p4b0f8544aa)" d="M 292.70096 83.236648 
L 296.348764 83.236648 
L 296.348764 107.997558 
L 292.70096 107.997558 
z
"/>
   </g>
   <g id="patch_10">
    <path clip-path="url(#p4b0f8544aa)" d="M 329.178999 83.236648 
L 332.826803 83.236648 
L 332.826803 155.127809 
L 329.178999 155.127809 
z
"/>
   </g>
   <g id="patch_11">
    <path clip-path="url(#p4b0f8544aa)" d="M 365.657038 83.236648 
L 369.304842 83.236648 
L 369.304842 262.072455 
L 365.657038 262.072455 
z
"/>
   </g>
   <g id="patch_12">
    <path clip-path="url(#p4b0f8544aa)" d="M 77.480531 83.236648 
L 81.128335 83.236648 
L 81.128335 91.508934 
L 77.480531 91.508934 
z
" style="fill:#ffa500;"/>
   </g>
   <g id="patch_13">
    <path clip-path="url(#p4b0f8544aa)" d="M 113.95857 83.236648 
L 117.606374 83.236648 
L 117.606374 83.363226 
L 113.95857 83.363226 
z
" style="fill:#ffa500;"/>
   </g>
   <g id="patch_14">
    <path clip-path="url(#p4b0f8544aa)" d="M 150.436609 83.236648 
L 154.084413 83.236648 
L 154.084413 84.008819 
L 150.436609 84.008819 
z
" style="fill:#ffa500;"/>
   </g>
   <g id="patch_15">
    <path clip-path="url(#p4b0f8544aa)" d="M 186.914648 83.236648 
L 190.562451 83.236648 
L 190.562451 85.806042 
L 186.914648 85.806042 
z
" style="fill:#ffa500;"/>
   </g>
   <g id="patch_16">
    <path clip-path="url(#p4b0f8544aa)" d="M 223.392686 83.236648 
L 227.04049 83.236648 
L 227.04049 89.351185 
L 223.392686 89.351185 
z
" style="fill:#ffa500;"/>
   </g>
   <g id="patch_17">
    <path clip-path="url(#p4b0f8544aa)" d="M 259.870725 83.236648 
L 263.518529 83.236648 
L 263.518529 98.481328 
L 259.870725 98.481328 
z
" style="fill:#ffa500;"/>
   </g>
   <g id="patch_18">
    <path clip-path="url(#p4b0f8544aa)" d="M 296.348764 83.236648 
L 299.996568 83.236648 
L 299.996568 115.265833 
L 296.348764 115.265833 
z
" style="fill:#ffa500;"/>
   </g>
   <g id="patch_19">
    <path clip-path="url(#p4b0f8544aa)" d="M 332.826803 83.236648 
L 336.474607 83.236648 
L 336.474607 171.926522 
L 332.826803 171.926522 
z
" style="fill:#ffa500;"/>
   </g>
   <g id="patch_20">
    <path clip-path="url(#p4b0f8544aa)" d="M 369.304842 83.236648 
L 372.952646 83.236648 
L 372.952646 277.834009 
L 369.304842 277.834009 
z
" style="fill:#ffa500;"/>
   </g>
   <g id="patch_21">
    <path clip-path="url(#p4b0f8544aa)" d="M 81.128335 83.236648 
L 84.776139 83.236648 
L 84.776139 91.508934 
L 81.128335 91.508934 
z
" style="fill:#0000ff;"/>
   </g>
   <g id="patch_22">
    <path clip-path="url(#p4b0f8544aa)" d="M 117.606374 83.236648 
L 121.254178 83.236648 
L 121.254178 91.892306 
L 117.606374 91.892306 
z
" style="fill:#0000ff;"/>
   </g>
   <g id="patch_23">
    <path clip-path="url(#p4b0f8544aa)" d="M 154.084413 83.236648 
L 157.732217 83.236648 
L 157.732217 93.535847 
L 154.084413 93.535847 
z
" style="fill:#0000ff;"/>
   </g>
   <g id="patch_24">
    <path clip-path="url(#p4b0f8544aa)" d="M 190.562451 83.236648 
L 194.210255 83.236648 
L 194.210255 96.716835 
L 190.562451 96.716835 
z
" style="fill:#0000ff;"/>
   </g>
   <g id="patch_25">
    <path clip-path="url(#p4b0f8544aa)" d="M 227.04049 83.236648 
L 230.688294 83.236648 
L 230.688294 104.996744 
L 227.04049 104.996744 
z
" style="fill:#0000ff;"/>
   </g>
   <g id="patch_26">
    <path clip-path="url(#p4b0f8544aa)" d="M 263.518529 83.236648 
L 267.166333 83.236648 
L 267.166333 120.942904 
L 263.518529 120.942904 
z
" style="fill:#0000ff;"/>
   </g>
   <g id="patch_27">
    <path clip-path="url(#p4b0f8544aa)" d="M 299.996568 83.236648 
L 303.644372 83.236648 
L 303.644372 151.785173 
L 299.996568 151.785173 
z
" style="fill:#0000ff;"/>
   </g>
   <g id="patch_28">
    <path clip-path="url(#p4b0f8544aa)" d="M 336.474607 83.236648 
L 340.122411 83.236648 
L 340.122411 210.811292 
L 336.474607 210.811292 
z
" style="fill:#0000ff;"/>
   </g>
   <g id="patch_29">
    <path clip-path="url(#p4b0f8544aa)" d="M 372.952646 83.236648 
L 376.600449 83.236648 
L 376.600449 295.488 
L 372.952646 295.488 
z
" style="fill:#0000ff;"/>
   </g>
   <g id="patch_30">
    <path clip-path="url(#p4b0f8544aa)" d="M 84.776139 83.236648 
L 88.423943 83.236648 
L 88.423943 165.918831 
L 84.776139 165.918831 
z
" style="fill:#008000;"/>
   </g>
   <g id="patch_31">
    <path clip-path="url(#p4b0f8544aa)" d="M 121.254178 83.236648 
L 124.901982 83.236648 
L 124.901982 108.038636 
L 121.254178 108.038636 
z
" style="fill:#008000;"/>
   </g>
   <g id="patch_32">
    <path clip-path="url(#p4b0f8544aa)" d="M 157.732217 83.236648 
L 161.38002 83.236648 
L 161.38002 94.132561 
L 157.732217 94.132561 
z
" style="fill:#008000;"/>
   </g>
   <g id="patch_33">
    <path clip-path="url(#p4b0f8544aa)" d="M 194.210255 83.236648 
L 197.858059 83.236648 
L 197.858059 175.999171 
L 194.210255 175.999171 
z
" style="fill:#008000;"/>
   </g>
   <g id="patch_34">
    <path clip-path="url(#p4b0f8544aa)" d="M 230.688294 83.236648 
L 234.336098 83.236648 
L 234.336098 187.162421 
L 230.688294 187.162421 
z
" style="fill:#008000;"/>
   </g>
   <g id="patch_35">
    <path clip-path="url(#p4b0f8544aa)" d="M 267.166333 83.236648 
L 270.814137 83.236648 
L 270.814137 203.88812 
L 267.166333 203.88812 
z
" style="fill:#008000;"/>
   </g>
   <g id="patch_36">
    <path clip-path="url(#p4b0f8544aa)" d="M 303.644372 83.236648 
L 307.292176 83.236648 
L 307.292176 219.887938 
L 303.644372 219.887938 
z
" style="fill:#008000;"/>
   </g>
   <g id="patch_37">
    <path clip-path="url(#p4b0f8544aa)" d="M 340.122411 83.236648 
L 343.770215 83.236648 
L 343.770215 245.216954 
L 340.122411 245.216954 
z
" style="fill:#008000;"/>
   </g>
   <g id="patch_38">
    <path clip-path="url(#p4b0f8544aa)" d="M 376.600449 83.236648 
L 380.248253 83.236648 
L 380.248253 276.667292 
L 376.600449 276.667292 
z
" style="fill:#008000;"/>
   </g>
   <g id="patch_39">
    <path clip-path="url(#p4b0f8544aa)" d="M 88.423943 83.236648 
L 92.071747 83.236648 
L 92.071747 166.212163 
L 88.423943 166.212163 
z
" style="fill:#ff0000;"/>
   </g>
   <g id="patch_40">
    <path clip-path="url(#p4b0f8544aa)" d="M 124.901982 83.236648 
L 128.549785 83.236648 
L 128.549785 169.12591 
L 124.901982 169.12591 
z
" style="fill:#ff0000;"/>
   </g>
   <g id="patch_41">
    <path clip-path="url(#p4b0f8544aa)" d="M 161.38002 83.236648 
L 165.027824 83.236648 
L 165.027824 248.338607 
L 161.38002 248.338607 
z
" style="fill:#ff0000;"/>
   </g>
   <g id="patch_42">
    <path clip-path="url(#p4b0f8544aa)" d="M 197.858059 83.236648 
L 201.505863 83.236648 
L 201.505863 184.750325 
L 197.858059 184.750325 
z
" style="fill:#ff0000;"/>
   </g>
   <g id="patch_43">
    <path clip-path="url(#p4b0f8544aa)" d="M 234.336098 83.236648 
L 237.983902 83.236648 
L 237.983902 192.776151 
L 234.336098 192.776151 
z
" style="fill:#ff0000;"/>
   </g>
   <g id="patch_44">
    <path clip-path="url(#p4b0f8544aa)" d="M 270.814137 83.236648 
L 274.461941 83.236648 
L 274.461941 205.280087 
L 270.814137 205.280087 
z
" style="fill:#ff0000;"/>
   </g>
   <g id="patch_45">
    <path clip-path="url(#p4b0f8544aa)" d="M 307.292176 83.236648 
L 310.93998 83.236648 
L 310.93998 188.9925 
L 307.292176 188.9925 
z
" style="fill:#ff0000;"/>
   </g>
   <g id="patch_46">
    <path clip-path="url(#p4b0f8544aa)" d="M 343.770215 83.236648 
L 347.418018 83.236648 
L 347.418018 200.529245 
L 343.770215 200.529245 
z
" style="fill:#ff0000;"/>
   </g>
   <g id="patch_47">
    <path clip-path="url(#p4b0f8544aa)" d="M 380.248253 83.236648 
L 383.896057 83.236648 
L 383.896057 196.39202 
L 380.248253 196.39202 
z
" style="fill:#ff0000;"/>
   </g>
   <g id="patch_48">
    <path clip-path="url(#p4b0f8544aa)" d="M 92.071747 83.236648 
L 95.719551 83.236648 
L 95.719551 91.508934 
L 92.071747 91.508934 
z
" style="fill:#8b008b;"/>
   </g>
   <g id="patch_49">
    <path clip-path="url(#p4b0f8544aa)" d="M 128.549785 83.236648 
L 132.197589 83.236648 
L 132.197589 91.517215 
L 128.549785 91.517215 
z
" style="fill:#8b008b;"/>
   </g>
   <g id="patch_50">
    <path clip-path="url(#p4b0f8544aa)" d="M 165.027824 83.236648 
L 168.675628 83.236648 
L 168.675628 92.393505 
L 165.027824 92.393505 
z
" style="fill:#8b008b;"/>
   </g>
   <g id="patch_51">
    <path clip-path="url(#p4b0f8544aa)" d="M 201.505863 83.236648 
L 205.153667 83.236648 
L 205.153667 93.929424 
L 201.505863 93.929424 
z
" style="fill:#8b008b;"/>
   </g>
   <g id="patch_52">
    <path clip-path="url(#p4b0f8544aa)" d="M 237.983902 83.236648 
L 241.631706 83.236648 
L 241.631706 97.361203 
L 237.983902 97.361203 
z
" style="fill:#8b008b;"/>
   </g>
   <g id="patch_53">
    <path clip-path="url(#p4b0f8544aa)" d="M 274.461941 83.236648 
L 278.109745 83.236648 
L 278.109745 187.517842 
L 274.461941 187.517842 
z
" style="fill:#8b008b;"/>
   </g>
   <g id="patch_54">
    <path clip-path="url(#p4b0f8544aa)" d="M 310.93998 83.236648 
L 314.587783 83.236648 
L 314.587783 188.9925 
L 310.93998 188.9925 
z
" style="fill:#8b008b;"/>
   </g>
   <g id="patch_55">
    <path clip-path="url(#p4b0f8544aa)" d="M 347.418018 83.236648 
L 351.065822 83.236648 
L 351.065822 198.580469 
L 347.418018 198.580469 
z
" style="fill:#8b008b;"/>
   </g>
   <g id="patch_56">
    <path clip-path="url(#p4b0f8544aa)" d="M 383.896057 83.236648 
L 387.543861 83.236648 
L 387.543861 191.940655 
L 383.896057 191.940655 
z
" style="fill:#8b008b;"/>
   </g>
   <g id="patch_57">
    <path clip-path="url(#p4b0f8544aa)" d="M 95.719551 83.236648 
L 99.367354 83.236648 
L 99.367354 165.477124 
L 95.719551 165.477124 
z
" style="fill:#ffc0cb;"/>
   </g>
   <g id="patch_58">
    <path clip-path="url(#p4b0f8544aa)" d="M 132.197589 83.236648 
L 135.845393 83.236648 
L 135.845393 164.204264 
L 132.197589 164.204264 
z
" style="fill:#ffc0cb;"/>
   </g>
   <g id="patch_59">
    <path clip-path="url(#p4b0f8544aa)" d="M 168.675628 83.236648 
L 172.323432 83.236648 
L 172.323432 160.181464 
L 168.675628 160.181464 
z
" style="fill:#ffc0cb;"/>
   </g>
   <g id="patch_60">
    <path clip-path="url(#p4b0f8544aa)" d="M 205.153667 83.236648 
L 208.801471 83.236648 
L 208.801471 157.29426 
L 205.153667 157.29426 
z
" style="fill:#ffc0cb;"/>
   </g>
   <g id="patch_61">
    <path clip-path="url(#p4b0f8544aa)" d="M 241.631706 83.236648 
L 245.27951 83.236648 
L 245.27951 158.012918 
L 241.631706 158.012918 
z
" style="fill:#ffc0cb;"/>
   </g>
   <g id="patch_62">
    <path clip-path="url(#p4b0f8544aa)" d="M 278.109745 83.236648 
L 281.757549 83.236648 
L 281.757549 157.762441 
L 278.109745 157.762441 
z
" style="fill:#ffc0cb;"/>
   </g>
   <g id="patch_63">
    <path clip-path="url(#p4b0f8544aa)" d="M 314.587783 83.236648 
L 318.235587 83.236648 
L 318.235587 158.89395 
L 314.587783 158.89395 
z
" style="fill:#ffc0cb;"/>
   </g>
   <g id="patch_64">
    <path clip-path="url(#p4b0f8544aa)" d="M 351.065822 83.236648 
L 354.713626 83.236648 
L 354.713626 193.531323 
L 351.065822 193.531323 
z
" style="fill:#ffc0cb;"/>
   </g>
   <g id="patch_65">
    <path clip-path="url(#p4b0f8544aa)" d="M 387.543861 83.236648 
L 391.191665 83.236648 
L 391.191665 208.441342 
L 387.543861 208.441342 
z
" style="fill:#ffc0cb;"/>
   </g>
   <g id="patch_66">
    <path clip-path="url(#p4b0f8544aa)" d="M 99.367354 83.236648 
L 103.015158 83.236648 
L 103.015158 54.319053 
L 99.367354 54.319053 
z
" style="fill:#6a5acd;"/>
   </g>
   <g id="patch_67">
    <path clip-path="url(#p4b0f8544aa)" d="M 135.845393 83.236648 
L 139.493197 83.236648 
L 139.493197 56.950786 
L 135.845393 56.950786 
z
" style="fill:#6a5acd;"/>
   </g>
   <g id="patch_68">
    <path clip-path="url(#p4b0f8544aa)" d="M 172.323432 83.236648 
L 175.971236 83.236648 
L 175.971236 65.769493 
L 172.323432 65.769493 
z
" style="fill:#6a5acd;"/>
   </g>
   <g id="patch_69">
    <path clip-path="url(#p4b0f8544aa)" d="M 208.801471 83.236648 
L 212.449275 83.236648 
L 212.449275 73.49128 
L 208.801471 73.49128 
z
" style="fill:#6a5acd;"/>
   </g>
   <g id="patch_70">
    <path clip-path="url(#p4b0f8544aa)" d="M 245.27951 83.236648 
L 248.927314 83.236648 
L 248.927314 82.721152 
L 245.27951 82.721152 
z
" style="fill:#6a5acd;"/>
   </g>
   <g id="patch_71">
    <path clip-path="url(#p4b0f8544aa)" d="M 281.757549 83.236648 
L 285.405352 83.236648 
L 285.405352 97.149135 
L 281.757549 97.149135 
z
" style="fill:#6a5acd;"/>
   </g>
   <g id="patch_72">
    <path clip-path="url(#p4b0f8544aa)" d="M 318.235587 83.236648 
L 321.883391 83.236648 
L 321.883391 112.488015 
L 318.235587 112.488015 
z
" style="fill:#6a5acd;"/>
   </g>
   <g id="patch_73">
    <path clip-path="url(#p4b0f8544aa)" d="M 354.713626 83.236648 
L 358.36143 83.236648 
L 358.36143 136.859 
L 354.713626 136.859 
z
" style="fill:#6a5acd;"/>
   </g>
   <g id="patch_74">
    <path clip-path="url(#p4b0f8544aa)" d="M 391.191665 83.236648 
L 394.839469 83.236648 
L 394.839469 168.961199 
L 391.191665 168.961199 
z
" style="fill:#6a5acd;"/>
   </g>
   <g id="patch_75">
    <path clip-path="url(#p4b0f8544aa)" d="M 103.015158 83.236648 
L 106.662962 83.236648 
L 106.662962 53.568 
L 103.015158 53.568 
z
" style="fill:#008b8b;"/>
   </g>
   <g id="patch_76">
    <path clip-path="url(#p4b0f8544aa)" d="M 139.493197 83.236648 
L 143.141001 83.236648 
L 143.141001 53.568 
L 139.493197 53.568 
z
" style="fill:#008b8b;"/>
   </g>
   <g id="patch_77">
    <path clip-path="url(#p4b0f8544aa)" d="M 175.971236 83.236648 
L 179.61904 83.236648 
L 179.61904 53.568 
L 175.971236 53.568 
z
" style="fill:#008b8b;"/>
   </g>
   <g id="patch_78">
    <path clip-path="url(#p4b0f8544aa)" d="M 212.449275 83.236648 
L 216.097079 83.236648 
L 216.097079 53.568 
L 212.449275 53.568 
z
" style="fill:#008b8b;"/>
   </g>
   <g id="patch_79">
    <path clip-path="url(#p4b0f8544aa)" d="M 248.927314 83.236648 
L 252.575117 83.236648 
L 252.575117 53.568 
L 248.927314 53.568 
z
" style="fill:#008b8b;"/>
   </g>
   <g id="patch_80">
    <path clip-path="url(#p4b0f8544aa)" d="M 285.405352 83.236648 
L 289.053156 83.236648 
L 289.053156 54.041601 
L 285.405352 54.041601 
z
" style="fill:#008b8b;"/>
   </g>
   <g id="patch_81">
    <path clip-path="url(#p4b0f8544aa)" d="M 321.883391 83.236648 
L 325.531195 83.236648 
L 325.531195 60.502187 
L 321.883391 60.502187 
z
" style="fill:#008b8b;"/>
   </g>
   <g id="patch_82">
    <path clip-path="url(#p4b0f8544aa)" d="M 358.36143 83.236648 
L 362.009234 83.236648 
L 362.009234 70.833411 
L 358.36143 70.833411 
z
" style="fill:#008b8b;"/>
   </g>
   <g id="patch_83">
    <path clip-path="url(#p4b0f8544aa)" d="M 394.839469 83.236648 
L 398.487273 83.236648 
L 398.487273 94.522934 
L 394.839469 94.522934 
z
" style="fill:#008b8b;"/>
   </g>
   <g id="matplotlib.axis_1">
    <g id="xtick_1">
     <g id="line2d_1">
      <defs>
       <path d="M 0 0 
L 0 3.5 
" id="m8c34d3441e" style="stroke:#000000;stroke-width:0.8;"/>
      </defs>
      <g>
       <use style="stroke:#000000;stroke-width:0.8;" x="92.071747" xlink:href="#m8c34d3441e" y="307.584"/>
      </g>
     </g>
     <g id="text_1">
      <!-- 0.1 -->
      <defs>
       <path d="M 31.78125 66.40625 
Q 24.171875 66.40625 20.328125 58.90625 
Q 16.5 51.421875 16.5 36.375 
Q 16.5 21.390625 20.328125 13.890625 
Q 24.171875 6.390625 31.78125 6.390625 
Q 39.453125 6.390625 43.28125 13.890625 
Q 47.125 21.390625 47.125 36.375 
Q 47.125 51.421875 43.28125 58.90625 
Q 39.453125 66.40625 31.78125 66.40625 
z
M 31.78125 74.21875 
Q 44.046875 74.21875 50.515625 64.515625 
Q 56.984375 54.828125 56.984375 36.375 
Q 56.984375 17.96875 50.515625 8.265625 
Q 44.046875 -1.421875 31.78125 -1.421875 
Q 19.53125 -1.421875 13.0625 8.265625 
Q 6.59375 17.96875 6.59375 36.375 
Q 6.59375 54.828125 13.0625 64.515625 
Q 19.53125 74.21875 31.78125 74.21875 
z
" id="DejaVuSans-48"/>
       <path d="M 10.6875 12.40625 
L 21 12.40625 
L 21 0 
L 10.6875 0 
z
" id="DejaVuSans-46"/>
       <path d="M 12.40625 8.296875 
L 28.515625 8.296875 
L 28.515625 63.921875 
L 10.984375 60.40625 
L 10.984375 69.390625 
L 28.421875 72.90625 
L 38.28125 72.90625 
L 38.28125 8.296875 
L 54.390625 8.296875 
L 54.390625 0 
L 12.40625 0 
z
" id="DejaVuSans-49"/>
      </defs>
      <g transform="translate(84.120184 322.182437)scale(0.1 -0.1)">
       <use xlink:href="#DejaVuSans-48"/>
       <use x="63.623047" xlink:href="#DejaVuSans-46"/>
       <use x="95.410156" xlink:href="#DejaVuSans-49"/>
      </g>
     </g>
    </g>
    <g id="xtick_2">
     <g id="line2d_2">
      <g>
       <use style="stroke:#000000;stroke-width:0.8;" x="128.549785" xlink:href="#m8c34d3441e" y="307.584"/>
      </g>
     </g>
     <g id="text_2">
      <!-- 0.2 -->
      <defs>
       <path d="M 19.1875 8.296875 
L 53.609375 8.296875 
L 53.609375 0 
L 7.328125 0 
L 7.328125 8.296875 
Q 12.9375 14.109375 22.625 23.890625 
Q 32.328125 33.6875 34.8125 36.53125 
Q 39.546875 41.84375 41.421875 45.53125 
Q 43.3125 49.21875 43.3125 52.78125 
Q 43.3125 58.59375 39.234375 62.25 
Q 35.15625 65.921875 28.609375 65.921875 
Q 23.96875 65.921875 18.8125 64.3125 
Q 13.671875 62.703125 7.8125 59.421875 
L 7.8125 69.390625 
Q 13.765625 71.78125 18.9375 73 
Q 24.125 74.21875 28.421875 74.21875 
Q 39.75 74.21875 46.484375 68.546875 
Q 53.21875 62.890625 53.21875 53.421875 
Q 53.21875 48.921875 51.53125 44.890625 
Q 49.859375 40.875 45.40625 35.40625 
Q 44.1875 33.984375 37.640625 27.21875 
Q 31.109375 20.453125 19.1875 8.296875 
z
" id="DejaVuSans-50"/>
      </defs>
      <g transform="translate(120.598223 322.182437)scale(0.1 -0.1)">
       <use xlink:href="#DejaVuSans-48"/>
       <use x="63.623047" xlink:href="#DejaVuSans-46"/>
       <use x="95.410156" xlink:href="#DejaVuSans-50"/>
      </g>
     </g>
    </g>
    <g id="xtick_3">
     <g id="line2d_3">
      <g>
       <use style="stroke:#000000;stroke-width:0.8;" x="165.027824" xlink:href="#m8c34d3441e" y="307.584"/>
      </g>
     </g>
     <g id="text_3">
      <!-- 0.3 -->
      <defs>
       <path d="M 40.578125 39.3125 
Q 47.65625 37.796875 51.625 33 
Q 55.609375 28.21875 55.609375 21.1875 
Q 55.609375 10.40625 48.1875 4.484375 
Q 40.765625 -1.421875 27.09375 -1.421875 
Q 22.515625 -1.421875 17.65625 -0.515625 
Q 12.796875 0.390625 7.625 2.203125 
L 7.625 11.71875 
Q 11.71875 9.328125 16.59375 8.109375 
Q 21.484375 6.890625 26.8125 6.890625 
Q 36.078125 6.890625 40.9375 10.546875 
Q 45.796875 14.203125 45.796875 21.1875 
Q 45.796875 27.640625 41.28125 31.265625 
Q 36.765625 34.90625 28.71875 34.90625 
L 20.21875 34.90625 
L 20.21875 43.015625 
L 29.109375 43.015625 
Q 36.375 43.015625 40.234375 45.921875 
Q 44.09375 48.828125 44.09375 54.296875 
Q 44.09375 59.90625 40.109375 62.90625 
Q 36.140625 65.921875 28.71875 65.921875 
Q 24.65625 65.921875 20.015625 65.03125 
Q 15.375 64.15625 9.8125 62.3125 
L 9.8125 71.09375 
Q 15.4375 72.65625 20.34375 73.4375 
Q 25.25 74.21875 29.59375 74.21875 
Q 40.828125 74.21875 47.359375 69.109375 
Q 53.90625 64.015625 53.90625 55.328125 
Q 53.90625 49.265625 50.4375 45.09375 
Q 46.96875 40.921875 40.578125 39.3125 
z
" id="DejaVuSans-51"/>
      </defs>
      <g transform="translate(157.076262 322.182437)scale(0.1 -0.1)">
       <use xlink:href="#DejaVuSans-48"/>
       <use x="63.623047" xlink:href="#DejaVuSans-46"/>
       <use x="95.410156" xlink:href="#DejaVuSans-51"/>
      </g>
     </g>
    </g>
    <g id="xtick_4">
     <g id="line2d_4">
      <g>
       <use style="stroke:#000000;stroke-width:0.8;" x="201.505863" xlink:href="#m8c34d3441e" y="307.584"/>
      </g>
     </g>
     <g id="text_4">
      <!-- 0.4 -->
      <defs>
       <path d="M 37.796875 64.3125 
L 12.890625 25.390625 
L 37.796875 25.390625 
z
M 35.203125 72.90625 
L 47.609375 72.90625 
L 47.609375 25.390625 
L 58.015625 25.390625 
L 58.015625 17.1875 
L 47.609375 17.1875 
L 47.609375 0 
L 37.796875 0 
L 37.796875 17.1875 
L 4.890625 17.1875 
L 4.890625 26.703125 
z
" id="DejaVuSans-52"/>
      </defs>
      <g transform="translate(193.554301 322.182437)scale(0.1 -0.1)">
       <use xlink:href="#DejaVuSans-48"/>
       <use x="63.623047" xlink:href="#DejaVuSans-46"/>
       <use x="95.410156" xlink:href="#DejaVuSans-52"/>
      </g>
     </g>
    </g>
    <g id="xtick_5">
     <g id="line2d_5">
      <g>
       <use style="stroke:#000000;stroke-width:0.8;" x="237.983902" xlink:href="#m8c34d3441e" y="307.584"/>
      </g>
     </g>
     <g id="text_5">
      <!-- 0.5 -->
      <defs>
       <path d="M 10.796875 72.90625 
L 49.515625 72.90625 
L 49.515625 64.59375 
L 19.828125 64.59375 
L 19.828125 46.734375 
Q 21.96875 47.46875 24.109375 47.828125 
Q 26.265625 48.1875 28.421875 48.1875 
Q 40.625 48.1875 47.75 41.5 
Q 54.890625 34.8125 54.890625 23.390625 
Q 54.890625 11.625 47.5625 5.09375 
Q 40.234375 -1.421875 26.90625 -1.421875 
Q 22.3125 -1.421875 17.546875 -0.640625 
Q 12.796875 0.140625 7.71875 1.703125 
L 7.71875 11.625 
Q 12.109375 9.234375 16.796875 8.0625 
Q 21.484375 6.890625 26.703125 6.890625 
Q 35.15625 6.890625 40.078125 11.328125 
Q 45.015625 15.765625 45.015625 23.390625 
Q 45.015625 31 40.078125 35.4375 
Q 35.15625 39.890625 26.703125 39.890625 
Q 22.75 39.890625 18.8125 39.015625 
Q 14.890625 38.140625 10.796875 36.28125 
z
" id="DejaVuSans-53"/>
      </defs>
      <g transform="translate(230.032339 322.182437)scale(0.1 -0.1)">
       <use xlink:href="#DejaVuSans-48"/>
       <use x="63.623047" xlink:href="#DejaVuSans-46"/>
       <use x="95.410156" xlink:href="#DejaVuSans-53"/>
      </g>
     </g>
    </g>
    <g id="xtick_6">
     <g id="line2d_6">
      <g>
       <use style="stroke:#000000;stroke-width:0.8;" x="274.461941" xlink:href="#m8c34d3441e" y="307.584"/>
      </g>
     </g>
     <g id="text_6">
      <!-- 0.6 -->
      <defs>
       <path d="M 33.015625 40.375 
Q 26.375 40.375 22.484375 35.828125 
Q 18.609375 31.296875 18.609375 23.390625 
Q 18.609375 15.53125 22.484375 10.953125 
Q 26.375 6.390625 33.015625 6.390625 
Q 39.65625 6.390625 43.53125 10.953125 
Q 47.40625 15.53125 47.40625 23.390625 
Q 47.40625 31.296875 43.53125 35.828125 
Q 39.65625 40.375 33.015625 40.375 
z
M 52.59375 71.296875 
L 52.59375 62.3125 
Q 48.875 64.0625 45.09375 64.984375 
Q 41.3125 65.921875 37.59375 65.921875 
Q 27.828125 65.921875 22.671875 59.328125 
Q 17.53125 52.734375 16.796875 39.40625 
Q 19.671875 43.65625 24.015625 45.921875 
Q 28.375 48.1875 33.59375 48.1875 
Q 44.578125 48.1875 50.953125 41.515625 
Q 57.328125 34.859375 57.328125 23.390625 
Q 57.328125 12.15625 50.6875 5.359375 
Q 44.046875 -1.421875 33.015625 -1.421875 
Q 20.359375 -1.421875 13.671875 8.265625 
Q 6.984375 17.96875 6.984375 36.375 
Q 6.984375 53.65625 15.1875 63.9375 
Q 23.390625 74.21875 37.203125 74.21875 
Q 40.921875 74.21875 44.703125 73.484375 
Q 48.484375 72.75 52.59375 71.296875 
z
" id="DejaVuSans-54"/>
      </defs>
      <g transform="translate(266.510378 322.182437)scale(0.1 -0.1)">
       <use xlink:href="#DejaVuSans-48"/>
       <use x="63.623047" xlink:href="#DejaVuSans-46"/>
       <use x="95.410156" xlink:href="#DejaVuSans-54"/>
      </g>
     </g>
    </g>
    <g id="xtick_7">
     <g id="line2d_7">
      <g>
       <use style="stroke:#000000;stroke-width:0.8;" x="310.93998" xlink:href="#m8c34d3441e" y="307.584"/>
      </g>
     </g>
     <g id="text_7">
      <!-- 0.7 -->
      <defs>
       <path d="M 8.203125 72.90625 
L 55.078125 72.90625 
L 55.078125 68.703125 
L 28.609375 0 
L 18.3125 0 
L 43.21875 64.59375 
L 8.203125 64.59375 
z
" id="DejaVuSans-55"/>
      </defs>
      <g transform="translate(302.988417 322.182437)scale(0.1 -0.1)">
       <use xlink:href="#DejaVuSans-48"/>
       <use x="63.623047" xlink:href="#DejaVuSans-46"/>
       <use x="95.410156" xlink:href="#DejaVuSans-55"/>
      </g>
     </g>
    </g>
    <g id="xtick_8">
     <g id="line2d_8">
      <g>
       <use style="stroke:#000000;stroke-width:0.8;" x="347.418018" xlink:href="#m8c34d3441e" y="307.584"/>
      </g>
     </g>
     <g id="text_8">
      <!-- 0.8 -->
      <defs>
       <path d="M 31.78125 34.625 
Q 24.75 34.625 20.71875 30.859375 
Q 16.703125 27.09375 16.703125 20.515625 
Q 16.703125 13.921875 20.71875 10.15625 
Q 24.75 6.390625 31.78125 6.390625 
Q 38.8125 6.390625 42.859375 10.171875 
Q 46.921875 13.96875 46.921875 20.515625 
Q 46.921875 27.09375 42.890625 30.859375 
Q 38.875 34.625 31.78125 34.625 
z
M 21.921875 38.8125 
Q 15.578125 40.375 12.03125 44.71875 
Q 8.5 49.078125 8.5 55.328125 
Q 8.5 64.0625 14.71875 69.140625 
Q 20.953125 74.21875 31.78125 74.21875 
Q 42.671875 74.21875 48.875 69.140625 
Q 55.078125 64.0625 55.078125 55.328125 
Q 55.078125 49.078125 51.53125 44.71875 
Q 48 40.375 41.703125 38.8125 
Q 48.828125 37.15625 52.796875 32.3125 
Q 56.78125 27.484375 56.78125 20.515625 
Q 56.78125 9.90625 50.3125 4.234375 
Q 43.84375 -1.421875 31.78125 -1.421875 
Q 19.734375 -1.421875 13.25 4.234375 
Q 6.78125 9.90625 6.78125 20.515625 
Q 6.78125 27.484375 10.78125 32.3125 
Q 14.796875 37.15625 21.921875 38.8125 
z
M 18.3125 54.390625 
Q 18.3125 48.734375 21.84375 45.5625 
Q 25.390625 42.390625 31.78125 42.390625 
Q 38.140625 42.390625 41.71875 45.5625 
Q 45.3125 48.734375 45.3125 54.390625 
Q 45.3125 60.0625 41.71875 63.234375 
Q 38.140625 66.40625 31.78125 66.40625 
Q 25.390625 66.40625 21.84375 63.234375 
Q 18.3125 60.0625 18.3125 54.390625 
z
" id="DejaVuSans-56"/>
      </defs>
      <g transform="translate(339.466456 322.182437)scale(0.1 -0.1)">
       <use xlink:href="#DejaVuSans-48"/>
       <use x="63.623047" xlink:href="#DejaVuSans-46"/>
       <use x="95.410156" xlink:href="#DejaVuSans-56"/>
      </g>
     </g>
    </g>
    <g id="xtick_9">
     <g id="line2d_9">
      <g>
       <use style="stroke:#000000;stroke-width:0.8;" x="383.896057" xlink:href="#m8c34d3441e" y="307.584"/>
      </g>
     </g>
     <g id="text_9">
      <!-- 0.9 -->
      <defs>
       <path d="M 10.984375 1.515625 
L 10.984375 10.5 
Q 14.703125 8.734375 18.5 7.8125 
Q 22.3125 6.890625 25.984375 6.890625 
Q 35.75 6.890625 40.890625 13.453125 
Q 46.046875 20.015625 46.78125 33.40625 
Q 43.953125 29.203125 39.59375 26.953125 
Q 35.25 24.703125 29.984375 24.703125 
Q 19.046875 24.703125 12.671875 31.3125 
Q 6.296875 37.9375 6.296875 49.421875 
Q 6.296875 60.640625 12.9375 67.421875 
Q 19.578125 74.21875 30.609375 74.21875 
Q 43.265625 74.21875 49.921875 64.515625 
Q 56.59375 54.828125 56.59375 36.375 
Q 56.59375 19.140625 48.40625 8.859375 
Q 40.234375 -1.421875 26.421875 -1.421875 
Q 22.703125 -1.421875 18.890625 -0.6875 
Q 15.09375 0.046875 10.984375 1.515625 
z
M 30.609375 32.421875 
Q 37.25 32.421875 41.125 36.953125 
Q 45.015625 41.5 45.015625 49.421875 
Q 45.015625 57.28125 41.125 61.84375 
Q 37.25 66.40625 30.609375 66.40625 
Q 23.96875 66.40625 20.09375 61.84375 
Q 16.21875 57.28125 16.21875 49.421875 
Q 16.21875 41.5 20.09375 36.953125 
Q 23.96875 32.421875 30.609375 32.421875 
z
" id="DejaVuSans-57"/>
      </defs>
      <g transform="translate(375.944495 322.182437)scale(0.1 -0.1)">
       <use xlink:href="#DejaVuSans-48"/>
       <use x="63.623047" xlink:href="#DejaVuSans-46"/>
       <use x="95.410156" xlink:href="#DejaVuSans-57"/>
      </g>
     </g>
    </g>
    <g id="text_10">
     <!-- Probability of contact failure -->
     <defs>
      <path d="M 19.671875 64.796875 
L 19.671875 37.40625 
L 32.078125 37.40625 
Q 38.96875 37.40625 42.71875 40.96875 
Q 46.484375 44.53125 46.484375 51.125 
Q 46.484375 57.671875 42.71875 61.234375 
Q 38.96875 64.796875 32.078125 64.796875 
z
M 9.8125 72.90625 
L 32.078125 72.90625 
Q 44.34375 72.90625 50.609375 67.359375 
Q 56.890625 61.8125 56.890625 51.125 
Q 56.890625 40.328125 50.609375 34.8125 
Q 44.34375 29.296875 32.078125 29.296875 
L 19.671875 29.296875 
L 19.671875 0 
L 9.8125 0 
z
" id="DejaVuSans-80"/>
      <path d="M 41.109375 46.296875 
Q 39.59375 47.171875 37.8125 47.578125 
Q 36.03125 48 33.890625 48 
Q 26.265625 48 22.1875 43.046875 
Q 18.109375 38.09375 18.109375 28.8125 
L 18.109375 0 
L 9.078125 0 
L 9.078125 54.6875 
L 18.109375 54.6875 
L 18.109375 46.1875 
Q 20.953125 51.171875 25.484375 53.578125 
Q 30.03125 56 36.53125 56 
Q 37.453125 56 38.578125 55.875 
Q 39.703125 55.765625 41.0625 55.515625 
z
" id="DejaVuSans-114"/>
      <path d="M 30.609375 48.390625 
Q 23.390625 48.390625 19.1875 42.75 
Q 14.984375 37.109375 14.984375 27.296875 
Q 14.984375 17.484375 19.15625 11.84375 
Q 23.34375 6.203125 30.609375 6.203125 
Q 37.796875 6.203125 41.984375 11.859375 
Q 46.1875 17.53125 46.1875 27.296875 
Q 46.1875 37.015625 41.984375 42.703125 
Q 37.796875 48.390625 30.609375 48.390625 
z
M 30.609375 56 
Q 42.328125 56 49.015625 48.375 
Q 55.71875 40.765625 55.71875 27.296875 
Q 55.71875 13.875 49.015625 6.21875 
Q 42.328125 -1.421875 30.609375 -1.421875 
Q 18.84375 -1.421875 12.171875 6.21875 
Q 5.515625 13.875 5.515625 27.296875 
Q 5.515625 40.765625 12.171875 48.375 
Q 18.84375 56 30.609375 56 
z
" id="DejaVuSans-111"/>
      <path d="M 48.6875 27.296875 
Q 48.6875 37.203125 44.609375 42.84375 
Q 40.53125 48.484375 33.40625 48.484375 
Q 26.265625 48.484375 22.1875 42.84375 
Q 18.109375 37.203125 18.109375 27.296875 
Q 18.109375 17.390625 22.1875 11.75 
Q 26.265625 6.109375 33.40625 6.109375 
Q 40.53125 6.109375 44.609375 11.75 
Q 48.6875 17.390625 48.6875 27.296875 
z
M 18.109375 46.390625 
Q 20.953125 51.265625 25.265625 53.625 
Q 29.59375 56 35.59375 56 
Q 45.5625 56 51.78125 48.09375 
Q 58.015625 40.1875 58.015625 27.296875 
Q 58.015625 14.40625 51.78125 6.484375 
Q 45.5625 -1.421875 35.59375 -1.421875 
Q 29.59375 -1.421875 25.265625 0.953125 
Q 20.953125 3.328125 18.109375 8.203125 
L 18.109375 0 
L 9.078125 0 
L 9.078125 75.984375 
L 18.109375 75.984375 
z
" id="DejaVuSans-98"/>
      <path d="M 34.28125 27.484375 
Q 23.390625 27.484375 19.1875 25 
Q 14.984375 22.515625 14.984375 16.5 
Q 14.984375 11.71875 18.140625 8.90625 
Q 21.296875 6.109375 26.703125 6.109375 
Q 34.1875 6.109375 38.703125 11.40625 
Q 43.21875 16.703125 43.21875 25.484375 
L 43.21875 27.484375 
z
M 52.203125 31.203125 
L 52.203125 0 
L 43.21875 0 
L 43.21875 8.296875 
Q 40.140625 3.328125 35.546875 0.953125 
Q 30.953125 -1.421875 24.3125 -1.421875 
Q 15.921875 -1.421875 10.953125 3.296875 
Q 6 8.015625 6 15.921875 
Q 6 25.140625 12.171875 29.828125 
Q 18.359375 34.515625 30.609375 34.515625 
L 43.21875 34.515625 
L 43.21875 35.40625 
Q 43.21875 41.609375 39.140625 45 
Q 35.0625 48.390625 27.6875 48.390625 
Q 23 48.390625 18.546875 47.265625 
Q 14.109375 46.140625 10.015625 43.890625 
L 10.015625 52.203125 
Q 14.9375 54.109375 19.578125 55.046875 
Q 24.21875 56 28.609375 56 
Q 40.484375 56 46.34375 49.84375 
Q 52.203125 43.703125 52.203125 31.203125 
z
" id="DejaVuSans-97"/>
      <path d="M 9.421875 54.6875 
L 18.40625 54.6875 
L 18.40625 0 
L 9.421875 0 
z
M 9.421875 75.984375 
L 18.40625 75.984375 
L 18.40625 64.59375 
L 9.421875 64.59375 
z
" id="DejaVuSans-105"/>
      <path d="M 9.421875 75.984375 
L 18.40625 75.984375 
L 18.40625 0 
L 9.421875 0 
z
" id="DejaVuSans-108"/>
      <path d="M 18.3125 70.21875 
L 18.3125 54.6875 
L 36.8125 54.6875 
L 36.8125 47.703125 
L 18.3125 47.703125 
L 18.3125 18.015625 
Q 18.3125 11.328125 20.140625 9.421875 
Q 21.96875 7.515625 27.59375 7.515625 
L 36.8125 7.515625 
L 36.8125 0 
L 27.59375 0 
Q 17.1875 0 13.234375 3.875 
Q 9.28125 7.765625 9.28125 18.015625 
L 9.28125 47.703125 
L 2.6875 47.703125 
L 2.6875 54.6875 
L 9.28125 54.6875 
L 9.28125 70.21875 
z
" id="DejaVuSans-116"/>
      <path d="M 32.171875 -5.078125 
Q 28.375 -14.84375 24.75 -17.8125 
Q 21.140625 -20.796875 15.09375 -20.796875 
L 7.90625 -20.796875 
L 7.90625 -13.28125 
L 13.1875 -13.28125 
Q 16.890625 -13.28125 18.9375 -11.515625 
Q 21 -9.765625 23.484375 -3.21875 
L 25.09375 0.875 
L 2.984375 54.6875 
L 12.5 54.6875 
L 29.59375 11.921875 
L 46.6875 54.6875 
L 56.203125 54.6875 
z
" id="DejaVuSans-121"/>
      <path id="DejaVuSans-32"/>
      <path d="M 37.109375 75.984375 
L 37.109375 68.5 
L 28.515625 68.5 
Q 23.6875 68.5 21.796875 66.546875 
Q 19.921875 64.59375 19.921875 59.515625 
L 19.921875 54.6875 
L 34.71875 54.6875 
L 34.71875 47.703125 
L 19.921875 47.703125 
L 19.921875 0 
L 10.890625 0 
L 10.890625 47.703125 
L 2.296875 47.703125 
L 2.296875 54.6875 
L 10.890625 54.6875 
L 10.890625 58.5 
Q 10.890625 67.625 15.140625 71.796875 
Q 19.390625 75.984375 28.609375 75.984375 
z
" id="DejaVuSans-102"/>
      <path d="M 48.78125 52.59375 
L 48.78125 44.1875 
Q 44.96875 46.296875 41.140625 47.34375 
Q 37.3125 48.390625 33.40625 48.390625 
Q 24.65625 48.390625 19.8125 42.84375 
Q 14.984375 37.3125 14.984375 27.296875 
Q 14.984375 17.28125 19.8125 11.734375 
Q 24.65625 6.203125 33.40625 6.203125 
Q 37.3125 6.203125 41.140625 7.25 
Q 44.96875 8.296875 48.78125 10.40625 
L 48.78125 2.09375 
Q 45.015625 0.34375 40.984375 -0.53125 
Q 36.96875 -1.421875 32.421875 -1.421875 
Q 20.0625 -1.421875 12.78125 6.34375 
Q 5.515625 14.109375 5.515625 27.296875 
Q 5.515625 40.671875 12.859375 48.328125 
Q 20.21875 56 33.015625 56 
Q 37.15625 56 41.109375 55.140625 
Q 45.0625 54.296875 48.78125 52.59375 
z
" id="DejaVuSans-99"/>
      <path d="M 54.890625 33.015625 
L 54.890625 0 
L 45.90625 0 
L 45.90625 32.71875 
Q 45.90625 40.484375 42.875 44.328125 
Q 39.84375 48.1875 33.796875 48.1875 
Q 26.515625 48.1875 22.3125 43.546875 
Q 18.109375 38.921875 18.109375 30.90625 
L 18.109375 0 
L 9.078125 0 
L 9.078125 54.6875 
L 18.109375 54.6875 
L 18.109375 46.1875 
Q 21.34375 51.125 25.703125 53.5625 
Q 30.078125 56 35.796875 56 
Q 45.21875 56 50.046875 50.171875 
Q 54.890625 44.34375 54.890625 33.015625 
z
" id="DejaVuSans-110"/>
      <path d="M 8.5 21.578125 
L 8.5 54.6875 
L 17.484375 54.6875 
L 17.484375 21.921875 
Q 17.484375 14.15625 20.5 10.265625 
Q 23.53125 6.390625 29.59375 6.390625 
Q 36.859375 6.390625 41.078125 11.03125 
Q 45.3125 15.671875 45.3125 23.6875 
L 45.3125 54.6875 
L 54.296875 54.6875 
L 54.296875 0 
L 45.3125 0 
L 45.3125 8.40625 
Q 42.046875 3.421875 37.71875 1 
Q 33.40625 -1.421875 27.6875 -1.421875 
Q 18.265625 -1.421875 13.375 4.4375 
Q 8.5 10.296875 8.5 21.578125 
z
M 31.109375 56 
z
" id="DejaVuSans-117"/>
      <path d="M 56.203125 29.59375 
L 56.203125 25.203125 
L 14.890625 25.203125 
Q 15.484375 15.921875 20.484375 11.0625 
Q 25.484375 6.203125 34.421875 6.203125 
Q 39.59375 6.203125 44.453125 7.46875 
Q 49.3125 8.734375 54.109375 11.28125 
L 54.109375 2.78125 
Q 49.265625 0.734375 44.1875 -0.34375 
Q 39.109375 -1.421875 33.890625 -1.421875 
Q 20.796875 -1.421875 13.15625 6.1875 
Q 5.515625 13.8125 5.515625 26.8125 
Q 5.515625 40.234375 12.765625 48.109375 
Q 20.015625 56 32.328125 56 
Q 43.359375 56 49.78125 48.890625 
Q 56.203125 41.796875 56.203125 29.59375 
z
M 47.21875 32.234375 
Q 47.125 39.59375 43.09375 43.984375 
Q 39.0625 48.390625 32.421875 48.390625 
Q 24.90625 48.390625 20.390625 44.140625 
Q 15.875 39.890625 15.1875 32.171875 
z
" id="DejaVuSans-101"/>
     </defs>
     <g transform="translate(165.334219 335.860562)scale(0.1 -0.1)">
      <use xlink:href="#DejaVuSans-80"/>
      <use x="60.287109" xlink:href="#DejaVuSans-114"/>
      <use x="101.369141" xlink:href="#DejaVuSans-111"/>
      <use x="162.550781" xlink:href="#DejaVuSans-98"/>
      <use x="226.027344" xlink:href="#DejaVuSans-97"/>
      <use x="287.306641" xlink:href="#DejaVuSans-98"/>
      <use x="350.783203" xlink:href="#DejaVuSans-105"/>
      <use x="378.566406" xlink:href="#DejaVuSans-108"/>
      <use x="406.349609" xlink:href="#DejaVuSans-105"/>
      <use x="434.132812" xlink:href="#DejaVuSans-116"/>
      <use x="473.341797" xlink:href="#DejaVuSans-121"/>
      <use x="532.521484" xlink:href="#DejaVuSans-32"/>
      <use x="564.308594" xlink:href="#DejaVuSans-111"/>
      <use x="625.490234" xlink:href="#DejaVuSans-102"/>
      <use x="660.695312" xlink:href="#DejaVuSans-32"/>
      <use x="692.482422" xlink:href="#DejaVuSans-99"/>
      <use x="747.462891" xlink:href="#DejaVuSans-111"/>
      <use x="808.644531" xlink:href="#DejaVuSans-110"/>
      <use x="872.023438" xlink:href="#DejaVuSans-116"/>
      <use x="911.232422" xlink:href="#DejaVuSans-97"/>
      <use x="972.511719" xlink:href="#DejaVuSans-99"/>
      <use x="1027.492188" xlink:href="#DejaVuSans-116"/>
      <use x="1066.701172" xlink:href="#DejaVuSans-32"/>
      <use x="1098.488281" xlink:href="#DejaVuSans-102"/>
      <use x="1133.693359" xlink:href="#DejaVuSans-97"/>
      <use x="1194.972656" xlink:href="#DejaVuSans-105"/>
      <use x="1222.755859" xlink:href="#DejaVuSans-108"/>
      <use x="1250.539062" xlink:href="#DejaVuSans-117"/>
      <use x="1313.917969" xlink:href="#DejaVuSans-114"/>
      <use x="1355" xlink:href="#DejaVuSans-101"/>
     </g>
    </g>
   </g>
   <g id="matplotlib.axis_2">
    <g id="ytick_1">
     <g id="line2d_10">
      <defs>
       <path d="M 0 0 
L -3.5 0 
" id="m8e3be07fb6" style="stroke:#000000;stroke-width:0.8;"/>
      </defs>
      <g>
       <use style="stroke:#000000;stroke-width:0.8;" x="57.6" xlink:href="#m8e3be07fb6" y="290.917181"/>
      </g>
     </g>
     <g id="text_11">
      <!-- −700 -->
      <defs>
       <path d="M 10.59375 35.5 
L 73.1875 35.5 
L 73.1875 27.203125 
L 10.59375 27.203125 
z
" id="DejaVuSans-8722"/>
      </defs>
      <g transform="translate(23.132812 294.7164)scale(0.1 -0.1)">
       <use xlink:href="#DejaVuSans-8722"/>
       <use x="83.789062" xlink:href="#DejaVuSans-55"/>
       <use x="147.412109" xlink:href="#DejaVuSans-48"/>
       <use x="211.035156" xlink:href="#DejaVuSans-48"/>
      </g>
     </g>
    </g>
    <g id="ytick_2">
     <g id="line2d_11">
      <g>
       <use style="stroke:#000000;stroke-width:0.8;" x="57.6" xlink:href="#m8e3be07fb6" y="261.248533"/>
      </g>
     </g>
     <g id="text_12">
      <!-- −600 -->
      <g transform="translate(23.132812 265.047752)scale(0.1 -0.1)">
       <use xlink:href="#DejaVuSans-8722"/>
       <use x="83.789062" xlink:href="#DejaVuSans-54"/>
       <use x="147.412109" xlink:href="#DejaVuSans-48"/>
       <use x="211.035156" xlink:href="#DejaVuSans-48"/>
      </g>
     </g>
    </g>
    <g id="ytick_3">
     <g id="line2d_12">
      <g>
       <use style="stroke:#000000;stroke-width:0.8;" x="57.6" xlink:href="#m8e3be07fb6" y="231.579886"/>
      </g>
     </g>
     <g id="text_13">
      <!-- −500 -->
      <g transform="translate(23.132812 235.379104)scale(0.1 -0.1)">
       <use xlink:href="#DejaVuSans-8722"/>
       <use x="83.789062" xlink:href="#DejaVuSans-53"/>
       <use x="147.412109" xlink:href="#DejaVuSans-48"/>
       <use x="211.035156" xlink:href="#DejaVuSans-48"/>
      </g>
     </g>
    </g>
    <g id="ytick_4">
     <g id="line2d_13">
      <g>
       <use style="stroke:#000000;stroke-width:0.8;" x="57.6" xlink:href="#m8e3be07fb6" y="201.911238"/>
      </g>
     </g>
     <g id="text_14">
      <!-- −400 -->
      <g transform="translate(23.132812 205.710457)scale(0.1 -0.1)">
       <use xlink:href="#DejaVuSans-8722"/>
       <use x="83.789062" xlink:href="#DejaVuSans-52"/>
       <use x="147.412109" xlink:href="#DejaVuSans-48"/>
       <use x="211.035156" xlink:href="#DejaVuSans-48"/>
      </g>
     </g>
    </g>
    <g id="ytick_5">
     <g id="line2d_14">
      <g>
       <use style="stroke:#000000;stroke-width:0.8;" x="57.6" xlink:href="#m8e3be07fb6" y="172.24259"/>
      </g>
     </g>
     <g id="text_15">
      <!-- −300 -->
      <g transform="translate(23.132812 176.041809)scale(0.1 -0.1)">
       <use xlink:href="#DejaVuSans-8722"/>
       <use x="83.789062" xlink:href="#DejaVuSans-51"/>
       <use x="147.412109" xlink:href="#DejaVuSans-48"/>
       <use x="211.035156" xlink:href="#DejaVuSans-48"/>
      </g>
     </g>
    </g>
    <g id="ytick_6">
     <g id="line2d_15">
      <g>
       <use style="stroke:#000000;stroke-width:0.8;" x="57.6" xlink:href="#m8e3be07fb6" y="142.573943"/>
      </g>
     </g>
     <g id="text_16">
      <!-- −200 -->
      <g transform="translate(23.132812 146.373162)scale(0.1 -0.1)">
       <use xlink:href="#DejaVuSans-8722"/>
       <use x="83.789062" xlink:href="#DejaVuSans-50"/>
       <use x="147.412109" xlink:href="#DejaVuSans-48"/>
       <use x="211.035156" xlink:href="#DejaVuSans-48"/>
      </g>
     </g>
    </g>
    <g id="ytick_7">
     <g id="line2d_16">
      <g>
       <use style="stroke:#000000;stroke-width:0.8;" x="57.6" xlink:href="#m8e3be07fb6" y="112.905295"/>
      </g>
     </g>
     <g id="text_17">
      <!-- −100 -->
      <g transform="translate(23.132812 116.704514)scale(0.1 -0.1)">
       <use xlink:href="#DejaVuSans-8722"/>
       <use x="83.789062" xlink:href="#DejaVuSans-49"/>
       <use x="147.412109" xlink:href="#DejaVuSans-48"/>
       <use x="211.035156" xlink:href="#DejaVuSans-48"/>
      </g>
     </g>
    </g>
    <g id="ytick_8">
     <g id="line2d_17">
      <g>
       <use style="stroke:#000000;stroke-width:0.8;" x="57.6" xlink:href="#m8e3be07fb6" y="83.236648"/>
      </g>
     </g>
     <g id="text_18">
      <!-- 0 -->
      <g transform="translate(44.2375 87.035866)scale(0.1 -0.1)">
       <use xlink:href="#DejaVuSans-48"/>
      </g>
     </g>
    </g>
    <g id="ytick_9">
     <g id="line2d_18">
      <g>
       <use style="stroke:#000000;stroke-width:0.8;" x="57.6" xlink:href="#m8e3be07fb6" y="53.568"/>
      </g>
     </g>
     <g id="text_19">
      <!-- 100 -->
      <g transform="translate(31.5125 57.367219)scale(0.1 -0.1)">
       <use xlink:href="#DejaVuSans-49"/>
       <use x="63.623047" xlink:href="#DejaVuSans-48"/>
       <use x="127.246094" xlink:href="#DejaVuSans-48"/>
      </g>
     </g>
    </g>
    <g id="text_20">
     <!-- % Improvement regarding CGR -->
     <defs>
      <path d="M 72.703125 32.078125 
Q 68.453125 32.078125 66.03125 28.46875 
Q 63.625 24.859375 63.625 18.40625 
Q 63.625 12.0625 66.03125 8.421875 
Q 68.453125 4.78125 72.703125 4.78125 
Q 76.859375 4.78125 79.265625 8.421875 
Q 81.6875 12.0625 81.6875 18.40625 
Q 81.6875 24.8125 79.265625 28.4375 
Q 76.859375 32.078125 72.703125 32.078125 
z
M 72.703125 38.28125 
Q 80.421875 38.28125 84.953125 32.90625 
Q 89.5 27.546875 89.5 18.40625 
Q 89.5 9.28125 84.9375 3.921875 
Q 80.375 -1.421875 72.703125 -1.421875 
Q 64.890625 -1.421875 60.34375 3.921875 
Q 55.8125 9.28125 55.8125 18.40625 
Q 55.8125 27.59375 60.375 32.9375 
Q 64.9375 38.28125 72.703125 38.28125 
z
M 22.3125 68.015625 
Q 18.109375 68.015625 15.6875 64.375 
Q 13.28125 60.75 13.28125 54.390625 
Q 13.28125 47.953125 15.671875 44.328125 
Q 18.0625 40.71875 22.3125 40.71875 
Q 26.5625 40.71875 28.96875 44.328125 
Q 31.390625 47.953125 31.390625 54.390625 
Q 31.390625 60.6875 28.953125 64.34375 
Q 26.515625 68.015625 22.3125 68.015625 
z
M 66.40625 74.21875 
L 74.21875 74.21875 
L 28.609375 -1.421875 
L 20.796875 -1.421875 
z
M 22.3125 74.21875 
Q 30.03125 74.21875 34.609375 68.875 
Q 39.203125 63.53125 39.203125 54.390625 
Q 39.203125 45.171875 34.640625 39.84375 
Q 30.078125 34.515625 22.3125 34.515625 
Q 14.546875 34.515625 10.03125 39.859375 
Q 5.515625 45.21875 5.515625 54.390625 
Q 5.515625 63.484375 10.046875 68.84375 
Q 14.59375 74.21875 22.3125 74.21875 
z
" id="DejaVuSans-37"/>
      <path d="M 9.8125 72.90625 
L 19.671875 72.90625 
L 19.671875 0 
L 9.8125 0 
z
" id="DejaVuSans-73"/>
      <path d="M 52 44.1875 
Q 55.375 50.25 60.0625 53.125 
Q 64.75 56 71.09375 56 
Q 79.640625 56 84.28125 50.015625 
Q 88.921875 44.046875 88.921875 33.015625 
L 88.921875 0 
L 79.890625 0 
L 79.890625 32.71875 
Q 79.890625 40.578125 77.09375 44.375 
Q 74.3125 48.1875 68.609375 48.1875 
Q 61.625 48.1875 57.5625 43.546875 
Q 53.515625 38.921875 53.515625 30.90625 
L 53.515625 0 
L 44.484375 0 
L 44.484375 32.71875 
Q 44.484375 40.625 41.703125 44.40625 
Q 38.921875 48.1875 33.109375 48.1875 
Q 26.21875 48.1875 22.15625 43.53125 
Q 18.109375 38.875 18.109375 30.90625 
L 18.109375 0 
L 9.078125 0 
L 9.078125 54.6875 
L 18.109375 54.6875 
L 18.109375 46.1875 
Q 21.1875 51.21875 25.484375 53.609375 
Q 29.78125 56 35.6875 56 
Q 41.65625 56 45.828125 52.96875 
Q 50 49.953125 52 44.1875 
z
" id="DejaVuSans-109"/>
      <path d="M 18.109375 8.203125 
L 18.109375 -20.796875 
L 9.078125 -20.796875 
L 9.078125 54.6875 
L 18.109375 54.6875 
L 18.109375 46.390625 
Q 20.953125 51.265625 25.265625 53.625 
Q 29.59375 56 35.59375 56 
Q 45.5625 56 51.78125 48.09375 
Q 58.015625 40.1875 58.015625 27.296875 
Q 58.015625 14.40625 51.78125 6.484375 
Q 45.5625 -1.421875 35.59375 -1.421875 
Q 29.59375 -1.421875 25.265625 0.953125 
Q 20.953125 3.328125 18.109375 8.203125 
z
M 48.6875 27.296875 
Q 48.6875 37.203125 44.609375 42.84375 
Q 40.53125 48.484375 33.40625 48.484375 
Q 26.265625 48.484375 22.1875 42.84375 
Q 18.109375 37.203125 18.109375 27.296875 
Q 18.109375 17.390625 22.1875 11.75 
Q 26.265625 6.109375 33.40625 6.109375 
Q 40.53125 6.109375 44.609375 11.75 
Q 48.6875 17.390625 48.6875 27.296875 
z
" id="DejaVuSans-112"/>
      <path d="M 2.984375 54.6875 
L 12.5 54.6875 
L 29.59375 8.796875 
L 46.6875 54.6875 
L 56.203125 54.6875 
L 35.6875 0 
L 23.484375 0 
z
" id="DejaVuSans-118"/>
      <path d="M 45.40625 27.984375 
Q 45.40625 37.75 41.375 43.109375 
Q 37.359375 48.484375 30.078125 48.484375 
Q 22.859375 48.484375 18.828125 43.109375 
Q 14.796875 37.75 14.796875 27.984375 
Q 14.796875 18.265625 18.828125 12.890625 
Q 22.859375 7.515625 30.078125 7.515625 
Q 37.359375 7.515625 41.375 12.890625 
Q 45.40625 18.265625 45.40625 27.984375 
z
M 54.390625 6.78125 
Q 54.390625 -7.171875 48.1875 -13.984375 
Q 42 -20.796875 29.203125 -20.796875 
Q 24.46875 -20.796875 20.265625 -20.09375 
Q 16.0625 -19.390625 12.109375 -17.921875 
L 12.109375 -9.1875 
Q 16.0625 -11.328125 19.921875 -12.34375 
Q 23.78125 -13.375 27.78125 -13.375 
Q 36.625 -13.375 41.015625 -8.765625 
Q 45.40625 -4.15625 45.40625 5.171875 
L 45.40625 9.625 
Q 42.625 4.78125 38.28125 2.390625 
Q 33.9375 0 27.875 0 
Q 17.828125 0 11.671875 7.65625 
Q 5.515625 15.328125 5.515625 27.984375 
Q 5.515625 40.671875 11.671875 48.328125 
Q 17.828125 56 27.875 56 
Q 33.9375 56 38.28125 53.609375 
Q 42.625 51.21875 45.40625 46.390625 
L 45.40625 54.6875 
L 54.390625 54.6875 
z
" id="DejaVuSans-103"/>
      <path d="M 45.40625 46.390625 
L 45.40625 75.984375 
L 54.390625 75.984375 
L 54.390625 0 
L 45.40625 0 
L 45.40625 8.203125 
Q 42.578125 3.328125 38.25 0.953125 
Q 33.9375 -1.421875 27.875 -1.421875 
Q 17.96875 -1.421875 11.734375 6.484375 
Q 5.515625 14.40625 5.515625 27.296875 
Q 5.515625 40.1875 11.734375 48.09375 
Q 17.96875 56 27.875 56 
Q 33.9375 56 38.25 53.625 
Q 42.578125 51.265625 45.40625 46.390625 
z
M 14.796875 27.296875 
Q 14.796875 17.390625 18.875 11.75 
Q 22.953125 6.109375 30.078125 6.109375 
Q 37.203125 6.109375 41.296875 11.75 
Q 45.40625 17.390625 45.40625 27.296875 
Q 45.40625 37.203125 41.296875 42.84375 
Q 37.203125 48.484375 30.078125 48.484375 
Q 22.953125 48.484375 18.875 42.84375 
Q 14.796875 37.203125 14.796875 27.296875 
z
" id="DejaVuSans-100"/>
      <path d="M 64.40625 67.28125 
L 64.40625 56.890625 
Q 59.421875 61.53125 53.78125 63.8125 
Q 48.140625 66.109375 41.796875 66.109375 
Q 29.296875 66.109375 22.65625 58.46875 
Q 16.015625 50.828125 16.015625 36.375 
Q 16.015625 21.96875 22.65625 14.328125 
Q 29.296875 6.6875 41.796875 6.6875 
Q 48.140625 6.6875 53.78125 8.984375 
Q 59.421875 11.28125 64.40625 15.921875 
L 64.40625 5.609375 
Q 59.234375 2.09375 53.4375 0.328125 
Q 47.65625 -1.421875 41.21875 -1.421875 
Q 24.65625 -1.421875 15.125 8.703125 
Q 5.609375 18.84375 5.609375 36.375 
Q 5.609375 53.953125 15.125 64.078125 
Q 24.65625 74.21875 41.21875 74.21875 
Q 47.75 74.21875 53.53125 72.484375 
Q 59.328125 70.75 64.40625 67.28125 
z
" id="DejaVuSans-67"/>
      <path d="M 59.515625 10.40625 
L 59.515625 29.984375 
L 43.40625 29.984375 
L 43.40625 38.09375 
L 69.28125 38.09375 
L 69.28125 6.78125 
Q 63.578125 2.734375 56.6875 0.65625 
Q 49.8125 -1.421875 42 -1.421875 
Q 24.90625 -1.421875 15.25 8.5625 
Q 5.609375 18.5625 5.609375 36.375 
Q 5.609375 54.25 15.25 64.234375 
Q 24.90625 74.21875 42 74.21875 
Q 49.125 74.21875 55.546875 72.453125 
Q 61.96875 70.703125 67.390625 67.28125 
L 67.390625 56.78125 
Q 61.921875 61.421875 55.765625 63.765625 
Q 49.609375 66.109375 42.828125 66.109375 
Q 29.4375 66.109375 22.71875 58.640625 
Q 16.015625 51.171875 16.015625 36.375 
Q 16.015625 21.625 22.71875 14.15625 
Q 29.4375 6.6875 42.828125 6.6875 
Q 48.046875 6.6875 52.140625 7.59375 
Q 56.25 8.5 59.515625 10.40625 
z
" id="DejaVuSans-71"/>
      <path d="M 44.390625 34.1875 
Q 47.5625 33.109375 50.5625 29.59375 
Q 53.5625 26.078125 56.59375 19.921875 
L 66.609375 0 
L 56 0 
L 46.6875 18.703125 
Q 43.0625 26.03125 39.671875 28.421875 
Q 36.28125 30.8125 30.421875 30.8125 
L 19.671875 30.8125 
L 19.671875 0 
L 9.8125 0 
L 9.8125 72.90625 
L 32.078125 72.90625 
Q 44.578125 72.90625 50.734375 67.671875 
Q 56.890625 62.453125 56.890625 51.90625 
Q 56.890625 45.015625 53.6875 40.46875 
Q 50.484375 35.9375 44.390625 34.1875 
z
M 19.671875 64.796875 
L 19.671875 38.921875 
L 32.078125 38.921875 
Q 39.203125 38.921875 42.84375 42.21875 
Q 46.484375 45.515625 46.484375 51.90625 
Q 46.484375 58.296875 42.84375 61.546875 
Q 39.203125 64.796875 32.078125 64.796875 
z
" id="DejaVuSans-82"/>
     </defs>
     <g transform="translate(17.053125 252.960031)rotate(-90)scale(0.1 -0.1)">
      <use xlink:href="#DejaVuSans-37"/>
      <use x="95.019531" xlink:href="#DejaVuSans-32"/>
      <use x="126.806641" xlink:href="#DejaVuSans-73"/>
      <use x="156.298828" xlink:href="#DejaVuSans-109"/>
      <use x="253.710938" xlink:href="#DejaVuSans-112"/>
      <use x="317.1875" xlink:href="#DejaVuSans-114"/>
      <use x="358.269531" xlink:href="#DejaVuSans-111"/>
      <use x="419.451172" xlink:href="#DejaVuSans-118"/>
      <use x="478.630859" xlink:href="#DejaVuSans-101"/>
      <use x="540.154297" xlink:href="#DejaVuSans-109"/>
      <use x="637.566406" xlink:href="#DejaVuSans-101"/>
      <use x="699.089844" xlink:href="#DejaVuSans-110"/>
      <use x="762.46875" xlink:href="#DejaVuSans-116"/>
      <use x="801.677734" xlink:href="#DejaVuSans-32"/>
      <use x="833.464844" xlink:href="#DejaVuSans-114"/>
      <use x="874.546875" xlink:href="#DejaVuSans-101"/>
      <use x="936.070312" xlink:href="#DejaVuSans-103"/>
      <use x="999.546875" xlink:href="#DejaVuSans-97"/>
      <use x="1060.826172" xlink:href="#DejaVuSans-114"/>
      <use x="1101.923828" xlink:href="#DejaVuSans-100"/>
      <use x="1165.400391" xlink:href="#DejaVuSans-105"/>
      <use x="1193.183594" xlink:href="#DejaVuSans-110"/>
      <use x="1256.5625" xlink:href="#DejaVuSans-103"/>
      <use x="1320.039062" xlink:href="#DejaVuSans-32"/>
      <use x="1351.826172" xlink:href="#DejaVuSans-67"/>
      <use x="1421.650391" xlink:href="#DejaVuSans-71"/>
      <use x="1499.140625" xlink:href="#DejaVuSans-82"/>
     </g>
    </g>
   </g>
   <g id="patch_84">
    <path d="M 57.6 307.584 
L 57.6 41.472 
" style="fill:none;stroke:#000000;stroke-linecap:square;stroke-linejoin:miter;stroke-width:0.8;"/>
   </g>
   <g id="patch_85">
    <path d="M 414.72 307.584 
L 414.72 41.472 
" style="fill:none;stroke:#000000;stroke-linecap:square;stroke-linejoin:miter;stroke-width:0.8;"/>
   </g>
   <g id="patch_86">
    <path d="M 57.6 307.584 
L 414.72 307.584 
" style="fill:none;stroke:#000000;stroke-linecap:square;stroke-linejoin:miter;stroke-width:0.8;"/>
   </g>
   <g id="patch_87">
    <path d="M 57.6 41.472 
L 414.72 41.472 
" style="fill:none;stroke:#000000;stroke-linecap:square;stroke-linejoin:miter;stroke-width:0.8;"/>
   </g>
   <g id="legend_1">
    <g id="patch_88">
     <path d="M 64.6 302.584 
L 183.39375 302.584 
Q 185.39375 302.584 185.39375 300.584 
L 185.39375 169.480875 
Q 185.39375 167.480875 183.39375 167.480875 
L 64.6 167.480875 
Q 62.6 167.480875 62.6 169.480875 
L 62.6 300.584 
Q 62.6 302.584 64.6 302.584 
z
" style="fill:#ffffff;opacity:0.8;stroke:#cccccc;stroke-linejoin:miter;"/>
    </g>
    <g id="patch_89">
     <path d="M 66.6 179.079313 
L 86.6 179.079313 
L 86.6 172.079313 
L 66.6 172.079313 
z
"/>
    </g>
    <g id="text_21">
     <!-- CGR-FaultsAware -->
     <defs>
      <path d="M 4.890625 31.390625 
L 31.203125 31.390625 
L 31.203125 23.390625 
L 4.890625 23.390625 
z
" id="DejaVuSans-45"/>
      <path d="M 9.8125 72.90625 
L 51.703125 72.90625 
L 51.703125 64.59375 
L 19.671875 64.59375 
L 19.671875 43.109375 
L 48.578125 43.109375 
L 48.578125 34.8125 
L 19.671875 34.8125 
L 19.671875 0 
L 9.8125 0 
z
" id="DejaVuSans-70"/>
      <path d="M 44.28125 53.078125 
L 44.28125 44.578125 
Q 40.484375 46.53125 36.375 47.5 
Q 32.28125 48.484375 27.875 48.484375 
Q 21.1875 48.484375 17.84375 46.4375 
Q 14.5 44.390625 14.5 40.28125 
Q 14.5 37.15625 16.890625 35.375 
Q 19.28125 33.59375 26.515625 31.984375 
L 29.59375 31.296875 
Q 39.15625 29.25 43.1875 25.515625 
Q 47.21875 21.78125 47.21875 15.09375 
Q 47.21875 7.46875 41.1875 3.015625 
Q 35.15625 -1.421875 24.609375 -1.421875 
Q 20.21875 -1.421875 15.453125 -0.5625 
Q 10.6875 0.296875 5.421875 2 
L 5.421875 11.28125 
Q 10.40625 8.6875 15.234375 7.390625 
Q 20.0625 6.109375 24.8125 6.109375 
Q 31.15625 6.109375 34.5625 8.28125 
Q 37.984375 10.453125 37.984375 14.40625 
Q 37.984375 18.0625 35.515625 20.015625 
Q 33.0625 21.96875 24.703125 23.78125 
L 21.578125 24.515625 
Q 13.234375 26.265625 9.515625 29.90625 
Q 5.8125 33.546875 5.8125 39.890625 
Q 5.8125 47.609375 11.28125 51.796875 
Q 16.75 56 26.8125 56 
Q 31.78125 56 36.171875 55.265625 
Q 40.578125 54.546875 44.28125 53.078125 
z
" id="DejaVuSans-115"/>
      <path d="M 34.1875 63.1875 
L 20.796875 26.90625 
L 47.609375 26.90625 
z
M 28.609375 72.90625 
L 39.796875 72.90625 
L 67.578125 0 
L 57.328125 0 
L 50.6875 18.703125 
L 17.828125 18.703125 
L 11.1875 0 
L 0.78125 0 
z
" id="DejaVuSans-65"/>
      <path d="M 4.203125 54.6875 
L 13.1875 54.6875 
L 24.421875 12.015625 
L 35.59375 54.6875 
L 46.1875 54.6875 
L 57.421875 12.015625 
L 68.609375 54.6875 
L 77.59375 54.6875 
L 63.28125 0 
L 52.6875 0 
L 40.921875 44.828125 
L 29.109375 0 
L 18.5 0 
z
" id="DejaVuSans-119"/>
     </defs>
     <g transform="translate(94.6 179.079313)scale(0.1 -0.1)">
      <use xlink:href="#DejaVuSans-67"/>
      <use x="69.824219" xlink:href="#DejaVuSans-71"/>
      <use x="147.314453" xlink:href="#DejaVuSans-82"/>
      <use x="216.734375" xlink:href="#DejaVuSans-45"/>
      <use x="252.818359" xlink:href="#DejaVuSans-70"/>
      <use x="310.197266" xlink:href="#DejaVuSans-97"/>
      <use x="371.476562" xlink:href="#DejaVuSans-117"/>
      <use x="434.855469" xlink:href="#DejaVuSans-108"/>
      <use x="462.638672" xlink:href="#DejaVuSans-116"/>
      <use x="501.847656" xlink:href="#DejaVuSans-115"/>
      <use x="553.947266" xlink:href="#DejaVuSans-65"/>
      <use x="622.292969" xlink:href="#DejaVuSans-119"/>
      <use x="704.080078" xlink:href="#DejaVuSans-97"/>
      <use x="765.359375" xlink:href="#DejaVuSans-114"/>
      <use x="806.441406" xlink:href="#DejaVuSans-101"/>
     </g>
    </g>
    <g id="patch_90">
     <path d="M 66.6 193.757438 
L 86.6 193.757438 
L 86.6 186.757438 
L 66.6 186.757438 
z
" style="fill:#ffa500;"/>
    </g>
    <g id="text_22">
     <!-- BRUF-4 -->
     <defs>
      <path d="M 19.671875 34.8125 
L 19.671875 8.109375 
L 35.5 8.109375 
Q 43.453125 8.109375 47.28125 11.40625 
Q 51.125 14.703125 51.125 21.484375 
Q 51.125 28.328125 47.28125 31.5625 
Q 43.453125 34.8125 35.5 34.8125 
z
M 19.671875 64.796875 
L 19.671875 42.828125 
L 34.28125 42.828125 
Q 41.5 42.828125 45.03125 45.53125 
Q 48.578125 48.25 48.578125 53.8125 
Q 48.578125 59.328125 45.03125 62.0625 
Q 41.5 64.796875 34.28125 64.796875 
z
M 9.8125 72.90625 
L 35.015625 72.90625 
Q 46.296875 72.90625 52.390625 68.21875 
Q 58.5 63.53125 58.5 54.890625 
Q 58.5 48.1875 55.375 44.234375 
Q 52.25 40.28125 46.1875 39.3125 
Q 53.46875 37.75 57.5 32.78125 
Q 61.53125 27.828125 61.53125 20.40625 
Q 61.53125 10.640625 54.890625 5.3125 
Q 48.25 0 35.984375 0 
L 9.8125 0 
z
" id="DejaVuSans-66"/>
      <path d="M 8.6875 72.90625 
L 18.609375 72.90625 
L 18.609375 28.609375 
Q 18.609375 16.890625 22.84375 11.734375 
Q 27.09375 6.59375 36.625 6.59375 
Q 46.09375 6.59375 50.34375 11.734375 
Q 54.59375 16.890625 54.59375 28.609375 
L 54.59375 72.90625 
L 64.5 72.90625 
L 64.5 27.390625 
Q 64.5 13.140625 57.4375 5.859375 
Q 50.390625 -1.421875 36.625 -1.421875 
Q 22.796875 -1.421875 15.734375 5.859375 
Q 8.6875 13.140625 8.6875 27.390625 
z
" id="DejaVuSans-85"/>
     </defs>
     <g transform="translate(94.6 193.757438)scale(0.1 -0.1)">
      <use xlink:href="#DejaVuSans-66"/>
      <use x="68.603516" xlink:href="#DejaVuSans-82"/>
      <use x="138.085938" xlink:href="#DejaVuSans-85"/>
      <use x="211.279297" xlink:href="#DejaVuSans-70"/>
      <use x="268.798828" xlink:href="#DejaVuSans-45"/>
      <use x="304.882812" xlink:href="#DejaVuSans-52"/>
     </g>
    </g>
    <g id="patch_91">
     <path d="M 66.6 208.435563 
L 86.6 208.435563 
L 86.6 201.435563 
L 66.6 201.435563 
z
" style="fill:#0000ff;"/>
    </g>
    <g id="text_23">
     <!-- BRUF-3 -->
     <g transform="translate(94.6 208.435563)scale(0.1 -0.1)">
      <use xlink:href="#DejaVuSans-66"/>
      <use x="68.603516" xlink:href="#DejaVuSans-82"/>
      <use x="138.085938" xlink:href="#DejaVuSans-85"/>
      <use x="211.279297" xlink:href="#DejaVuSans-70"/>
      <use x="268.798828" xlink:href="#DejaVuSans-45"/>
      <use x="304.882812" xlink:href="#DejaVuSans-51"/>
     </g>
    </g>
    <g id="patch_92">
     <path d="M 66.6 223.113688 
L 86.6 223.113688 
L 86.6 216.113688 
L 66.6 216.113688 
z
" style="fill:#008000;"/>
    </g>
    <g id="text_24">
     <!-- BRUF-2 -->
     <g transform="translate(94.6 223.113688)scale(0.1 -0.1)">
      <use xlink:href="#DejaVuSans-66"/>
      <use x="68.603516" xlink:href="#DejaVuSans-82"/>
      <use x="138.085938" xlink:href="#DejaVuSans-85"/>
      <use x="211.279297" xlink:href="#DejaVuSans-70"/>
      <use x="268.798828" xlink:href="#DejaVuSans-45"/>
      <use x="304.882812" xlink:href="#DejaVuSans-50"/>
     </g>
    </g>
    <g id="patch_93">
     <path d="M 66.6 237.791813 
L 86.6 237.791813 
L 86.6 230.791813 
L 66.6 230.791813 
z
" style="fill:#ff0000;"/>
    </g>
    <g id="text_25">
     <!-- BRUF-1 -->
     <g transform="translate(94.6 237.791813)scale(0.1 -0.1)">
      <use xlink:href="#DejaVuSans-66"/>
      <use x="68.603516" xlink:href="#DejaVuSans-82"/>
      <use x="138.085938" xlink:href="#DejaVuSans-85"/>
      <use x="211.279297" xlink:href="#DejaVuSans-70"/>
      <use x="268.798828" xlink:href="#DejaVuSans-45"/>
      <use x="304.882812" xlink:href="#DejaVuSans-49"/>
     </g>
    </g>
    <g id="patch_94">
     <path d="M 66.6 252.469938 
L 86.6 252.469938 
L 86.6 245.469938 
L 66.6 245.469938 
z
" style="fill:#8b008b;"/>
    </g>
    <g id="text_26">
     <!-- CGR-BRUF -->
     <g transform="translate(94.6 252.469938)scale(0.1 -0.1)">
      <use xlink:href="#DejaVuSans-67"/>
      <use x="69.824219" xlink:href="#DejaVuSans-71"/>
      <use x="147.314453" xlink:href="#DejaVuSans-82"/>
      <use x="216.734375" xlink:href="#DejaVuSans-45"/>
      <use x="252.771484" xlink:href="#DejaVuSans-66"/>
      <use x="321.375" xlink:href="#DejaVuSans-82"/>
      <use x="390.857422" xlink:href="#DejaVuSans-85"/>
      <use x="464.050781" xlink:href="#DejaVuSans-70"/>
     </g>
    </g>
    <g id="patch_95">
     <path d="M 66.6 267.148063 
L 86.6 267.148063 
L 86.6 260.148063 
L 66.6 260.148063 
z
" style="fill:#ffc0cb;"/>
    </g>
    <g id="text_27">
     <!-- SprayAndWait-4 -->
     <defs>
      <path d="M 53.515625 70.515625 
L 53.515625 60.890625 
Q 47.90625 63.578125 42.921875 64.890625 
Q 37.9375 66.21875 33.296875 66.21875 
Q 25.25 66.21875 20.875 63.09375 
Q 16.5 59.96875 16.5 54.203125 
Q 16.5 49.359375 19.40625 46.890625 
Q 22.3125 44.4375 30.421875 42.921875 
L 36.375 41.703125 
Q 47.40625 39.59375 52.65625 34.296875 
Q 57.90625 29 57.90625 20.125 
Q 57.90625 9.515625 50.796875 4.046875 
Q 43.703125 -1.421875 29.984375 -1.421875 
Q 24.8125 -1.421875 18.96875 -0.25 
Q 13.140625 0.921875 6.890625 3.21875 
L 6.890625 13.375 
Q 12.890625 10.015625 18.65625 8.296875 
Q 24.421875 6.59375 29.984375 6.59375 
Q 38.421875 6.59375 43.015625 9.90625 
Q 47.609375 13.234375 47.609375 19.390625 
Q 47.609375 24.75 44.3125 27.78125 
Q 41.015625 30.8125 33.5 32.328125 
L 27.484375 33.5 
Q 16.453125 35.6875 11.515625 40.375 
Q 6.59375 45.0625 6.59375 53.421875 
Q 6.59375 63.09375 13.40625 68.65625 
Q 20.21875 74.21875 32.171875 74.21875 
Q 37.3125 74.21875 42.625 73.28125 
Q 47.953125 72.359375 53.515625 70.515625 
z
" id="DejaVuSans-83"/>
      <path d="M 3.328125 72.90625 
L 13.28125 72.90625 
L 28.609375 11.28125 
L 43.890625 72.90625 
L 54.984375 72.90625 
L 70.3125 11.28125 
L 85.59375 72.90625 
L 95.609375 72.90625 
L 77.296875 0 
L 64.890625 0 
L 49.515625 63.28125 
L 33.984375 0 
L 21.578125 0 
z
" id="DejaVuSans-87"/>
     </defs>
     <g transform="translate(94.6 267.148063)scale(0.1 -0.1)">
      <use xlink:href="#DejaVuSans-83"/>
      <use x="63.476562" xlink:href="#DejaVuSans-112"/>
      <use x="126.953125" xlink:href="#DejaVuSans-114"/>
      <use x="168.066406" xlink:href="#DejaVuSans-97"/>
      <use x="229.345703" xlink:href="#DejaVuSans-121"/>
      <use x="288.525391" xlink:href="#DejaVuSans-65"/>
      <use x="356.933594" xlink:href="#DejaVuSans-110"/>
      <use x="420.3125" xlink:href="#DejaVuSans-100"/>
      <use x="483.789062" xlink:href="#DejaVuSans-87"/>
      <use x="582.572266" xlink:href="#DejaVuSans-97"/>
      <use x="643.851562" xlink:href="#DejaVuSans-105"/>
      <use x="671.634766" xlink:href="#DejaVuSans-116"/>
      <use x="710.84375" xlink:href="#DejaVuSans-45"/>
      <use x="746.927734" xlink:href="#DejaVuSans-52"/>
     </g>
    </g>
    <g id="patch_96">
     <path d="M 66.6 281.826188 
L 86.6 281.826188 
L 86.6 274.826188 
L 66.6 274.826188 
z
" style="fill:#6a5acd;"/>
    </g>
    <g id="text_28">
     <!-- SprayAndWait-3 -->
     <g transform="translate(94.6 281.826188)scale(0.1 -0.1)">
      <use xlink:href="#DejaVuSans-83"/>
      <use x="63.476562" xlink:href="#DejaVuSans-112"/>
      <use x="126.953125" xlink:href="#DejaVuSans-114"/>
      <use x="168.066406" xlink:href="#DejaVuSans-97"/>
      <use x="229.345703" xlink:href="#DejaVuSans-121"/>
      <use x="288.525391" xlink:href="#DejaVuSans-65"/>
      <use x="356.933594" xlink:href="#DejaVuSans-110"/>
      <use x="420.3125" xlink:href="#DejaVuSans-100"/>
      <use x="483.789062" xlink:href="#DejaVuSans-87"/>
      <use x="582.572266" xlink:href="#DejaVuSans-97"/>
      <use x="643.851562" xlink:href="#DejaVuSans-105"/>
      <use x="671.634766" xlink:href="#DejaVuSans-116"/>
      <use x="710.84375" xlink:href="#DejaVuSans-45"/>
      <use x="746.927734" xlink:href="#DejaVuSans-51"/>
     </g>
    </g>
    <g id="patch_97">
     <path d="M 66.6 296.504312 
L 86.6 296.504312 
L 86.6 289.504312 
L 66.6 289.504312 
z
" style="fill:#008b8b;"/>
    </g>
    <g id="text_29">
     <!-- SprayAndWait-2 -->
     <g transform="translate(94.6 296.504312)scale(0.1 -0.1)">
      <use xlink:href="#DejaVuSans-83"/>
      <use x="63.476562" xlink:href="#DejaVuSans-112"/>
      <use x="126.953125" xlink:href="#DejaVuSans-114"/>
      <use x="168.066406" xlink:href="#DejaVuSans-97"/>
      <use x="229.345703" xlink:href="#DejaVuSans-121"/>
      <use x="288.525391" xlink:href="#DejaVuSans-65"/>
      <use x="356.933594" xlink:href="#DejaVuSans-110"/>
      <use x="420.3125" xlink:href="#DejaVuSans-100"/>
      <use x="483.789062" xlink:href="#DejaVuSans-87"/>
      <use x="582.572266" xlink:href="#DejaVuSans-97"/>
      <use x="643.851562" xlink:href="#DejaVuSans-105"/>
      <use x="671.634766" xlink:href="#DejaVuSans-116"/>
      <use x="710.84375" xlink:href="#DejaVuSans-45"/>
      <use x="746.927734" xlink:href="#DejaVuSans-50"/>
     </g>
    </g>
   </g>
  </g>
 </g>
 <defs>
  <clipPath id="p4b0f8544aa">
   <rect height="266.112" width="357.12" x="57.6" y="41.472"/>
  </clipPath>
 </defs>
</svg>
