a contact +0000000 +0000060 1 3 12000
a contact +0000006 +0000060 1 12 12000
a contact +0000060 +0000120 1 3 12000
a contact +0000060 +0000120 1 12 12000
a contact +0000120 +0000180 1 12 12000
a contact +0000180 +0000240 1 12 12000
a contact +0000240 +0000300 1 12 12000
a contact +0000300 +0000360 1 12 12000
a contact +0000360 +0000406 1 12 12000
a contact +0000540 +0000600 1 10 12000
a contact +0000600 +0000660 1 10 12000
a contact +0000660 +0000720 1 10 12000
a contact +0000720 +0000780 1 10 12000
a contact +0000780 +0000835 1 10 12000
a contact +0000983 +0001020 1 8 12000
a contact +0001020 +0001080 1 8 12000
a contact +0001080 +0001140 1 8 12000
a contact +0001140 +0001200 1 8 12000
a contact +0001158 +0001200 1 2 12000
a contact +0001200 +0001260 1 8 12000
a contact +0001200 +0001260 1 2 12000
a contact +0001260 +0001320 1 8 12000
a contact +0001260 +0001320 1 2 12000
a contact +0001320 +0001351 1 8 12000
a contact +0001320 +0001380 1 2 12000
a contact +0001380 +0001440 1 2 12000
a contact +0001440 +0001500 1 2 12000
a contact +0001454 +0001500 1 11 12000
a contact +0001500 +0001555 1 2 12000
a contact +0001500 +0001560 1 11 12000
a contact +0001560 +0001620 1 11 12000
a contact +0001620 +0001680 1 11 12000
a contact +0001680 +0001740 1 11 12000
a contact +0001740 +0001800 1 11 12000
a contact +0001800 +0001840 1 11 12000
a contact +0001980 +0002040 1 13 12000
a contact +0002040 +0002100 1 13 12000
a contact +0002100 +0002160 1 13 12000
a contact +0002160 +0002220 1 13 12000
a contact +0002220 +0002280 1 13 12000
a contact +0002420 +0002460 1 7 12000
a contact +0002460 +0002520 1 7 12000
a contact +0002520 +0002580 1 7 12000
a contact +0002580 +0002640 1 7 12000
a contact +0002589 +0002640 1 5 12000
a contact +0002640 +0002700 1 7 12000
a contact +0002640 +0002700 1 5 12000
a contact +0002700 +0002760 1 7 12000
a contact +0002700 +0002760 1 5 12000
a contact +0002760 +0002820 1 5 12000
a contact +0002820 +0002880 1 5 12000
a contact +0002880 +0002940 1 5 12000
a contact +0002910 +0002940 1 10 12000
a contact +0002940 +0002990 1 5 12000
a contact +0002940 +0003000 1 10 12000
a contact +0003000 +0003060 1 10 12000
a contact +0003060 +0003120 1 10 12000
a contact +0003120 +0003180 1 10 12000
a contact +0003180 +0003240 1 10 12000
a contact +0003240 +0003272 1 10 12000
a contact +0003420 +0003480 1 12 12000
a contact +0003480 +0003540 1 12 12000
a contact +0003540 +0003600 1 12 12000
a contact +0003600 +0003660 1 12 12000
a contact +0003660 +0003720 1 12 12000
a contact +0003720 +0003760 1 12 12000
a contact +0003857 +0003900 1 6 12000
a contact +0003900 +0003960 1 6 12000
a contact +0003960 +0004020 1 6 12000
a contact +0004020 +0004080 1 6 12000
a contact +0004022 +0004080 1 4 12000
a contact +0004080 +0004140 1 6 12000
a contact +0004080 +0004140 1 4 12000
a contact +0004140 +0004183 1 6 12000
a contact +0004140 +0004200 1 4 12000
a contact +0004200 +0004260 1 4 12000
a contact +0004260 +0004320 1 4 12000
a contact +0004320 +0004380 1 4 12000
a contact +0004380 +0004426 1 4 12000
a contact +0004380 +0004440 1 13 12000
a contact +0004440 +0004500 1 13 12000
a contact +0004500 +0004560 1 13 12000
a contact +0004560 +0004620 1 13 12000
a contact +0004620 +0004680 1 13 12000
a contact +0004860 +0004920 1 11 12000
a contact +0004920 +0004980 1 11 12000
a contact +0004980 +0005040 1 11 12000
a contact +0005040 +0005100 1 11 12000
a contact +0005100 +0005160 1 11 12000
a contact +0005113 +0005160 6 14 12000
a contact +0005160 +0005214 1 11 12000
a contact +0005160 +0005220 6 14 12000
a contact +0005220 +0005280 6 14 12000
a contact +0005292 +0005340 1 9 12000
a contact +0005340 +0005400 1 9 12000
a contact +0005400 +0005460 1 9 12000
a contact +0005460 +0005520 1 9 12000
a contact +0005460 +0005520 1 3 12000
a contact +0005520 +0005580 1 9 12000
a contact +0005520 +0005580 1 3 12000
a contact +0005580 +0005640 1 3 12000
a contact +0005640 +0005700 1 3 12000
a contact +0005700 +0005760 1 3 12000
a contact +0005760 +0005820 1 3 12000
a contact +0005820 +0005863 1 3 12000
a contact +0005880 +0005940 1 12 12000
a contact +0005940 +0006000 1 12 12000
a contact +0006000 +0006060 1 12 12000
a contact +0006060 +0006120 1 12 12000
a contact +0006300 +0006360 1 10 12000
a contact +0006360 +0006420 1 10 12000
a contact +0006420 +0006480 1 10 12000
a contact +0006480 +0006540 1 10 12000
a contact +0006540 +0006600 1 10 12000
a contact +0006540 +0006600 9 14 12000
a contact +0006600 +0006660 1 10 12000
a contact +0006600 +0006660 9 14 12000
a contact +0006660 +0006720 9 14 12000
a contact +0006720 +0006758 9 14 12000
a contact +0006725 +0006780 1 8 12000
a contact +0006780 +0006840 1 8 12000
a contact +0006840 +0006900 1 8 12000
a contact +0006900 +0006960 1 8 12000
a contact +0006900 +0006960 1 2 12000
a contact +0006960 +0007008 1 8 12000
a contact +0006960 +0007020 1 2 12000
a contact +0007020 +0007080 1 2 12000
a contact +0007080 +0007140 1 2 12000
a contact +0007140 +0007200 1 2 12000
a contact +0007200 +0007260 1 2 12000
a contact +0007260 +0007300 1 2 12000
a contact +0007380 +0007440 1 11 12000
a contact +0007440 +0007500 1 11 12000
a contact +0007500 +0007530 1 11 12000
a contact +0007710 +0007740 1 13 12000
a contact +0007740 +0007800 1 13 12000
a contact +0007800 +0007860 1 13 12000
a contact +0007860 +0007920 1 13 12000
a contact +0007920 +0007980 1 13 12000
a contact +0007980 +0008040 1 13 12000
a contact +0008007 +0008040 8 14 12000
a contact +0008040 +0008100 1 13 12000
a contact +0008040 +0008100 8 14 12000
a contact +0008160 +0008220 1 7 12000
a contact +0008220 +0008280 1 7 12000
a contact +0008280 +0008340 1 7 12000
a contact +0008340 +0008400 1 7 12000
a contact +0008340 +0008400 1 5 12000
a contact +0008400 +0008460 1 5 12000
a contact +0008460 +0008520 1 5 12000
a contact +0008520 +0008580 1 5 12000
a contact +0008580 +0008640 1 5 12000
a contact +0008640 +0008700 1 5 12000
a contact +0008700 +0008737 1 5 12000
a contact +0009148 +0009180 1 12 12000
a contact +0009180 +0009240 1 12 12000
a contact +0009240 +0009300 1 12 12000
a contact +0009300 +0009360 1 12 12000
a contact +0009360 +0009420 1 12 12000
a contact +0009420 +0009480 1 12 12000
a contact +0009480 +0009540 1 12 12000
a contact +0009600 +0009660 1 6 12000
a contact +0009660 +0009720 1 6 12000
a contact +0009720 +0009780 1 6 12000
a contact +0009780 +0009835 1 6 12000
a contact +0009780 +0009840 1 4 12000
a contact +0009840 +0009900 1 4 12000
a contact +0009900 +0009960 1 4 12000
a contact +0009960 +0010020 1 4 12000
a contact +0010020 +0010080 1 4 12000
a contact +0010080 +0010140 1 4 12000
a contact +0010140 +0010174 1 4 12000
a contact +0010585 +0010620 1 11 12000
a contact +0010620 +0010680 1 11 12000
a contact +0010680 +0010740 1 11 12000
a contact +0010740 +0010800 1 11 12000
a contact +0010800 +0010860 1 11 12000
a contact +0010860 +0010920 1 11 12000
a contact +0010920 +0010980 1 11 12000
a contact +0011007 +0011040 1 9 12000
a contact +0011040 +0011100 1 9 12000
a contact +0011100 +0011160 1 9 12000
a contact +0011160 +0011220 1 9 12000
a contact +0011220 +0011253 1 9 12000
a contact +0011223 +0011280 1 3 12000
a contact +0011280 +0011340 1 3 12000
a contact +0011340 +0011400 1 3 12000
a contact +0011400 +0011460 1 3 12000
a contact +0011460 +0011520 1 3 12000
a contact +0011520 +0011580 1 3 12000
a contact +0011580 +0011612 1 3 12000
a contact +0012022 +0012060 1 10 12000
a contact +0012060 +0012120 1 10 12000
a contact +0012120 +0012180 1 10 12000
a contact +0012180 +0012240 1 10 12000
a contact +0012240 +0012300 1 10 12000
a contact +0012300 +0012360 1 10 12000
a contact +0012360 +0012420 1 10 12000
a contact +0012427 +0012480 1 8 12000
a contact +0012480 +0012540 1 8 12000
a contact +0012540 +0012600 1 8 12000
a contact +0012600 +0012660 1 8 12000
a contact +0012674 +0012720 1 2 12000
a contact +0012720 +0012780 1 2 12000
a contact +0012780 +0012840 1 2 12000
a contact +0012840 +0012900 1 2 12000
a contact +0012900 +0012960 1 2 12000
a contact +0012960 +0013020 1 2 12000
a contact +0013459 +0013500 1 13 12000
a contact +0013500 +0013560 1 13 12000
a contact +0013560 +0013620 1 13 12000
a contact +0013620 +0013680 1 13 12000
a contact +0013680 +0013740 1 13 12000
a contact +0013740 +0013800 1 13 12000
a contact +0013800 +0013860 1 13 12000
a contact +0013860 +0013920 1 7 12000
a contact +0013920 +0013980 1 7 12000
a contact +0013980 +0014040 1 7 12000
a contact +0014040 +0014099 1 7 12000
a contact +0014130 +0014160 1 5 12000
a contact +0014160 +0014220 1 5 12000
a contact +0014220 +0014280 1 5 12000
a contact +0014280 +0014340 1 5 12000
a contact +0014340 +0014400 1 5 12000
a contact +0014400 +0014460 1 5 12000
a contact +0014894 +0014940 1 12 12000
a contact +0014940 +0015000 1 12 12000
a contact +0015000 +0015060 1 12 12000
a contact +0015060 +0015120 1 12 12000
a contact +0015120 +0015180 1 12 12000
a contact +0015180 +0015240 1 12 12000
a contact +0015240 +0015295 1 12 12000
a contact +0015257 +0015300 1 6 12000
a contact +0015300 +0015360 1 6 12000
a contact +0015360 +0015420 1 6 12000
a contact +0015420 +0015480 1 6 12000
a contact +0015480 +0015528 1 6 12000
a contact +0015600 +0015660 1 4 12000
a contact +0015660 +0015720 1 4 12000
a contact +0015720 +0015780 1 4 12000
a contact +0015780 +0015840 1 4 12000
a contact +0015840 +0015900 1 4 12000
a contact +0016143 +0016200 1 2 12000
a contact +0016200 +0016260 1 2 12000
a contact +0016260 +0016320 1 2 12000
a contact +0016320 +0016353 1 2 12000
a contact +0016329 +0016380 1 11 12000
a contact +0016380 +0016440 1 11 12000
a contact +0016440 +0016500 1 11 12000
a contact +0016500 +0016560 1 11 12000
a contact +0016560 +0016620 1 11 12000
a contact +0016620 +0016680 1 11 12000
a contact +0016680 +0016725 1 11 12000
a contact +0016680 +0016740 1 9 12000
a contact +0016740 +0016800 1 9 12000
a contact +0016800 +0016860 1 9 12000
a contact +0016860 +0016920 1 9 12000
a contact +0016920 +0016960 1 9 12000
a contact +0017058 +0017100 1 3 12000
a contact +0017100 +0017160 1 3 12000
a contact +0017160 +0017220 1 3 12000
a contact +0017220 +0017280 1 3 12000
a contact +0017280 +0017340 1 3 12000
a contact +0017580 +0017640 1 5 12000
a contact +0017640 +0017700 1 5 12000
a contact +0017700 +0017760 1 5 12000
a contact +0017760 +0017820 1 5 12000
a contact +0017764 +0017820 1 10 12000
a contact +0017820 +0017880 1 10 12000
a contact +0017880 +0017940 1 10 12000
a contact +0017940 +0018000 1 10 12000
a contact +0018000 +0018060 1 10 12000
a contact +0018060 +0018120 1 10 12000
a contact +0018082 +0018120 1 8 12000
a contact +0018120 +0018155 1 10 12000
a contact +0018120 +0018180 1 8 12000
a contact +0018180 +0018240 1 8 12000
a contact +0018240 +0018300 1 8 12000
a contact +0018300 +0018360 1 8 12000
a contact +0018360 +0018394 1 8 12000
a contact +0018540 +0018600 1 2 12000
a contact +0018600 +0018660 1 2 12000
a contact +0018660 +0018720 1 2 12000
a contact +0018720 +0018780 1 2 12000
a contact +0018981 +0019020 1 4 12000
a contact +0019020 +0019080 1 4 12000
a contact +0019080 +0019140 1 4 12000
a contact +0019140 +0019200 1 4 12000
a contact +0019200 +0019260 1 4 12000
a contact +0019200 +0019260 1 13 12000
a contact +0019260 +0019318 1 4 12000
a contact +0019260 +0019320 1 13 12000
a contact +0019320 +0019380 1 13 12000
a contact +0019380 +0019440 1 13 12000
a contact +0019380 +0019440 10 14 12000
a contact +0019440 +0019500 1 13 12000
a contact +0019440 +0019500 10 14 12000
a contact +0019500 +0019560 1 13 12000
a contact +0019500 +0019560 10 14 12000
a contact +0019500 +0019560 1 7 12000
a contact +0019560 +0019590 10 14 12000
a contact +0019560 +0019620 1 7 12000
a contact +0019620 +0019680 1 7 12000
a contact +0019680 +0019740 1 7 12000
a contact +0019740 +0019800 1 7 12000
a contact +0020040 +0020100 1 5 12000
a contact +0020100 +0020160 1 5 12000
a contact +0020160 +0020205 1 5 12000
a contact +0020410 +0020460 1 3 12000
a contact +0020460 +0020520 1 3 12000
a contact +0020520 +0020580 1 3 12000
a contact +0020580 +0020640 1 3 12000
a contact +0020640 +0020700 1 3 12000
a contact +0020640 +0020700 1 12 12000
a contact +0020700 +0020760 1 3 12000
a contact +0020700 +0020760 1 12 12000
a contact +0020760 +0020820 1 12 12000
a contact +0020820 +0020880 1 12 12000
a contact +0020820 +0020880 13 14 12000
a contact +0020880 +0020940 1 12 12000
a contact +0020880 +0020940 13 14 12000
a contact +0020940 +0021000 1 12 12000
a contact +0020940 +0021000 13 14 12000
a contact +0020940 +0021000 1 6 12000
a contact +0021000 +0021060 1 6 12000
a contact +0021060 +0021120 1 6 12000
a contact +0021120 +0021180 1 6 12000
a contact +0021180 +0021240 1 6 12000
a contact +0021540 +0021600 1 4 12000
a contact +0021843 +0021900 1 2 12000
a contact +0021900 +0021960 1 2 12000
a contact +0021960 +0022020 1 2 12000
a contact +0022020 +0022080 1 2 12000
a contact +0022080 +0022140 1 2 12000
a contact +0022080 +0022140 1 11 12000
a contact +0022140 +0022200 1 2 12000
a contact +0022140 +0022200 1 11 12000
a contact +0022200 +0022234 1 2 12000
a contact +0022200 +0022260 1 11 12000
a contact +0022260 +0022320 1 11 12000
a contact +0022320 +0022380 1 11 12000
a contact +0022329 +0022380 1 9 12000
a contact +0022380 +0022440 1 11 12000
a contact +0022380 +0022440 1 9 12000
a contact +0022440 +0022500 1 9 12000
a contact +0022500 +0022560 1 9 12000
a contact +0022560 +0022620 1 9 12000
a contact +0022620 +0022680 1 9 12000
a contact +0023280 +0023340 1 5 12000
a contact +0023340 +0023400 1 5 12000
a contact +0023400 +0023460 1 5 12000
a contact +0023460 +0023520 1 5 12000
a contact +0023520 +0023580 1 5 12000
a contact +0023520 +0023580 1 10 12000
a contact +0023580 +0023640 1 5 12000
a contact +0023580 +0023640 1 10 12000
a contact +0023640 +0023680 1 5 12000
a contact +0023640 +0023700 1 10 12000
a contact +0023700 +0023760 1 10 12000
a contact +0023760 +0023820 1 10 12000
a contact +0023760 +0023820 1 8 12000
a contact +0023820 +0023874 1 10 12000
a contact +0023820 +0023880 1 8 12000
a contact +0023880 +0023940 1 8 12000
a contact +0023940 +0024000 1 8 12000
a contact +0024000 +0024060 1 8 12000
a contact +0024060 +0024120 1 8 12000
a contact +0024720 +0024780 1 4 12000
a contact +0024780 +0024840 1 4 12000
a contact +0024840 +0024900 1 4 12000
a contact +0024900 +0024960 1 4 12000
a contact +0024920 +0024960 1 13 12000
a contact +0024960 +0025020 1 4 12000
a contact +0024960 +0025020 1 13 12000
a contact +0025020 +0025080 1 4 12000
a contact +0025020 +0025080 1 13 12000
a contact +0025080 +0025118 1 4 12000
a contact +0025080 +0025140 1 13 12000
a contact +0025140 +0025200 1 13 12000
a contact +0025200 +0025260 1 13 12000
a contact +0025200 +0025260 1 7 12000
a contact +0025260 +0025305 1 13 12000
a contact +0025260 +0025320 1 7 12000
a contact +0025320 +0025380 1 7 12000
a contact +0025380 +0025440 1 7 12000
a contact +0025440 +0025500 1 7 12000
a contact +0025500 +0025560 1 7 12000
a contact +0025740 +0025800 1 9 12000
a contact +0025800 +0025860 1 9 12000
a contact +0025860 +0025891 1 9 12000
a contact +0026160 +0026220 1 3 12000
a contact +0026220 +0026280 1 3 12000
a contact +0026280 +0026340 1 3 12000
a contact +0026340 +0026400 1 3 12000
a contact +0026350 +0026400 1 12 12000
a contact +0026400 +0026460 1 3 12000
a contact +0026400 +0026460 1 12 12000
a contact +0026460 +0026520 1 3 12000
a contact +0026460 +0026520 1 12 12000
a contact +0026520 +0026551 1 3 12000
a contact +0026520 +0026580 1 12 12000
a contact +0026580 +0026640 1 12 12000
a contact +0026640 +0026700 1 12 12000
a contact +0026640 +0026700 1 6 12000
a contact +0026700 +0026737 1 12 12000
a contact +0026700 +0026760 1 6 12000
a contact +0026760 +0026820 1 6 12000
a contact +0026820 +0026880 1 6 12000
a contact +0026880 +0026940 1 6 12000
a contact +0026940 +0027000 1 6 12000
a contact +0027180 +0027240 1 8 12000
a contact +0027240 +0027300 1 8 12000
a contact +0027300 +0027360 1 8 12000
a contact +0027600 +0027660 1 2 12000
a contact +0027660 +0027720 1 2 12000
a contact +0027720 +0027780 1 2 12000
a contact +0027780 +0027840 1 2 12000
a contact +0027780 +0027840 1 11 12000
a contact +0027840 +0027900 1 2 12000
a contact +0027840 +0027900 1 11 12000
a contact +0027900 +0027960 1 2 12000
a contact +0027900 +0027960 1 11 12000
a contact +0027960 +0028020 1 11 12000
a contact +0028020 +0028080 1 11 12000
a contact +0028049 +0028080 1 9 12000
a contact +0028080 +0028140 1 11 12000
a contact +0028080 +0028140 1 9 12000
a contact +0028140 +0028170 1 11 12000
a contact +0028140 +0028200 1 9 12000
a contact +0028200 +0028260 1 9 12000
a contact +0028260 +0028320 1 9 12000
a contact +0028320 +0028380 1 9 12000
a contact +0028380 +0028440 1 9 12000
a contact +0028580 +0028620 1 7 12000
a contact +0028620 +0028680 1 7 12000
a contact +0028680 +0028740 1 7 12000
a contact +0028740 +0028800 1 7 12000
a contact +0028800 +0028860 1 7 12000
a contact +0029040 +0029100 1 5 12000
a contact +0029100 +0029160 1 5 12000
a contact +0029160 +0029220 1 5 12000
a contact +0029220 +0029280 1 5 12000
a contact +0029220 +0029280 1 10 12000
a contact +0029280 +0029340 1 5 12000
a contact +0029280 +0029340 1 10 12000
a contact +0029340 +0029400 1 5 12000
a contact +0029340 +0029400 1 10 12000
a contact +0029400 +0029460 1 10 12000
a contact +0029460 +0029520 1 10 12000
a contact +0029520 +0029580 1 10 12000
a contact +0029520 +0029580 1 8 12000
a contact +0029580 +0029640 1 8 12000
a contact +0029640 +0029700 1 8 12000
a contact +0029700 +0029760 1 8 12000
a contact +0029760 +0029820 1 8 12000
a contact +0029820 +0029880 1 8 12000
a contact +0030012 +0030060 1 6 12000
a contact +0030060 +0030120 1 6 12000
a contact +0030120 +0030180 1 6 12000
a contact +0030180 +0030240 1 6 12000
a contact +0030240 +0030300 1 6 12000
a contact +0030300 +0030331 1 6 12000
a contact +0030480 +0030540 1 4 12000
a contact +0030540 +0030600 1 4 12000
a contact +0030600 +0030660 1 4 12000
a contact +0030660 +0030720 1 4 12000
a contact +0030660 +0030720 1 13 12000
a contact +0030720 +0030780 1 4 12000
a contact +0030720 +0030780 1 13 12000
a contact +0030780 +0030821 1 4 12000
a contact +0030780 +0030840 1 13 12000
a contact +0030840 +0030900 1 13 12000
a contact +0030900 +0030960 1 13 12000
a contact +0030960 +0031020 1 13 12000
a contact +0030960 +0031020 1 7 12000
a contact +0031020 +0031080 1 7 12000
a contact +0031080 +0031140 1 7 12000
a contact +0031140 +0031200 1 7 12000
a contact +0031200 +0031260 1 7 12000
a contact +0031260 +0031319 1 7 12000
a contact +0031447 +0031500 1 9 12000
a contact +0031500 +0031560 1 9 12000
a contact +0031560 +0031620 1 9 12000
a contact +0031620 +0031680 1 9 12000
a contact +0031680 +0031740 1 9 12000
a contact +0031740 +0031794 1 9 12000
a contact +0031920 +0031980 1 3 12000
a contact +0031980 +0032040 1 3 12000
a contact +0032040 +0032100 1 3 12000
a contact +0032100 +0032160 1 3 12000
a contact +0032100 +0032160 1 12 12000
a contact +0032160 +0032220 1 3 12000
a contact +0032160 +0032220 1 12 12000
a contact +0032220 +0032280 1 12 12000
a contact +0032280 +0032340 1 12 12000
a contact +0032340 +0032400 1 12 12000
a contact +0032400 +0032460 1 12 12000
a contact +0032408 +0032460 1 6 12000
a contact +0032460 +0032520 1 6 12000
a contact +0032520 +0032580 1 6 12000
a contact +0032580 +0032640 1 6 12000
a contact +0032640 +0032700 1 6 12000
a contact +0032700 +0032749 1 6 12000
a contact +0032882 +0032940 1 8 12000
a contact +0032940 +0033000 1 8 12000
a contact +0033000 +0033060 1 8 12000
a contact +0033060 +0033120 1 8 12000
a contact +0033120 +0033180 1 8 12000
a contact +0033180 +0033240 1 8 12000
a contact +0033360 +0033420 1 2 12000
a contact +0033420 +0033480 1 2 12000
a contact +0033480 +0033540 1 2 12000
a contact +0033505 +0033540 1 11 12000
a contact +0033540 +0033600 1 2 12000
a contact +0033540 +0033600 1 11 12000
a contact +0033600 +0033650 1 2 12000
a contact +0033600 +0033660 1 11 12000
a contact +0033660 +0033720 1 11 12000
a contact +0033720 +0033780 1 11 12000
a contact +0033780 +0033840 1 11 12000
a contact +0033840 +0033900 1 11 12000
a contact +0033900 +0033960 1 9 12000
a contact +0033960 +0034020 1 9 12000
a contact +0034020 +0034080 1 9 12000
a contact +0034080 +0034140 1 9 12000
a contact +0034140 +0034174 1 9 12000
a contact +0034320 +0034380 1 7 12000
a contact +0034380 +0034440 1 7 12000
a contact +0034440 +0034500 1 7 12000
a contact +0034500 +0034560 1 7 12000
a contact +0034560 +0034620 1 7 12000
a contact +0034565 +0034620 2 14 12000
a contact +0034620 +0034680 1 7 12000
a contact +0034620 +0034680 2 14 12000
a contact +0034680 +0034740 2 14 12000
a contact +0034740 +0034800 2 14 12000
a contact +0034800 +0034860 1 5 12000
a contact +0034860 +0034920 1 5 12000
a contact +0034920 +0034980 1 5 12000
a contact +0034941 +0034980 1 10 12000
a contact +0034980 +0035040 1 5 12000
a contact +0034980 +0035040 1 10 12000
a contact +0035040 +0035100 1 10 12000
a contact +0035100 +0035160 1 10 12000
a contact +0035160 +0035220 1 10 12000
a contact +0035220 +0035280 1 10 12000
a contact +0035280 +0035340 1 10 12000
a contact +0035370 +0035400 1 8 12000
a contact +0035400 +0035460 1 8 12000
a contact +0035460 +0035520 1 8 12000
a contact +0035520 +0035580 1 8 12000
a contact +0035760 +0035820 1 6 12000
a contact +0035820 +0035880 1 6 12000
a contact +0035880 +0035940 1 6 12000
a contact +0035940 +0036000 1 6 12000
