a contact +0000000 +0000121 1 3 1
a contact +0000006 +0000406 1 12 1
a contact +0000529 +0000835 1 10 1
a contact +0000983 +0001351 1 8 1
a contact +0001158 +0001555 1 2 1
a contact +0001454 +0001840 1 11 1
a contact +0001963 +0002300 1 13 1
a contact +0002420 +0002769 1 7 1
a contact +0002589 +0002990 1 5 1
a contact +0002910 +0003272 1 10 1
a contact +0003399 +0003760 1 12 1
a contact +0003857 +0004183 1 6 1
a contact +0004022 +0004426 1 4 1
a contact +0004376 +0004701 1 13 1
a contact +0004836 +0005214 1 11 1
a contact +0005113 +0005298 6 14 1
a contact +0005292 +0005596 1 9 1
a contact +0005456 +0005863 1 3 1
a contact +0005854 +0006123 1 12 1
a contact +0006273 +0006664 1 10 1
a contact +0006515 +0006758 9 14 1
a contact +0006725 +0007008 1 8 1
a contact +0006893 +0007300 1 2 1
a contact +0007354 +0007530 1 11 1
a contact +0007710 +0008110 1 13 1
a contact +0008007 +0008126 8 14 1
a contact +0008156 +0008421 1 7 1
a contact +0008333 +0008737 1 5 1
a contact +0009148 +0009553 1 12 1
a contact +0009583 +0009835 1 6 1
a contact +0009776 +0010174 1 4 1
a contact +0010585 +0010992 1 11 1
a contact +0011007 +0011253 1 9 1
a contact +0011223 +0011612 1 3 1
a contact +0012022 +0012428 1 10 1
a contact +0012427 +0012674 1 8 1
a contact +0012674 +0013049 1 2 1
a contact +0013459 +0013862 1 13 1
a contact +0013843 +0014099 1 7 1
a contact +0014130 +0014485 1 5 1
a contact +0014894 +0015295 1 12 1
a contact +0015257 +0015528 1 6 1
a contact +0015591 +0015920 1 4 1
a contact +0016143 +0016353 1 2 1
a contact +0016329 +0016725 1 11 1
a contact +0016669 +0016960 1 9 1
a contact +0017058 +0017353 1 3 1
a contact +0017556 +0017844 1 5 1
a contact +0017764 +0018155 1 10 1
a contact +0018082 +0018394 1 8 1
a contact +0018533 +0018783 1 2 1
a contact +0018981 +0019318 1 4 1
a contact +0019197 +0019585 1 13 1
a contact +0019368 +0019590 10 14 1
a contact +0019495 +0019829 1 7 1
a contact +0020019 +0020205 1 5 1
a contact +0020410 +0020781 1 3 1
a contact +0020629 +0021014 1 12 1
a contact +0020795 +0021024 13 14 1
a contact +0020911 +0021266 1 6 1
a contact +0021536 +0021602 1 4 1
a contact +0021843 +0022234 1 2 1
a contact +0022060 +0022444 1 11 1
a contact +0022329 +0022703 1 9 1
a contact +0023278 +0023680 1 5 1
a contact +0023491 +0023874 1 10 1
a contact +0023752 +0024141 1 8 1
a contact +0024714 +0025118 1 4 1
a contact +0024920 +0025305 1 13 1
a contact +0025179 +0025578 1 7 1
a contact +0025735 +0025891 1 9 1
a contact +0026151 +0026551 1 3 1
a contact +0026350 +0026737 1 12 1
a contact +0026611 +0027015 1 6 1
a contact +0027152 +0027383 1 8 1
a contact +0027589 +0027979 1 2 1
a contact +0027779 +0028170 1 11 1
a contact +0028049 +0028451 1 9 1
a contact +0028580 +0028862 1 7 1
a contact +0029027 +0029402 1 5 1
a contact +0029209 +0029604 1 10 1
a contact +0029494 +0029886 1 8 1
a contact +0030012 +0030331 1 6 1
a contact +0030464 +0030821 1 4 1
a contact +0030640 +0031039 1 13 1
a contact +0030947 +0031319 1 7 1
a contact +0031447 +0031794 1 9 1
a contact +0031901 +0032237 1 3 1
a contact +0032071 +0032474 1 12 1
a contact +0032408 +0032749 1 6 1
a contact +0032882 +0033251 1 8 1
a contact +0033337 +0033650 1 2 1
a contact +0033505 +0033911 1 11 1
a contact +0033881 +0034174 1 9 1
a contact +0034319 +0034703 1 7 1
a contact +0034565 +0034802 2 14 1
a contact +0034772 +0035062 1 5 1
a contact +0034941 +0035347 1 10 1
a contact +0035370 +0035589 1 8 1
a contact +0035756 +0036151 1 6 1
a contact +0036009 +0036218 5 14 1
a contact +0036204 +0036474 1 4 1
a contact +0036379 +0036785 1 13 1
a contact +0036911 +0036957 1 7 1
a contact +0037193 +0037596 1 9 1
a contact +0037633 +0037888 1 3 1
a contact +0037821 +0038222 1 12 1
a contact +0038631 +0039036 1 8 1
a contact +0039059 +0039303 1 2 1
a contact +0039266 +0039660 1 11 1
a contact +0040068 +0040474 1 7 1
a contact +0040481 +0040723 1 5 1
a contact +0040714 +0041097 1 10 1
a contact +0041504 +0041910 1 6 1
a contact +0041899 +0042146 1 4 1
a contact +0042168 +0042534 1 13 1
a contact +0042940 +0043343 1 9 1
a contact +0043313 +0043573 1 3 1
a contact +0043626 +0043970 1 12 1
a contact +0044208 +0044367 1 10 1
a contact +0044375 +0044774 1 8 1
a contact +0044726 +0045004 1 2 1
a contact +0045090 +0045404 1 11 1
a contact +0045611 +0045871 1 13 1
a contact +0045810 +0046205 1 7 1
a contact +0046138 +0046437 1 5 1
a contact +0046560 +0046836 1 10 1
a contact +0047032 +0047351 1 12 1
a contact +0047243 +0047635 1 6 1
a contact +0047450 +0047606 7 14 1
a contact +0047550 +0047872 1 4 1
a contact +0048040 +0048263 1 13 1
a contact +0048460 +0048818 1 11 1
a contact +0048676 +0049064 1 9 1
a contact +0048836 +0049080 6 14 1
a contact +0048964 +0049308 1 3 1
a contact +0049535 +0049679 1 12 1
a contact +0049892 +0050276 1 10 1
a contact +0050108 +0050494 1 8 1
a contact +0050310 +0050468 9 14 1
a contact +0050381 +0050746 1 2 1
a contact +0051326 +0051724 1 13 1
a contact +0051538 +0051924 1 7 1
a contact +0051802 +0052183 1 5 1
a contact +0052762 +0053166 1 12 1
a contact +0052968 +0053354 1 6 1
a contact +0053227 +0053621 1 4 1
a contact +0053792 +0053902 1 2 1
a contact +0054199 +0054602 1 11 1
a contact +0054398 +0054786 1 9 1
a contact +0054656 +0055059 1 3 1
a contact +0055200 +0055405 1 5 1
a contact +0055637 +0056032 1 10 1
a contact +0055827 +0056218 1 8 1
a contact +0056091 +0056495 1 2 1
a contact +0056625 +0056888 1 4 1
a contact +0057075 +0057456 1 13 1
a contact +0057257 +0057651 1 7 1
a contact +0057533 +0057931 1 5 1
a contact +0058056 +0058361 1 3 1
a contact +0058513 +0058877 1 12 1
a contact +0058687 +0059086 1 6 1
a contact +0058981 +0059365 1 4 1
a contact +0059490 +0059826 1 2 1
a contact +0059950 +0060294 1 11 1
a contact +0060119 +0060521 1 9 1
a contact +0060438 +0060797 1 3 1
a contact +0060925 +0061286 1 5 1
a contact +0061387 +0061708 1 10 1
a contact +0061552 +0061957 1 8 1
a contact +0061905 +0062225 1 2 1
a contact +0062362 +0062740 1 4 1
a contact +0062636 +0062831 10 14 1
a contact +0062822 +0063121 1 13 1
a contact +0062987 +0063393 1 7 1
a contact +0063384 +0063646 1 5 1
a contact +0063799 +0064190 1 3 1
a contact +0064044 +0064285 13 14 1
a contact +0064256 +0064532 1 12 1
a contact +0064424 +0064830 1 6 1
a contact +0064887 +0065050 1 4 1
a contact +0065236 +0065636 1 2 1
a contact +0065548 +0065641 12 14 1
a contact +0065687 +0065945 1 11 1
a contact +0065864 +0066267 1 9 1
a contact +0066674 +0067078 1 5 1
a contact +0067114 +0067359 1 10 1
a contact +0067307 +0067704 1 8 1
a contact +0068111 +0068518 1 4 1
a contact +0068538 +0068776 1 13 1
a contact +0068755 +0069142 1 7 1
a contact +0069548 +0069954 1 3 1
a contact +0069957 +0070198 1 12 1
a contact +0070206 +0070578 1 6 1
a contact +0070984 +0071388 1 2 1
a contact +0071373 +0071623 1 11 1
a contact +0071662 +0072014 1 9 1
a contact +0072420 +0072820 1 5 1
a contact +0072787 +0073053 1 10 1
a contact +0073124 +0073449 1 8 1
a contact +0073674 +0073886 1 6 1
a contact +0073855 +0074251 1 4 1
a contact +0074198 +0074485 1 13 1
a contact +0074592 +0074882 1 7 1
a contact +0075087 +0075376 1 9 1
a contact +0075289 +0075681 1 3 1
a contact +0075610 +0075920 1 12 1
a contact +0076068 +0076311 1 6 1
a contact +0076511 +0076850 1 8 1
a contact +0076722 +0077111 1 2 1
a contact +0076891 +0077118 3 14 1
a contact +0077023 +0077356 1 11 1
a contact +0077556 +0077731 1 9 1
a contact +0077941 +0078312 1 7 1
a contact +0078154 +0078540 1 5 1
a contact +0078323 +0078547 2 14 1
a contact +0078439 +0078793 1 10 1
