a contact +0000000 +0000121 1 3 1
a contact +0000000 +0000100 10 14 1
a contact +0000006 +0000406 1 12 1
a contact +0000529 +0000835 1 10 1
a contact +0000983 +0001351 1 8 1
a contact +0001158 +0001555 1 2 1
a contact +0001454 +0001840 1 11 1
a contact +0001963 +0002300 1 13 1
a contact +0002420 +0002769 1 7 1
a contact +0002589 +0002990 1 5 1
a contact +0002910 +0003272 1 10 1
a contact +0003399 +0003760 1 12 1
a contact +0003857 +0004183 1 6 1
a contact +0004022 +0004426 1 4 1
a contact +0004376 +0004701 1 13 1
a contact +0004836 +0005214 1 11 1
a contact +0005292 +0005596 1 9 1
a contact +0005456 +0005863 1 3 1
a contact +0005854 +0006123 1 12 1
a contact +0006273 +0006664 1 10 1
a contact +0006725 +0007008 1 8 1
a contact +0006893 +0007300 1 2 1
a contact +0007354 +0007530 1 11 1
a contact +0007710 +0008110 1 13 1
a contact +0008156 +0008421 1 7 1
a contact +0008333 +0008737 1 5 1
a contact +0009148 +0009553 1 12 1
a contact +0009583 +0009835 1 6 1
a contact +0009776 +0010174 1 4 1
a contact +0010585 +0010992 1 11 1
a contact +0011007 +0011253 1 9 1
a contact +0011223 +0011612 1 3 1
a contact +0012022 +0012428 1 10 1
a contact +0012427 +0012674 1 8 1
a contact +0012674 +0013049 1 2 1
a contact +0013459 +0013862 1 13 1
a contact +0013843 +0014099 1 7 1
a contact +0014130 +0014400 1 5 1
