<?xml version="1.0" encoding="utf-8" standalone="no"?>
<!DOCTYPE svg PUBLIC "-//W3C//DTD SVG 1.1//EN"
  "http://www.w3.org/Graphics/SVG/1.1/DTD/svg11.dtd">
<!-- Created with matplotlib (https://matplotlib.org/) -->
<svg height="345.6pt" version="1.1" viewBox="0 0 460.8 345.6" width="460.8pt" xmlns="http://www.w3.org/2000/svg" xmlns:xlink="http://www.w3.org/1999/xlink">
 <defs>
  <style type="text/css">
*{stroke-linecap:butt;stroke-linejoin:round;}
  </style>
 </defs>
 <g id="figure_1">
  <g id="patch_1">
   <path d="M 0 345.6 
L 460.8 345.6 
L 460.8 0 
L 0 0 
z
" style="fill:#ffffff;"/>
  </g>
  <g id="axes_1">
   <g id="patch_2">
    <path d="M 57.6 307.584 
L 414.72 307.584 
L 414.72 41.472 
L 57.6 41.472 
z
" style="fill:#ffffff;"/>
   </g>
   <g id="patch_3">
    <path clip-path="url(#pf8078de5f2)" d="M 73.832727 105.258605 
L 77.145529 105.258605 
L 77.145529 83.903828 
L 73.832727 83.903828 
z
"/>
   </g>
   <g id="patch_4">
    <path clip-path="url(#pf8078de5f2)" d="M 110.273544 105.258605 
L 113.586345 105.258605 
L 113.586345 79.70001 
L 110.273544 79.70001 
z
"/>
   </g>
   <g id="patch_5">
    <path clip-path="url(#pf8078de5f2)" d="M 146.71436 105.258605 
L 150.027161 105.258605 
L 150.027161 81.828404 
L 146.71436 81.828404 
z
"/>
   </g>
   <g id="patch_6">
    <path clip-path="url(#pf8078de5f2)" d="M 183.155176 105.258605 
L 186.467978 105.258605 
L 186.467978 88.383079 
L 183.155176 88.383079 
z
"/>
   </g>
   <g id="patch_7">
    <path clip-path="url(#pf8078de5f2)" d="M 219.595993 105.258605 
L 222.908794 105.258605 
L 222.908794 101.135272 
L 219.595993 101.135272 
z
"/>
   </g>
   <g id="patch_8">
    <path clip-path="url(#pf8078de5f2)" d="M 256.036809 105.258605 
L 259.34961 105.258605 
L 259.34961 119.876268 
L 256.036809 119.876268 
z
"/>
   </g>
   <g id="patch_9">
    <path clip-path="url(#pf8078de5f2)" d="M 292.477625 105.258605 
L 295.790427 105.258605 
L 295.790427 155.206879 
L 292.477625 155.206879 
z
"/>
   </g>
   <g id="patch_10">
    <path clip-path="url(#pf8078de5f2)" d="M 328.918442 105.258605 
L 332.231243 105.258605 
L 332.231243 220.316034 
L 328.918442 220.316034 
z
"/>
   </g>
   <g id="patch_11">
    <path clip-path="url(#pf8078de5f2)" d="M 365.359258 105.258605 
L 368.672059 105.258605 
L 368.672059 295.488 
L 365.359258 295.488 
z
"/>
   </g>
   <g id="patch_12">
    <path clip-path="url(#pf8078de5f2)" d="M 77.145529 105.258605 
L 80.45833 105.258605 
L 80.45833 85.705384 
L 77.145529 85.705384 
z
" style="fill:#ffa500;"/>
   </g>
   <g id="patch_13">
    <path clip-path="url(#pf8078de5f2)" d="M 113.586345 105.258605 
L 116.899147 105.258605 
L 116.899147 84.959422 
L 113.586345 84.959422 
z
" style="fill:#ffa500;"/>
   </g>
   <g id="patch_14">
    <path clip-path="url(#pf8078de5f2)" d="M 150.027161 105.258605 
L 153.339963 105.258605 
L 153.339963 88.538181 
L 150.027161 88.538181 
z
" style="fill:#ffa500;"/>
   </g>
   <g id="patch_15">
    <path clip-path="url(#pf8078de5f2)" d="M 186.467978 105.258605 
L 189.780779 105.258605 
L 189.780779 96.749971 
L 186.467978 96.749971 
z
" style="fill:#ffa500;"/>
   </g>
   <g id="patch_16">
    <path clip-path="url(#pf8078de5f2)" d="M 222.908794 105.258605 
L 226.221596 105.258605 
L 226.221596 111.68734 
L 222.908794 111.68734 
z
" style="fill:#ffa500;"/>
   </g>
   <g id="patch_17">
    <path clip-path="url(#pf8078de5f2)" d="M 259.34961 105.258605 
L 262.662412 105.258605 
L 262.662412 129.322777 
L 259.34961 129.322777 
z
" style="fill:#ffa500;"/>
   </g>
   <g id="patch_18">
    <path clip-path="url(#pf8078de5f2)" d="M 295.790427 105.258605 
L 299.103228 105.258605 
L 299.103228 158.228353 
L 295.790427 158.228353 
z
" style="fill:#ffa500;"/>
   </g>
   <g id="patch_19">
    <path clip-path="url(#pf8078de5f2)" d="M 332.231243 105.258605 
L 335.544045 105.258605 
L 335.544045 198.686296 
L 332.231243 198.686296 
z
" style="fill:#ffa500;"/>
   </g>
   <g id="patch_20">
    <path clip-path="url(#pf8078de5f2)" d="M 368.672059 105.258605 
L 371.984861 105.258605 
L 371.984861 261.973206 
L 368.672059 261.973206 
z
" style="fill:#ffa500;"/>
   </g>
   <g id="patch_21">
    <path clip-path="url(#pf8078de5f2)" d="M 80.45833 105.258605 
L 83.771132 105.258605 
L 83.771132 91.428269 
L 80.45833 91.428269 
z
" style="fill:#0000ff;"/>
   </g>
   <g id="patch_22">
    <path clip-path="url(#pf8078de5f2)" d="M 116.899147 105.258605 
L 120.211948 105.258605 
L 120.211948 91.139855 
L 116.899147 91.139855 
z
" style="fill:#0000ff;"/>
   </g>
   <g id="patch_23">
    <path clip-path="url(#pf8078de5f2)" d="M 153.339963 105.258605 
L 156.652764 105.258605 
L 156.652764 95.811154 
L 153.339963 95.811154 
z
" style="fill:#0000ff;"/>
   </g>
   <g id="patch_24">
    <path clip-path="url(#pf8078de5f2)" d="M 189.780779 105.258605 
L 193.093581 105.258605 
L 193.093581 105.129289 
L 189.780779 105.129289 
z
" style="fill:#0000ff;"/>
   </g>
   <g id="patch_25">
    <path clip-path="url(#pf8078de5f2)" d="M 226.221596 105.258605 
L 229.534397 105.258605 
L 229.534397 120.966849 
L 226.221596 120.966849 
z
" style="fill:#0000ff;"/>
   </g>
   <g id="patch_26">
    <path clip-path="url(#pf8078de5f2)" d="M 262.662412 105.258605 
L 265.975213 105.258605 
L 265.975213 134.522641 
L 262.662412 134.522641 
z
" style="fill:#0000ff;"/>
   </g>
   <g id="patch_27">
    <path clip-path="url(#pf8078de5f2)" d="M 299.103228 105.258605 
L 302.41603 105.258605 
L 302.41603 157.949252 
L 299.103228 157.949252 
z
" style="fill:#0000ff;"/>
   </g>
   <g id="patch_28">
    <path clip-path="url(#pf8078de5f2)" d="M 335.544045 105.258605 
L 338.856846 105.258605 
L 338.856846 183.660996 
L 335.544045 183.660996 
z
" style="fill:#0000ff;"/>
   </g>
   <g id="patch_29">
    <path clip-path="url(#pf8078de5f2)" d="M 371.984861 105.258605 
L 375.297662 105.258605 
L 375.297662 229.790725 
L 371.984861 229.790725 
z
" style="fill:#0000ff;"/>
   </g>
   <g id="patch_30">
    <path clip-path="url(#pf8078de5f2)" d="M 83.771132 105.258605 
L 87.083933 105.258605 
L 87.083933 160.93925 
L 83.771132 160.93925 
z
" style="fill:#008000;"/>
   </g>
   <g id="patch_31">
    <path clip-path="url(#pf8078de5f2)" d="M 120.211948 105.258605 
L 123.52475 105.258605 
L 123.52475 135.968253 
L 120.211948 135.968253 
z
" style="fill:#008000;"/>
   </g>
   <g id="patch_32">
    <path clip-path="url(#pf8078de5f2)" d="M 156.652764 105.258605 
L 159.965566 105.258605 
L 159.965566 127.219456 
L 156.652764 127.219456 
z
" style="fill:#008000;"/>
   </g>
   <g id="patch_33">
    <path clip-path="url(#pf8078de5f2)" d="M 193.093581 105.258605 
L 196.406382 105.258605 
L 196.406382 128.513437 
L 193.093581 128.513437 
z
" style="fill:#008000;"/>
   </g>
   <g id="patch_34">
    <path clip-path="url(#pf8078de5f2)" d="M 229.534397 105.258605 
L 232.847199 105.258605 
L 232.847199 137.241666 
L 229.534397 137.241666 
z
" style="fill:#008000;"/>
   </g>
   <g id="patch_35">
    <path clip-path="url(#pf8078de5f2)" d="M 265.975213 105.258605 
L 269.288015 105.258605 
L 269.288015 143.168199 
L 265.975213 143.168199 
z
" style="fill:#008000;"/>
   </g>
   <g id="patch_36">
    <path clip-path="url(#pf8078de5f2)" d="M 302.41603 105.258605 
L 305.728831 105.258605 
L 305.728831 155.779959 
L 302.41603 155.779959 
z
" style="fill:#008000;"/>
   </g>
   <g id="patch_37">
    <path clip-path="url(#pf8078de5f2)" d="M 338.856846 105.258605 
L 342.169647 105.258605 
L 342.169647 165.148537 
L 338.856846 165.148537 
z
" style="fill:#008000;"/>
   </g>
   <g id="patch_38">
    <path clip-path="url(#pf8078de5f2)" d="M 375.297662 105.258605 
L 378.610464 105.258605 
L 378.610464 189.224072 
L 375.297662 189.224072 
z
" style="fill:#008000;"/>
   </g>
   <g id="patch_39">
    <path clip-path="url(#pf8078de5f2)" d="M 87.083933 105.258605 
L 90.396735 105.258605 
L 90.396735 189.567023 
L 87.083933 189.567023 
z
" style="fill:#ff0000;"/>
   </g>
   <g id="patch_40">
    <path clip-path="url(#pf8078de5f2)" d="M 123.52475 105.258605 
L 126.837551 105.258605 
L 126.837551 167.389257 
L 123.52475 167.389257 
z
" style="fill:#ff0000;"/>
   </g>
   <g id="patch_41">
    <path clip-path="url(#pf8078de5f2)" d="M 159.965566 105.258605 
L 163.278367 105.258605 
L 163.278367 156.224652 
L 159.965566 156.224652 
z
" style="fill:#ff0000;"/>
   </g>
   <g id="patch_42">
    <path clip-path="url(#pf8078de5f2)" d="M 196.406382 105.258605 
L 199.719184 105.258605 
L 199.719184 152.283765 
L 196.406382 152.283765 
z
" style="fill:#ff0000;"/>
   </g>
   <g id="patch_43">
    <path clip-path="url(#pf8078de5f2)" d="M 232.847199 105.258605 
L 236.16 105.258605 
L 236.16 142.663619 
L 232.847199 142.663619 
z
" style="fill:#ff0000;"/>
   </g>
   <g id="patch_44">
    <path clip-path="url(#pf8078de5f2)" d="M 269.288015 105.258605 
L 272.600816 105.258605 
L 272.600816 135.695585 
L 269.288015 135.695585 
z
" style="fill:#ff0000;"/>
   </g>
   <g id="patch_45">
    <path clip-path="url(#pf8078de5f2)" d="M 305.728831 105.258605 
L 309.041633 105.258605 
L 309.041633 130.565808 
L 305.728831 130.565808 
z
" style="fill:#ff0000;"/>
   </g>
   <g id="patch_46">
    <path clip-path="url(#pf8078de5f2)" d="M 342.169647 105.258605 
L 345.482449 105.258605 
L 345.482449 123.96475 
L 342.169647 123.96475 
z
" style="fill:#ff0000;"/>
   </g>
   <g id="patch_47">
    <path clip-path="url(#pf8078de5f2)" d="M 378.610464 105.258605 
L 381.923265 105.258605 
L 381.923265 131.364446 
L 378.610464 131.364446 
z
" style="fill:#ff0000;"/>
   </g>
   <g id="patch_48">
    <path clip-path="url(#pf8078de5f2)" d="M 90.396735 105.258605 
L 93.709536 105.258605 
L 93.709536 189.567023 
L 90.396735 189.567023 
z
" style="fill:#8b008b;"/>
   </g>
   <g id="patch_49">
    <path clip-path="url(#pf8078de5f2)" d="M 126.837551 105.258605 
L 130.150353 105.258605 
L 130.150353 167.385745 
L 126.837551 167.385745 
z
" style="fill:#8b008b;"/>
   </g>
   <g id="patch_50">
    <path clip-path="url(#pf8078de5f2)" d="M 163.278367 105.258605 
L 166.591169 105.258605 
L 166.591169 156.449208 
L 163.278367 156.449208 
z
" style="fill:#8b008b;"/>
   </g>
   <g id="patch_51">
    <path clip-path="url(#pf8078de5f2)" d="M 199.719184 105.258605 
L 203.031985 105.258605 
L 203.031985 153.024446 
L 199.719184 153.024446 
z
" style="fill:#8b008b;"/>
   </g>
   <g id="patch_52">
    <path clip-path="url(#pf8078de5f2)" d="M 236.16 105.258605 
L 239.472801 105.258605 
L 239.472801 143.93229 
L 236.16 143.93229 
z
" style="fill:#8b008b;"/>
   </g>
   <g id="patch_53">
    <path clip-path="url(#pf8078de5f2)" d="M 272.600816 105.258605 
L 275.913618 105.258605 
L 275.913618 136.764649 
L 272.600816 136.764649 
z
" style="fill:#8b008b;"/>
   </g>
   <g id="patch_54">
    <path clip-path="url(#pf8078de5f2)" d="M 309.041633 105.258605 
L 312.354434 105.258605 
L 312.354434 130.725138 
L 309.041633 130.725138 
z
" style="fill:#8b008b;"/>
   </g>
   <g id="patch_55">
    <path clip-path="url(#pf8078de5f2)" d="M 345.482449 105.258605 
L 348.79525 105.258605 
L 348.79525 125.171942 
L 345.482449 125.171942 
z
" style="fill:#8b008b;"/>
   </g>
   <g id="patch_56">
    <path clip-path="url(#pf8078de5f2)" d="M 381.923265 105.258605 
L 385.236067 105.258605 
L 385.236067 124.108364 
L 381.923265 124.108364 
z
" style="fill:#8b008b;"/>
   </g>
   <g id="patch_57">
    <path clip-path="url(#pf8078de5f2)" d="M 93.709536 105.258605 
L 97.022338 105.258605 
L 97.022338 105.258605 
L 93.709536 105.258605 
z
" style="fill:#800080;"/>
   </g>
   <g id="patch_58">
    <path clip-path="url(#pf8078de5f2)" d="M 130.150353 105.258605 
L 133.463154 105.258605 
L 133.463154 105.258605 
L 130.150353 105.258605 
z
" style="fill:#800080;"/>
   </g>
   <g id="patch_59">
    <path clip-path="url(#pf8078de5f2)" d="M 166.591169 105.258605 
L 169.90397 105.258605 
L 169.90397 105.258605 
L 166.591169 105.258605 
z
" style="fill:#800080;"/>
   </g>
   <g id="patch_60">
    <path clip-path="url(#pf8078de5f2)" d="M 203.031985 105.258605 
L 206.344787 105.258605 
L 206.344787 105.258605 
L 203.031985 105.258605 
z
" style="fill:#800080;"/>
   </g>
   <g id="patch_61">
    <path clip-path="url(#pf8078de5f2)" d="M 239.472801 105.258605 
L 242.785603 105.258605 
L 242.785603 105.258605 
L 239.472801 105.258605 
z
" style="fill:#800080;"/>
   </g>
   <g id="patch_62">
    <path clip-path="url(#pf8078de5f2)" d="M 275.913618 105.258605 
L 279.226419 105.258605 
L 279.226419 105.258605 
L 275.913618 105.258605 
z
" style="fill:#800080;"/>
   </g>
   <g id="patch_63">
    <path clip-path="url(#pf8078de5f2)" d="M 312.354434 105.258605 
L 315.667236 105.258605 
L 315.667236 105.258605 
L 312.354434 105.258605 
z
" style="fill:#800080;"/>
   </g>
   <g id="patch_64">
    <path clip-path="url(#pf8078de5f2)" d="M 348.79525 105.258605 
L 352.108052 105.258605 
L 352.108052 105.258605 
L 348.79525 105.258605 
z
" style="fill:#800080;"/>
   </g>
   <g id="patch_65">
    <path clip-path="url(#pf8078de5f2)" d="M 385.236067 105.258605 
L 388.548868 105.258605 
L 388.548868 105.258605 
L 385.236067 105.258605 
z
" style="fill:#800080;"/>
   </g>
   <g id="patch_66">
    <path clip-path="url(#pf8078de5f2)" d="M 97.022338 105.258605 
L 100.335139 105.258605 
L 100.335139 169.526977 
L 97.022338 169.526977 
z
" style="fill:#ffc0cb;"/>
   </g>
   <g id="patch_67">
    <path clip-path="url(#pf8078de5f2)" d="M 133.463154 105.258605 
L 136.775955 105.258605 
L 136.775955 139.787759 
L 133.463154 139.787759 
z
" style="fill:#ffc0cb;"/>
   </g>
   <g id="patch_68">
    <path clip-path="url(#pf8078de5f2)" d="M 169.90397 105.258605 
L 173.216772 105.258605 
L 173.216772 126.954869 
L 169.90397 126.954869 
z
" style="fill:#ffc0cb;"/>
   </g>
   <g id="patch_69">
    <path clip-path="url(#pf8078de5f2)" d="M 206.344787 105.258605 
L 209.657588 105.258605 
L 209.657588 126.809876 
L 206.344787 126.809876 
z
" style="fill:#ffc0cb;"/>
   </g>
   <g id="patch_70">
    <path clip-path="url(#pf8078de5f2)" d="M 242.785603 105.258605 
L 246.098404 105.258605 
L 246.098404 125.800557 
L 242.785603 125.800557 
z
" style="fill:#ffc0cb;"/>
   </g>
   <g id="patch_71">
    <path clip-path="url(#pf8078de5f2)" d="M 279.226419 105.258605 
L 282.539221 105.258605 
L 282.539221 123.349409 
L 279.226419 123.349409 
z
" style="fill:#ffc0cb;"/>
   </g>
   <g id="patch_72">
    <path clip-path="url(#pf8078de5f2)" d="M 315.667236 105.258605 
L 318.980037 105.258605 
L 318.980037 131.702415 
L 315.667236 131.702415 
z
" style="fill:#ffc0cb;"/>
   </g>
   <g id="patch_73">
    <path clip-path="url(#pf8078de5f2)" d="M 352.108052 105.258605 
L 355.420853 105.258605 
L 355.420853 140.977997 
L 352.108052 140.977997 
z
" style="fill:#ffc0cb;"/>
   </g>
   <g id="patch_74">
    <path clip-path="url(#pf8078de5f2)" d="M 388.548868 105.258605 
L 391.86167 105.258605 
L 391.86167 171.845189 
L 388.548868 171.845189 
z
" style="fill:#ffc0cb;"/>
   </g>
   <g id="patch_75">
    <path clip-path="url(#pf8078de5f2)" d="M 100.335139 105.258605 
L 103.647941 105.258605 
L 103.647941 74.768877 
L 100.335139 74.768877 
z
" style="fill:#6a5acd;"/>
   </g>
   <g id="patch_76">
    <path clip-path="url(#pf8078de5f2)" d="M 136.775955 105.258605 
L 140.088757 105.258605 
L 140.088757 88.159127 
L 136.775955 88.159127 
z
" style="fill:#6a5acd;"/>
   </g>
   <g id="patch_77">
    <path clip-path="url(#pf8078de5f2)" d="M 173.216772 105.258605 
L 176.529573 105.258605 
L 176.529573 95.43444 
L 173.216772 95.43444 
z
" style="fill:#6a5acd;"/>
   </g>
   <g id="patch_78">
    <path clip-path="url(#pf8078de5f2)" d="M 209.657588 105.258605 
L 212.97039 105.258605 
L 212.97039 99.972799 
L 209.657588 99.972799 
z
" style="fill:#6a5acd;"/>
   </g>
   <g id="patch_79">
    <path clip-path="url(#pf8078de5f2)" d="M 246.098404 105.258605 
L 249.411206 105.258605 
L 249.411206 103.738108 
L 246.098404 103.738108 
z
" style="fill:#6a5acd;"/>
   </g>
   <g id="patch_80">
    <path clip-path="url(#pf8078de5f2)" d="M 282.539221 105.258605 
L 285.852022 105.258605 
L 285.852022 104.499601 
L 282.539221 104.499601 
z
" style="fill:#6a5acd;"/>
   </g>
   <g id="patch_81">
    <path clip-path="url(#pf8078de5f2)" d="M 318.980037 105.258605 
L 322.292839 105.258605 
L 322.292839 112.39459 
L 318.980037 112.39459 
z
" style="fill:#6a5acd;"/>
   </g>
   <g id="patch_82">
    <path clip-path="url(#pf8078de5f2)" d="M 355.420853 105.258605 
L 358.733655 105.258605 
L 358.733655 116.192366 
L 355.420853 116.192366 
z
" style="fill:#6a5acd;"/>
   </g>
   <g id="patch_83">
    <path clip-path="url(#pf8078de5f2)" d="M 391.86167 105.258605 
L 395.174471 105.258605 
L 395.174471 136.527703 
L 391.86167 136.527703 
z
" style="fill:#6a5acd;"/>
   </g>
   <g id="patch_84">
    <path clip-path="url(#pf8078de5f2)" d="M 103.647941 105.258605 
L 106.960742 105.258605 
L 106.960742 53.568 
L 103.647941 53.568 
z
" style="fill:#008b8b;"/>
   </g>
   <g id="patch_85">
    <path clip-path="url(#pf8078de5f2)" d="M 140.088757 105.258605 
L 143.401558 105.258605 
L 143.401558 55.488913 
L 140.088757 55.488913 
z
" style="fill:#008b8b;"/>
   </g>
   <g id="patch_86">
    <path clip-path="url(#pf8078de5f2)" d="M 176.529573 105.258605 
L 179.842375 105.258605 
L 179.842375 58.65492 
L 176.529573 58.65492 
z
" style="fill:#008b8b;"/>
   </g>
   <g id="patch_87">
    <path clip-path="url(#pf8078de5f2)" d="M 212.97039 105.258605 
L 216.283191 105.258605 
L 216.283191 64.593105 
L 212.97039 64.593105 
z
" style="fill:#008b8b;"/>
   </g>
   <g id="patch_88">
    <path clip-path="url(#pf8078de5f2)" d="M 249.411206 105.258605 
L 252.724007 105.258605 
L 252.724007 68.087399 
L 249.411206 68.087399 
z
" style="fill:#008b8b;"/>
   </g>
   <g id="patch_89">
    <path clip-path="url(#pf8078de5f2)" d="M 285.852022 105.258605 
L 289.164824 105.258605 
L 289.164824 72.527343 
L 285.852022 72.527343 
z
" style="fill:#008b8b;"/>
   </g>
   <g id="patch_90">
    <path clip-path="url(#pf8078de5f2)" d="M 322.292839 105.258605 
L 325.60564 105.258605 
L 325.60564 76.002043 
L 322.292839 76.002043 
z
" style="fill:#008b8b;"/>
   </g>
   <g id="patch_91">
    <path clip-path="url(#pf8078de5f2)" d="M 358.733655 105.258605 
L 362.046456 105.258605 
L 362.046456 79.778262 
L 358.733655 79.778262 
z
" style="fill:#008b8b;"/>
   </g>
   <g id="patch_92">
    <path clip-path="url(#pf8078de5f2)" d="M 395.174471 105.258605 
L 398.487273 105.258605 
L 398.487273 97.551003 
L 395.174471 97.551003 
z
" style="fill:#008b8b;"/>
   </g>
   <g id="matplotlib.axis_1">
    <g id="xtick_1">
     <g id="line2d_1">
      <defs>
       <path d="M 0 0 
L 0 3.5 
" id="m4a552b87df" style="stroke:#000000;stroke-width:0.8;"/>
      </defs>
      <g>
       <use style="stroke:#000000;stroke-width:0.8;" x="92.053135" xlink:href="#m4a552b87df" y="307.584"/>
      </g>
     </g>
     <g id="text_1">
      <!-- 0.1 -->
      <defs>
       <path d="M 31.78125 66.40625 
Q 24.171875 66.40625 20.328125 58.90625 
Q 16.5 51.421875 16.5 36.375 
Q 16.5 21.390625 20.328125 13.890625 
Q 24.171875 6.390625 31.78125 6.390625 
Q 39.453125 6.390625 43.28125 13.890625 
Q 47.125 21.390625 47.125 36.375 
Q 47.125 51.421875 43.28125 58.90625 
Q 39.453125 66.40625 31.78125 66.40625 
z
M 31.78125 74.21875 
Q 44.046875 74.21875 50.515625 64.515625 
Q 56.984375 54.828125 56.984375 36.375 
Q 56.984375 17.96875 50.515625 8.265625 
Q 44.046875 -1.421875 31.78125 -1.421875 
Q 19.53125 -1.421875 13.0625 8.265625 
Q 6.59375 17.96875 6.59375 36.375 
Q 6.59375 54.828125 13.0625 64.515625 
Q 19.53125 74.21875 31.78125 74.21875 
z
" id="DejaVuSans-48"/>
       <path d="M 10.6875 12.40625 
L 21 12.40625 
L 21 0 
L 10.6875 0 
z
" id="DejaVuSans-46"/>
       <path d="M 12.40625 8.296875 
L 28.515625 8.296875 
L 28.515625 63.921875 
L 10.984375 60.40625 
L 10.984375 69.390625 
L 28.421875 72.90625 
L 38.28125 72.90625 
L 38.28125 8.296875 
L 54.390625 8.296875 
L 54.390625 0 
L 12.40625 0 
z
" id="DejaVuSans-49"/>
      </defs>
      <g transform="translate(84.101573 322.182437)scale(0.1 -0.1)">
       <use xlink:href="#DejaVuSans-48"/>
       <use x="63.623047" xlink:href="#DejaVuSans-46"/>
       <use x="95.410156" xlink:href="#DejaVuSans-49"/>
      </g>
     </g>
    </g>
    <g id="xtick_2">
     <g id="line2d_2">
      <g>
       <use style="stroke:#000000;stroke-width:0.8;" x="128.493952" xlink:href="#m4a552b87df" y="307.584"/>
      </g>
     </g>
     <g id="text_2">
      <!-- 0.2 -->
      <defs>
       <path d="M 19.1875 8.296875 
L 53.609375 8.296875 
L 53.609375 0 
L 7.328125 0 
L 7.328125 8.296875 
Q 12.9375 14.109375 22.625 23.890625 
Q 32.328125 33.6875 34.8125 36.53125 
Q 39.546875 41.84375 41.421875 45.53125 
Q 43.3125 49.21875 43.3125 52.78125 
Q 43.3125 58.59375 39.234375 62.25 
Q 35.15625 65.921875 28.609375 65.921875 
Q 23.96875 65.921875 18.8125 64.3125 
Q 13.671875 62.703125 7.8125 59.421875 
L 7.8125 69.390625 
Q 13.765625 71.78125 18.9375 73 
Q 24.125 74.21875 28.421875 74.21875 
Q 39.75 74.21875 46.484375 68.546875 
Q 53.21875 62.890625 53.21875 53.421875 
Q 53.21875 48.921875 51.53125 44.890625 
Q 49.859375 40.875 45.40625 35.40625 
Q 44.1875 33.984375 37.640625 27.21875 
Q 31.109375 20.453125 19.1875 8.296875 
z
" id="DejaVuSans-50"/>
      </defs>
      <g transform="translate(120.542389 322.182437)scale(0.1 -0.1)">
       <use xlink:href="#DejaVuSans-48"/>
       <use x="63.623047" xlink:href="#DejaVuSans-46"/>
       <use x="95.410156" xlink:href="#DejaVuSans-50"/>
      </g>
     </g>
    </g>
    <g id="xtick_3">
     <g id="line2d_3">
      <g>
       <use style="stroke:#000000;stroke-width:0.8;" x="164.934768" xlink:href="#m4a552b87df" y="307.584"/>
      </g>
     </g>
     <g id="text_3">
      <!-- 0.3 -->
      <defs>
       <path d="M 40.578125 39.3125 
Q 47.65625 37.796875 51.625 33 
Q 55.609375 28.21875 55.609375 21.1875 
Q 55.609375 10.40625 48.1875 4.484375 
Q 40.765625 -1.421875 27.09375 -1.421875 
Q 22.515625 -1.421875 17.65625 -0.515625 
Q 12.796875 0.390625 7.625 2.203125 
L 7.625 11.71875 
Q 11.71875 9.328125 16.59375 8.109375 
Q 21.484375 6.890625 26.8125 6.890625 
Q 36.078125 6.890625 40.9375 10.546875 
Q 45.796875 14.203125 45.796875 21.1875 
Q 45.796875 27.640625 41.28125 31.265625 
Q 36.765625 34.90625 28.71875 34.90625 
L 20.21875 34.90625 
L 20.21875 43.015625 
L 29.109375 43.015625 
Q 36.375 43.015625 40.234375 45.921875 
Q 44.09375 48.828125 44.09375 54.296875 
Q 44.09375 59.90625 40.109375 62.90625 
Q 36.140625 65.921875 28.71875 65.921875 
Q 24.65625 65.921875 20.015625 65.03125 
Q 15.375 64.15625 9.8125 62.3125 
L 9.8125 71.09375 
Q 15.4375 72.65625 20.34375 73.4375 
Q 25.25 74.21875 29.59375 74.21875 
Q 40.828125 74.21875 47.359375 69.109375 
Q 53.90625 64.015625 53.90625 55.328125 
Q 53.90625 49.265625 50.4375 45.09375 
Q 46.96875 40.921875 40.578125 39.3125 
z
" id="DejaVuSans-51"/>
      </defs>
      <g transform="translate(156.983206 322.182437)scale(0.1 -0.1)">
       <use xlink:href="#DejaVuSans-48"/>
       <use x="63.623047" xlink:href="#DejaVuSans-46"/>
       <use x="95.410156" xlink:href="#DejaVuSans-51"/>
      </g>
     </g>
    </g>
    <g id="xtick_4">
     <g id="line2d_4">
      <g>
       <use style="stroke:#000000;stroke-width:0.8;" x="201.375584" xlink:href="#m4a552b87df" y="307.584"/>
      </g>
     </g>
     <g id="text_4">
      <!-- 0.4 -->
      <defs>
       <path d="M 37.796875 64.3125 
L 12.890625 25.390625 
L 37.796875 25.390625 
z
M 35.203125 72.90625 
L 47.609375 72.90625 
L 47.609375 25.390625 
L 58.015625 25.390625 
L 58.015625 17.1875 
L 47.609375 17.1875 
L 47.609375 0 
L 37.796875 0 
L 37.796875 17.1875 
L 4.890625 17.1875 
L 4.890625 26.703125 
z
" id="DejaVuSans-52"/>
      </defs>
      <g transform="translate(193.424022 322.182437)scale(0.1 -0.1)">
       <use xlink:href="#DejaVuSans-48"/>
       <use x="63.623047" xlink:href="#DejaVuSans-46"/>
       <use x="95.410156" xlink:href="#DejaVuSans-52"/>
      </g>
     </g>
    </g>
    <g id="xtick_5">
     <g id="line2d_5">
      <g>
       <use style="stroke:#000000;stroke-width:0.8;" x="237.816401" xlink:href="#m4a552b87df" y="307.584"/>
      </g>
     </g>
     <g id="text_5">
      <!-- 0.5 -->
      <defs>
       <path d="M 10.796875 72.90625 
L 49.515625 72.90625 
L 49.515625 64.59375 
L 19.828125 64.59375 
L 19.828125 46.734375 
Q 21.96875 47.46875 24.109375 47.828125 
Q 26.265625 48.1875 28.421875 48.1875 
Q 40.625 48.1875 47.75 41.5 
Q 54.890625 34.8125 54.890625 23.390625 
Q 54.890625 11.625 47.5625 5.09375 
Q 40.234375 -1.421875 26.90625 -1.421875 
Q 22.3125 -1.421875 17.546875 -0.640625 
Q 12.796875 0.140625 7.71875 1.703125 
L 7.71875 11.625 
Q 12.109375 9.234375 16.796875 8.0625 
Q 21.484375 6.890625 26.703125 6.890625 
Q 35.15625 6.890625 40.078125 11.328125 
Q 45.015625 15.765625 45.015625 23.390625 
Q 45.015625 31 40.078125 35.4375 
Q 35.15625 39.890625 26.703125 39.890625 
Q 22.75 39.890625 18.8125 39.015625 
Q 14.890625 38.140625 10.796875 36.28125 
z
" id="DejaVuSans-53"/>
      </defs>
      <g transform="translate(229.864838 322.182437)scale(0.1 -0.1)">
       <use xlink:href="#DejaVuSans-48"/>
       <use x="63.623047" xlink:href="#DejaVuSans-46"/>
       <use x="95.410156" xlink:href="#DejaVuSans-53"/>
      </g>
     </g>
    </g>
    <g id="xtick_6">
     <g id="line2d_6">
      <g>
       <use style="stroke:#000000;stroke-width:0.8;" x="274.257217" xlink:href="#m4a552b87df" y="307.584"/>
      </g>
     </g>
     <g id="text_6">
      <!-- 0.6 -->
      <defs>
       <path d="M 33.015625 40.375 
Q 26.375 40.375 22.484375 35.828125 
Q 18.609375 31.296875 18.609375 23.390625 
Q 18.609375 15.53125 22.484375 10.953125 
Q 26.375 6.390625 33.015625 6.390625 
Q 39.65625 6.390625 43.53125 10.953125 
Q 47.40625 15.53125 47.40625 23.390625 
Q 47.40625 31.296875 43.53125 35.828125 
Q 39.65625 40.375 33.015625 40.375 
z
M 52.59375 71.296875 
L 52.59375 62.3125 
Q 48.875 64.0625 45.09375 64.984375 
Q 41.3125 65.921875 37.59375 65.921875 
Q 27.828125 65.921875 22.671875 59.328125 
Q 17.53125 52.734375 16.796875 39.40625 
Q 19.671875 43.65625 24.015625 45.921875 
Q 28.375 48.1875 33.59375 48.1875 
Q 44.578125 48.1875 50.953125 41.515625 
Q 57.328125 34.859375 57.328125 23.390625 
Q 57.328125 12.15625 50.6875 5.359375 
Q 44.046875 -1.421875 33.015625 -1.421875 
Q 20.359375 -1.421875 13.671875 8.265625 
Q 6.984375 17.96875 6.984375 36.375 
Q 6.984375 53.65625 15.1875 63.9375 
Q 23.390625 74.21875 37.203125 74.21875 
Q 40.921875 74.21875 44.703125 73.484375 
Q 48.484375 72.75 52.59375 71.296875 
z
" id="DejaVuSans-54"/>
      </defs>
      <g transform="translate(266.305655 322.182437)scale(0.1 -0.1)">
       <use xlink:href="#DejaVuSans-48"/>
       <use x="63.623047" xlink:href="#DejaVuSans-46"/>
       <use x="95.410156" xlink:href="#DejaVuSans-54"/>
      </g>
     </g>
    </g>
    <g id="xtick_7">
     <g id="line2d_7">
      <g>
       <use style="stroke:#000000;stroke-width:0.8;" x="310.698033" xlink:href="#m4a552b87df" y="307.584"/>
      </g>
     </g>
     <g id="text_7">
      <!-- 0.7 -->
      <defs>
       <path d="M 8.203125 72.90625 
L 55.078125 72.90625 
L 55.078125 68.703125 
L 28.609375 0 
L 18.3125 0 
L 43.21875 64.59375 
L 8.203125 64.59375 
z
" id="DejaVuSans-55"/>
      </defs>
      <g transform="translate(302.746471 322.182437)scale(0.1 -0.1)">
       <use xlink:href="#DejaVuSans-48"/>
       <use x="63.623047" xlink:href="#DejaVuSans-46"/>
       <use x="95.410156" xlink:href="#DejaVuSans-55"/>
      </g>
     </g>
    </g>
    <g id="xtick_8">
     <g id="line2d_8">
      <g>
       <use style="stroke:#000000;stroke-width:0.8;" x="347.13885" xlink:href="#m4a552b87df" y="307.584"/>
      </g>
     </g>
     <g id="text_8">
      <!-- 0.8 -->
      <defs>
       <path d="M 31.78125 34.625 
Q 24.75 34.625 20.71875 30.859375 
Q 16.703125 27.09375 16.703125 20.515625 
Q 16.703125 13.921875 20.71875 10.15625 
Q 24.75 6.390625 31.78125 6.390625 
Q 38.8125 6.390625 42.859375 10.171875 
Q 46.921875 13.96875 46.921875 20.515625 
Q 46.921875 27.09375 42.890625 30.859375 
Q 38.875 34.625 31.78125 34.625 
z
M 21.921875 38.8125 
Q 15.578125 40.375 12.03125 44.71875 
Q 8.5 49.078125 8.5 55.328125 
Q 8.5 64.0625 14.71875 69.140625 
Q 20.953125 74.21875 31.78125 74.21875 
Q 42.671875 74.21875 48.875 69.140625 
Q 55.078125 64.0625 55.078125 55.328125 
Q 55.078125 49.078125 51.53125 44.71875 
Q 48 40.375 41.703125 38.8125 
Q 48.828125 37.15625 52.796875 32.3125 
Q 56.78125 27.484375 56.78125 20.515625 
Q 56.78125 9.90625 50.3125 4.234375 
Q 43.84375 -1.421875 31.78125 -1.421875 
Q 19.734375 -1.421875 13.25 4.234375 
Q 6.78125 9.90625 6.78125 20.515625 
Q 6.78125 27.484375 10.78125 32.3125 
Q 14.796875 37.15625 21.921875 38.8125 
z
M 18.3125 54.390625 
Q 18.3125 48.734375 21.84375 45.5625 
Q 25.390625 42.390625 31.78125 42.390625 
Q 38.140625 42.390625 41.71875 45.5625 
Q 45.3125 48.734375 45.3125 54.390625 
Q 45.3125 60.0625 41.71875 63.234375 
Q 38.140625 66.40625 31.78125 66.40625 
Q 25.390625 66.40625 21.84375 63.234375 
Q 18.3125 60.0625 18.3125 54.390625 
z
" id="DejaVuSans-56"/>
      </defs>
      <g transform="translate(339.187287 322.182437)scale(0.1 -0.1)">
       <use xlink:href="#DejaVuSans-48"/>
       <use x="63.623047" xlink:href="#DejaVuSans-46"/>
       <use x="95.410156" xlink:href="#DejaVuSans-56"/>
      </g>
     </g>
    </g>
    <g id="xtick_9">
     <g id="line2d_9">
      <g>
       <use style="stroke:#000000;stroke-width:0.8;" x="383.579666" xlink:href="#m4a552b87df" y="307.584"/>
      </g>
     </g>
     <g id="text_9">
      <!-- 0.9 -->
      <defs>
       <path d="M 10.984375 1.515625 
L 10.984375 10.5 
Q 14.703125 8.734375 18.5 7.8125 
Q 22.3125 6.890625 25.984375 6.890625 
Q 35.75 6.890625 40.890625 13.453125 
Q 46.046875 20.015625 46.78125 33.40625 
Q 43.953125 29.203125 39.59375 26.953125 
Q 35.25 24.703125 29.984375 24.703125 
Q 19.046875 24.703125 12.671875 31.3125 
Q 6.296875 37.9375 6.296875 49.421875 
Q 6.296875 60.640625 12.9375 67.421875 
Q 19.578125 74.21875 30.609375 74.21875 
Q 43.265625 74.21875 49.921875 64.515625 
Q 56.59375 54.828125 56.59375 36.375 
Q 56.59375 19.140625 48.40625 8.859375 
Q 40.234375 -1.421875 26.421875 -1.421875 
Q 22.703125 -1.421875 18.890625 -0.6875 
Q 15.09375 0.046875 10.984375 1.515625 
z
M 30.609375 32.421875 
Q 37.25 32.421875 41.125 36.953125 
Q 45.015625 41.5 45.015625 49.421875 
Q 45.015625 57.28125 41.125 61.84375 
Q 37.25 66.40625 30.609375 66.40625 
Q 23.96875 66.40625 20.09375 61.84375 
Q 16.21875 57.28125 16.21875 49.421875 
Q 16.21875 41.5 20.09375 36.953125 
Q 23.96875 32.421875 30.609375 32.421875 
z
" id="DejaVuSans-57"/>
      </defs>
      <g transform="translate(375.628104 322.182437)scale(0.1 -0.1)">
       <use xlink:href="#DejaVuSans-48"/>
       <use x="63.623047" xlink:href="#DejaVuSans-46"/>
       <use x="95.410156" xlink:href="#DejaVuSans-57"/>
      </g>
     </g>
    </g>
    <g id="text_10">
     <!-- Probability of contact failure -->
     <defs>
      <path d="M 19.671875 64.796875 
L 19.671875 37.40625 
L 32.078125 37.40625 
Q 38.96875 37.40625 42.71875 40.96875 
Q 46.484375 44.53125 46.484375 51.125 
Q 46.484375 57.671875 42.71875 61.234375 
Q 38.96875 64.796875 32.078125 64.796875 
z
M 9.8125 72.90625 
L 32.078125 72.90625 
Q 44.34375 72.90625 50.609375 67.359375 
Q 56.890625 61.8125 56.890625 51.125 
Q 56.890625 40.328125 50.609375 34.8125 
Q 44.34375 29.296875 32.078125 29.296875 
L 19.671875 29.296875 
L 19.671875 0 
L 9.8125 0 
z
" id="DejaVuSans-80"/>
      <path d="M 41.109375 46.296875 
Q 39.59375 47.171875 37.8125 47.578125 
Q 36.03125 48 33.890625 48 
Q 26.265625 48 22.1875 43.046875 
Q 18.109375 38.09375 18.109375 28.8125 
L 18.109375 0 
L 9.078125 0 
L 9.078125 54.6875 
L 18.109375 54.6875 
L 18.109375 46.1875 
Q 20.953125 51.171875 25.484375 53.578125 
Q 30.03125 56 36.53125 56 
Q 37.453125 56 38.578125 55.875 
Q 39.703125 55.765625 41.0625 55.515625 
z
" id="DejaVuSans-114"/>
      <path d="M 30.609375 48.390625 
Q 23.390625 48.390625 19.1875 42.75 
Q 14.984375 37.109375 14.984375 27.296875 
Q 14.984375 17.484375 19.15625 11.84375 
Q 23.34375 6.203125 30.609375 6.203125 
Q 37.796875 6.203125 41.984375 11.859375 
Q 46.1875 17.53125 46.1875 27.296875 
Q 46.1875 37.015625 41.984375 42.703125 
Q 37.796875 48.390625 30.609375 48.390625 
z
M 30.609375 56 
Q 42.328125 56 49.015625 48.375 
Q 55.71875 40.765625 55.71875 27.296875 
Q 55.71875 13.875 49.015625 6.21875 
Q 42.328125 -1.421875 30.609375 -1.421875 
Q 18.84375 -1.421875 12.171875 6.21875 
Q 5.515625 13.875 5.515625 27.296875 
Q 5.515625 40.765625 12.171875 48.375 
Q 18.84375 56 30.609375 56 
z
" id="DejaVuSans-111"/>
      <path d="M 48.6875 27.296875 
Q 48.6875 37.203125 44.609375 42.84375 
Q 40.53125 48.484375 33.40625 48.484375 
Q 26.265625 48.484375 22.1875 42.84375 
Q 18.109375 37.203125 18.109375 27.296875 
Q 18.109375 17.390625 22.1875 11.75 
Q 26.265625 6.109375 33.40625 6.109375 
Q 40.53125 6.109375 44.609375 11.75 
Q 48.6875 17.390625 48.6875 27.296875 
z
M 18.109375 46.390625 
Q 20.953125 51.265625 25.265625 53.625 
Q 29.59375 56 35.59375 56 
Q 45.5625 56 51.78125 48.09375 
Q 58.015625 40.1875 58.015625 27.296875 
Q 58.015625 14.40625 51.78125 6.484375 
Q 45.5625 -1.421875 35.59375 -1.421875 
Q 29.59375 -1.421875 25.265625 0.953125 
Q 20.953125 3.328125 18.109375 8.203125 
L 18.109375 0 
L 9.078125 0 
L 9.078125 75.984375 
L 18.109375 75.984375 
z
" id="DejaVuSans-98"/>
      <path d="M 34.28125 27.484375 
Q 23.390625 27.484375 19.1875 25 
Q 14.984375 22.515625 14.984375 16.5 
Q 14.984375 11.71875 18.140625 8.90625 
Q 21.296875 6.109375 26.703125 6.109375 
Q 34.1875 6.109375 38.703125 11.40625 
Q 43.21875 16.703125 43.21875 25.484375 
L 43.21875 27.484375 
z
M 52.203125 31.203125 
L 52.203125 0 
L 43.21875 0 
L 43.21875 8.296875 
Q 40.140625 3.328125 35.546875 0.953125 
Q 30.953125 -1.421875 24.3125 -1.421875 
Q 15.921875 -1.421875 10.953125 3.296875 
Q 6 8.015625 6 15.921875 
Q 6 25.140625 12.171875 29.828125 
Q 18.359375 34.515625 30.609375 34.515625 
L 43.21875 34.515625 
L 43.21875 35.40625 
Q 43.21875 41.609375 39.140625 45 
Q 35.0625 48.390625 27.6875 48.390625 
Q 23 48.390625 18.546875 47.265625 
Q 14.109375 46.140625 10.015625 43.890625 
L 10.015625 52.203125 
Q 14.9375 54.109375 19.578125 55.046875 
Q 24.21875 56 28.609375 56 
Q 40.484375 56 46.34375 49.84375 
Q 52.203125 43.703125 52.203125 31.203125 
z
" id="DejaVuSans-97"/>
      <path d="M 9.421875 54.6875 
L 18.40625 54.6875 
L 18.40625 0 
L 9.421875 0 
z
M 9.421875 75.984375 
L 18.40625 75.984375 
L 18.40625 64.59375 
L 9.421875 64.59375 
z
" id="DejaVuSans-105"/>
      <path d="M 9.421875 75.984375 
L 18.40625 75.984375 
L 18.40625 0 
L 9.421875 0 
z
" id="DejaVuSans-108"/>
      <path d="M 18.3125 70.21875 
L 18.3125 54.6875 
L 36.8125 54.6875 
L 36.8125 47.703125 
L 18.3125 47.703125 
L 18.3125 18.015625 
Q 18.3125 11.328125 20.140625 9.421875 
Q 21.96875 7.515625 27.59375 7.515625 
L 36.8125 7.515625 
L 36.8125 0 
L 27.59375 0 
Q 17.1875 0 13.234375 3.875 
Q 9.28125 7.765625 9.28125 18.015625 
L 9.28125 47.703125 
L 2.6875 47.703125 
L 2.6875 54.6875 
L 9.28125 54.6875 
L 9.28125 70.21875 
z
" id="DejaVuSans-116"/>
      <path d="M 32.171875 -5.078125 
Q 28.375 -14.84375 24.75 -17.8125 
Q 21.140625 -20.796875 15.09375 -20.796875 
L 7.90625 -20.796875 
L 7.90625 -13.28125 
L 13.1875 -13.28125 
Q 16.890625 -13.28125 18.9375 -11.515625 
Q 21 -9.765625 23.484375 -3.21875 
L 25.09375 0.875 
L 2.984375 54.6875 
L 12.5 54.6875 
L 29.59375 11.921875 
L 46.6875 54.6875 
L 56.203125 54.6875 
z
" id="DejaVuSans-121"/>
      <path id="DejaVuSans-32"/>
      <path d="M 37.109375 75.984375 
L 37.109375 68.5 
L 28.515625 68.5 
Q 23.6875 68.5 21.796875 66.546875 
Q 19.921875 64.59375 19.921875 59.515625 
L 19.921875 54.6875 
L 34.71875 54.6875 
L 34.71875 47.703125 
L 19.921875 47.703125 
L 19.921875 0 
L 10.890625 0 
L 10.890625 47.703125 
L 2.296875 47.703125 
L 2.296875 54.6875 
L 10.890625 54.6875 
L 10.890625 58.5 
Q 10.890625 67.625 15.140625 71.796875 
Q 19.390625 75.984375 28.609375 75.984375 
z
" id="DejaVuSans-102"/>
      <path d="M 48.78125 52.59375 
L 48.78125 44.1875 
Q 44.96875 46.296875 41.140625 47.34375 
Q 37.3125 48.390625 33.40625 48.390625 
Q 24.65625 48.390625 19.8125 42.84375 
Q 14.984375 37.3125 14.984375 27.296875 
Q 14.984375 17.28125 19.8125 11.734375 
Q 24.65625 6.203125 33.40625 6.203125 
Q 37.3125 6.203125 41.140625 7.25 
Q 44.96875 8.296875 48.78125 10.40625 
L 48.78125 2.09375 
Q 45.015625 0.34375 40.984375 -0.53125 
Q 36.96875 -1.421875 32.421875 -1.421875 
Q 20.0625 -1.421875 12.78125 6.34375 
Q 5.515625 14.109375 5.515625 27.296875 
Q 5.515625 40.671875 12.859375 48.328125 
Q 20.21875 56 33.015625 56 
Q 37.15625 56 41.109375 55.140625 
Q 45.0625 54.296875 48.78125 52.59375 
z
" id="DejaVuSans-99"/>
      <path d="M 54.890625 33.015625 
L 54.890625 0 
L 45.90625 0 
L 45.90625 32.71875 
Q 45.90625 40.484375 42.875 44.328125 
Q 39.84375 48.1875 33.796875 48.1875 
Q 26.515625 48.1875 22.3125 43.546875 
Q 18.109375 38.921875 18.109375 30.90625 
L 18.109375 0 
L 9.078125 0 
L 9.078125 54.6875 
L 18.109375 54.6875 
L 18.109375 46.1875 
Q 21.34375 51.125 25.703125 53.5625 
Q 30.078125 56 35.796875 56 
Q 45.21875 56 50.046875 50.171875 
Q 54.890625 44.34375 54.890625 33.015625 
z
" id="DejaVuSans-110"/>
      <path d="M 8.5 21.578125 
L 8.5 54.6875 
L 17.484375 54.6875 
L 17.484375 21.921875 
Q 17.484375 14.15625 20.5 10.265625 
Q 23.53125 6.390625 29.59375 6.390625 
Q 36.859375 6.390625 41.078125 11.03125 
Q 45.3125 15.671875 45.3125 23.6875 
L 45.3125 54.6875 
L 54.296875 54.6875 
L 54.296875 0 
L 45.3125 0 
L 45.3125 8.40625 
Q 42.046875 3.421875 37.71875 1 
Q 33.40625 -1.421875 27.6875 -1.421875 
Q 18.265625 -1.421875 13.375 4.4375 
Q 8.5 10.296875 8.5 21.578125 
z
M 31.109375 56 
z
" id="DejaVuSans-117"/>
      <path d="M 56.203125 29.59375 
L 56.203125 25.203125 
L 14.890625 25.203125 
Q 15.484375 15.921875 20.484375 11.0625 
Q 25.484375 6.203125 34.421875 6.203125 
Q 39.59375 6.203125 44.453125 7.46875 
Q 49.3125 8.734375 54.109375 11.28125 
L 54.109375 2.78125 
Q 49.265625 0.734375 44.1875 -0.34375 
Q 39.109375 -1.421875 33.890625 -1.421875 
Q 20.796875 -1.421875 13.15625 6.1875 
Q 5.515625 13.8125 5.515625 26.8125 
Q 5.515625 40.234375 12.765625 48.109375 
Q 20.015625 56 32.328125 56 
Q 43.359375 56 49.78125 48.890625 
Q 56.203125 41.796875 56.203125 29.59375 
z
M 47.21875 32.234375 
Q 47.125 39.59375 43.09375 43.984375 
Q 39.0625 48.390625 32.421875 48.390625 
Q 24.90625 48.390625 20.390625 44.140625 
Q 15.875 39.890625 15.1875 32.171875 
z
" id="DejaVuSans-101"/>
     </defs>
     <g transform="translate(165.334219 335.860562)scale(0.1 -0.1)">
      <use xlink:href="#DejaVuSans-80"/>
      <use x="60.287109" xlink:href="#DejaVuSans-114"/>
      <use x="101.369141" xlink:href="#DejaVuSans-111"/>
      <use x="162.550781" xlink:href="#DejaVuSans-98"/>
      <use x="226.027344" xlink:href="#DejaVuSans-97"/>
      <use x="287.306641" xlink:href="#DejaVuSans-98"/>
      <use x="350.783203" xlink:href="#DejaVuSans-105"/>
      <use x="378.566406" xlink:href="#DejaVuSans-108"/>
      <use x="406.349609" xlink:href="#DejaVuSans-105"/>
      <use x="434.132812" xlink:href="#DejaVuSans-116"/>
      <use x="473.341797" xlink:href="#DejaVuSans-121"/>
      <use x="532.521484" xlink:href="#DejaVuSans-32"/>
      <use x="564.308594" xlink:href="#DejaVuSans-111"/>
      <use x="625.490234" xlink:href="#DejaVuSans-102"/>
      <use x="660.695312" xlink:href="#DejaVuSans-32"/>
      <use x="692.482422" xlink:href="#DejaVuSans-99"/>
      <use x="747.462891" xlink:href="#DejaVuSans-111"/>
      <use x="808.644531" xlink:href="#DejaVuSans-110"/>
      <use x="872.023438" xlink:href="#DejaVuSans-116"/>
      <use x="911.232422" xlink:href="#DejaVuSans-97"/>
      <use x="972.511719" xlink:href="#DejaVuSans-99"/>
      <use x="1027.492188" xlink:href="#DejaVuSans-116"/>
      <use x="1066.701172" xlink:href="#DejaVuSans-32"/>
      <use x="1098.488281" xlink:href="#DejaVuSans-102"/>
      <use x="1133.693359" xlink:href="#DejaVuSans-97"/>
      <use x="1194.972656" xlink:href="#DejaVuSans-105"/>
      <use x="1222.755859" xlink:href="#DejaVuSans-108"/>
      <use x="1250.539062" xlink:href="#DejaVuSans-117"/>
      <use x="1313.917969" xlink:href="#DejaVuSans-114"/>
      <use x="1355" xlink:href="#DejaVuSans-101"/>
     </g>
    </g>
   </g>
   <g id="matplotlib.axis_2">
    <g id="ytick_1">
     <g id="line2d_10">
      <defs>
       <path d="M 0 0 
L -3.5 0 
" id="m9efd79fbb1" style="stroke:#000000;stroke-width:0.8;"/>
      </defs>
      <g>
       <use style="stroke:#000000;stroke-width:0.8;" x="57.6" xlink:href="#m9efd79fbb1" y="267.240068"/>
      </g>
     </g>
     <g id="text_11">
      <!-- −300 -->
      <defs>
       <path d="M 10.59375 35.5 
L 73.1875 35.5 
L 73.1875 27.203125 
L 10.59375 27.203125 
z
" id="DejaVuSans-8722"/>
      </defs>
      <g transform="translate(23.132812 271.039287)scale(0.1 -0.1)">
       <use xlink:href="#DejaVuSans-8722"/>
       <use x="83.789062" xlink:href="#DejaVuSans-51"/>
       <use x="147.412109" xlink:href="#DejaVuSans-48"/>
       <use x="211.035156" xlink:href="#DejaVuSans-48"/>
      </g>
     </g>
    </g>
    <g id="ytick_2">
     <g id="line2d_11">
      <g>
       <use style="stroke:#000000;stroke-width:0.8;" x="57.6" xlink:href="#m9efd79fbb1" y="213.246247"/>
      </g>
     </g>
     <g id="text_12">
      <!-- −200 -->
      <g transform="translate(23.132812 217.045466)scale(0.1 -0.1)">
       <use xlink:href="#DejaVuSans-8722"/>
       <use x="83.789062" xlink:href="#DejaVuSans-50"/>
       <use x="147.412109" xlink:href="#DejaVuSans-48"/>
       <use x="211.035156" xlink:href="#DejaVuSans-48"/>
      </g>
     </g>
    </g>
    <g id="ytick_3">
     <g id="line2d_12">
      <g>
       <use style="stroke:#000000;stroke-width:0.8;" x="57.6" xlink:href="#m9efd79fbb1" y="159.252426"/>
      </g>
     </g>
     <g id="text_13">
      <!-- −100 -->
      <g transform="translate(23.132812 163.051645)scale(0.1 -0.1)">
       <use xlink:href="#DejaVuSans-8722"/>
       <use x="83.789062" xlink:href="#DejaVuSans-49"/>
       <use x="147.412109" xlink:href="#DejaVuSans-48"/>
       <use x="211.035156" xlink:href="#DejaVuSans-48"/>
      </g>
     </g>
    </g>
    <g id="ytick_4">
     <g id="line2d_13">
      <g>
       <use style="stroke:#000000;stroke-width:0.8;" x="57.6" xlink:href="#m9efd79fbb1" y="105.258605"/>
      </g>
     </g>
     <g id="text_14">
      <!-- 0 -->
      <g transform="translate(44.2375 109.057823)scale(0.1 -0.1)">
       <use xlink:href="#DejaVuSans-48"/>
      </g>
     </g>
    </g>
    <g id="ytick_5">
     <g id="line2d_14">
      <g>
       <use style="stroke:#000000;stroke-width:0.8;" x="57.6" xlink:href="#m9efd79fbb1" y="51.264783"/>
      </g>
     </g>
     <g id="text_15">
      <!-- 100 -->
      <g transform="translate(31.5125 55.064002)scale(0.1 -0.1)">
       <use xlink:href="#DejaVuSans-49"/>
       <use x="63.623047" xlink:href="#DejaVuSans-48"/>
       <use x="127.246094" xlink:href="#DejaVuSans-48"/>
      </g>
     </g>
    </g>
    <g id="text_16">
     <!-- % Improvement regarding CGR -->
     <defs>
      <path d="M 72.703125 32.078125 
Q 68.453125 32.078125 66.03125 28.46875 
Q 63.625 24.859375 63.625 18.40625 
Q 63.625 12.0625 66.03125 8.421875 
Q 68.453125 4.78125 72.703125 4.78125 
Q 76.859375 4.78125 79.265625 8.421875 
Q 81.6875 12.0625 81.6875 18.40625 
Q 81.6875 24.8125 79.265625 28.4375 
Q 76.859375 32.078125 72.703125 32.078125 
z
M 72.703125 38.28125 
Q 80.421875 38.28125 84.953125 32.90625 
Q 89.5 27.546875 89.5 18.40625 
Q 89.5 9.28125 84.9375 3.921875 
Q 80.375 -1.421875 72.703125 -1.421875 
Q 64.890625 -1.421875 60.34375 3.921875 
Q 55.8125 9.28125 55.8125 18.40625 
Q 55.8125 27.59375 60.375 32.9375 
Q 64.9375 38.28125 72.703125 38.28125 
z
M 22.3125 68.015625 
Q 18.109375 68.015625 15.6875 64.375 
Q 13.28125 60.75 13.28125 54.390625 
Q 13.28125 47.953125 15.671875 44.328125 
Q 18.0625 40.71875 22.3125 40.71875 
Q 26.5625 40.71875 28.96875 44.328125 
Q 31.390625 47.953125 31.390625 54.390625 
Q 31.390625 60.6875 28.953125 64.34375 
Q 26.515625 68.015625 22.3125 68.015625 
z
M 66.40625 74.21875 
L 74.21875 74.21875 
L 28.609375 -1.421875 
L 20.796875 -1.421875 
z
M 22.3125 74.21875 
Q 30.03125 74.21875 34.609375 68.875 
Q 39.203125 63.53125 39.203125 54.390625 
Q 39.203125 45.171875 34.640625 39.84375 
Q 30.078125 34.515625 22.3125 34.515625 
Q 14.546875 34.515625 10.03125 39.859375 
Q 5.515625 45.21875 5.515625 54.390625 
Q 5.515625 63.484375 10.046875 68.84375 
Q 14.59375 74.21875 22.3125 74.21875 
z
" id="DejaVuSans-37"/>
      <path d="M 9.8125 72.90625 
L 19.671875 72.90625 
L 19.671875 0 
L 9.8125 0 
z
" id="DejaVuSans-73"/>
      <path d="M 52 44.1875 
Q 55.375 50.25 60.0625 53.125 
Q 64.75 56 71.09375 56 
Q 79.640625 56 84.28125 50.015625 
Q 88.921875 44.046875 88.921875 33.015625 
L 88.921875 0 
L 79.890625 0 
L 79.890625 32.71875 
Q 79.890625 40.578125 77.09375 44.375 
Q 74.3125 48.1875 68.609375 48.1875 
Q 61.625 48.1875 57.5625 43.546875 
Q 53.515625 38.921875 53.515625 30.90625 
L 53.515625 0 
L 44.484375 0 
L 44.484375 32.71875 
Q 44.484375 40.625 41.703125 44.40625 
Q 38.921875 48.1875 33.109375 48.1875 
Q 26.21875 48.1875 22.15625 43.53125 
Q 18.109375 38.875 18.109375 30.90625 
L 18.109375 0 
L 9.078125 0 
L 9.078125 54.6875 
L 18.109375 54.6875 
L 18.109375 46.1875 
Q 21.1875 51.21875 25.484375 53.609375 
Q 29.78125 56 35.6875 56 
Q 41.65625 56 45.828125 52.96875 
Q 50 49.953125 52 44.1875 
z
" id="DejaVuSans-109"/>
      <path d="M 18.109375 8.203125 
L 18.109375 -20.796875 
L 9.078125 -20.796875 
L 9.078125 54.6875 
L 18.109375 54.6875 
L 18.109375 46.390625 
Q 20.953125 51.265625 25.265625 53.625 
Q 29.59375 56 35.59375 56 
Q 45.5625 56 51.78125 48.09375 
Q 58.015625 40.1875 58.015625 27.296875 
Q 58.015625 14.40625 51.78125 6.484375 
Q 45.5625 -1.421875 35.59375 -1.421875 
Q 29.59375 -1.421875 25.265625 0.953125 
Q 20.953125 3.328125 18.109375 8.203125 
z
M 48.6875 27.296875 
Q 48.6875 37.203125 44.609375 42.84375 
Q 40.53125 48.484375 33.40625 48.484375 
Q 26.265625 48.484375 22.1875 42.84375 
Q 18.109375 37.203125 18.109375 27.296875 
Q 18.109375 17.390625 22.1875 11.75 
Q 26.265625 6.109375 33.40625 6.109375 
Q 40.53125 6.109375 44.609375 11.75 
Q 48.6875 17.390625 48.6875 27.296875 
z
" id="DejaVuSans-112"/>
      <path d="M 2.984375 54.6875 
L 12.5 54.6875 
L 29.59375 8.796875 
L 46.6875 54.6875 
L 56.203125 54.6875 
L 35.6875 0 
L 23.484375 0 
z
" id="DejaVuSans-118"/>
      <path d="M 45.40625 27.984375 
Q 45.40625 37.75 41.375 43.109375 
Q 37.359375 48.484375 30.078125 48.484375 
Q 22.859375 48.484375 18.828125 43.109375 
Q 14.796875 37.75 14.796875 27.984375 
Q 14.796875 18.265625 18.828125 12.890625 
Q 22.859375 7.515625 30.078125 7.515625 
Q 37.359375 7.515625 41.375 12.890625 
Q 45.40625 18.265625 45.40625 27.984375 
z
M 54.390625 6.78125 
Q 54.390625 -7.171875 48.1875 -13.984375 
Q 42 -20.796875 29.203125 -20.796875 
Q 24.46875 -20.796875 20.265625 -20.09375 
Q 16.0625 -19.390625 12.109375 -17.921875 
L 12.109375 -9.1875 
Q 16.0625 -11.328125 19.921875 -12.34375 
Q 23.78125 -13.375 27.78125 -13.375 
Q 36.625 -13.375 41.015625 -8.765625 
Q 45.40625 -4.15625 45.40625 5.171875 
L 45.40625 9.625 
Q 42.625 4.78125 38.28125 2.390625 
Q 33.9375 0 27.875 0 
Q 17.828125 0 11.671875 7.65625 
Q 5.515625 15.328125 5.515625 27.984375 
Q 5.515625 40.671875 11.671875 48.328125 
Q 17.828125 56 27.875 56 
Q 33.9375 56 38.28125 53.609375 
Q 42.625 51.21875 45.40625 46.390625 
L 45.40625 54.6875 
L 54.390625 54.6875 
z
" id="DejaVuSans-103"/>
      <path d="M 45.40625 46.390625 
L 45.40625 75.984375 
L 54.390625 75.984375 
L 54.390625 0 
L 45.40625 0 
L 45.40625 8.203125 
Q 42.578125 3.328125 38.25 0.953125 
Q 33.9375 -1.421875 27.875 -1.421875 
Q 17.96875 -1.421875 11.734375 6.484375 
Q 5.515625 14.40625 5.515625 27.296875 
Q 5.515625 40.1875 11.734375 48.09375 
Q 17.96875 56 27.875 56 
Q 33.9375 56 38.25 53.625 
Q 42.578125 51.265625 45.40625 46.390625 
z
M 14.796875 27.296875 
Q 14.796875 17.390625 18.875 11.75 
Q 22.953125 6.109375 30.078125 6.109375 
Q 37.203125 6.109375 41.296875 11.75 
Q 45.40625 17.390625 45.40625 27.296875 
Q 45.40625 37.203125 41.296875 42.84375 
Q 37.203125 48.484375 30.078125 48.484375 
Q 22.953125 48.484375 18.875 42.84375 
Q 14.796875 37.203125 14.796875 27.296875 
z
" id="DejaVuSans-100"/>
      <path d="M 64.40625 67.28125 
L 64.40625 56.890625 
Q 59.421875 61.53125 53.78125 63.8125 
Q 48.140625 66.109375 41.796875 66.109375 
Q 29.296875 66.109375 22.65625 58.46875 
Q 16.015625 50.828125 16.015625 36.375 
Q 16.015625 21.96875 22.65625 14.328125 
Q 29.296875 6.6875 41.796875 6.6875 
Q 48.140625 6.6875 53.78125 8.984375 
Q 59.421875 11.28125 64.40625 15.921875 
L 64.40625 5.609375 
Q 59.234375 2.09375 53.4375 0.328125 
Q 47.65625 -1.421875 41.21875 -1.421875 
Q 24.65625 -1.421875 15.125 8.703125 
Q 5.609375 18.84375 5.609375 36.375 
Q 5.609375 53.953125 15.125 64.078125 
Q 24.65625 74.21875 41.21875 74.21875 
Q 47.75 74.21875 53.53125 72.484375 
Q 59.328125 70.75 64.40625 67.28125 
z
" id="DejaVuSans-67"/>
      <path d="M 59.515625 10.40625 
L 59.515625 29.984375 
L 43.40625 29.984375 
L 43.40625 38.09375 
L 69.28125 38.09375 
L 69.28125 6.78125 
Q 63.578125 2.734375 56.6875 0.65625 
Q 49.8125 -1.421875 42 -1.421875 
Q 24.90625 -1.421875 15.25 8.5625 
Q 5.609375 18.5625 5.609375 36.375 
Q 5.609375 54.25 15.25 64.234375 
Q 24.90625 74.21875 42 74.21875 
Q 49.125 74.21875 55.546875 72.453125 
Q 61.96875 70.703125 67.390625 67.28125 
L 67.390625 56.78125 
Q 61.921875 61.421875 55.765625 63.765625 
Q 49.609375 66.109375 42.828125 66.109375 
Q 29.4375 66.109375 22.71875 58.640625 
Q 16.015625 51.171875 16.015625 36.375 
Q 16.015625 21.625 22.71875 14.15625 
Q 29.4375 6.6875 42.828125 6.6875 
Q 48.046875 6.6875 52.140625 7.59375 
Q 56.25 8.5 59.515625 10.40625 
z
" id="DejaVuSans-71"/>
      <path d="M 44.390625 34.1875 
Q 47.5625 33.109375 50.5625 29.59375 
Q 53.5625 26.078125 56.59375 19.921875 
L 66.609375 0 
L 56 0 
L 46.6875 18.703125 
Q 43.0625 26.03125 39.671875 28.421875 
Q 36.28125 30.8125 30.421875 30.8125 
L 19.671875 30.8125 
L 19.671875 0 
L 9.8125 0 
L 9.8125 72.90625 
L 32.078125 72.90625 
Q 44.578125 72.90625 50.734375 67.671875 
Q 56.890625 62.453125 56.890625 51.90625 
Q 56.890625 45.015625 53.6875 40.46875 
Q 50.484375 35.9375 44.390625 34.1875 
z
M 19.671875 64.796875 
L 19.671875 38.921875 
L 32.078125 38.921875 
Q 39.203125 38.921875 42.84375 42.21875 
Q 46.484375 45.515625 46.484375 51.90625 
Q 46.484375 58.296875 42.84375 61.546875 
Q 39.203125 64.796875 32.078125 64.796875 
z
" id="DejaVuSans-82"/>
     </defs>
     <g transform="translate(17.053125 252.960031)rotate(-90)scale(0.1 -0.1)">
      <use xlink:href="#DejaVuSans-37"/>
      <use x="95.019531" xlink:href="#DejaVuSans-32"/>
      <use x="126.806641" xlink:href="#DejaVuSans-73"/>
      <use x="156.298828" xlink:href="#DejaVuSans-109"/>
      <use x="253.710938" xlink:href="#DejaVuSans-112"/>
      <use x="317.1875" xlink:href="#DejaVuSans-114"/>
      <use x="358.269531" xlink:href="#DejaVuSans-111"/>
      <use x="419.451172" xlink:href="#DejaVuSans-118"/>
      <use x="478.630859" xlink:href="#DejaVuSans-101"/>
      <use x="540.154297" xlink:href="#DejaVuSans-109"/>
      <use x="637.566406" xlink:href="#DejaVuSans-101"/>
      <use x="699.089844" xlink:href="#DejaVuSans-110"/>
      <use x="762.46875" xlink:href="#DejaVuSans-116"/>
      <use x="801.677734" xlink:href="#DejaVuSans-32"/>
      <use x="833.464844" xlink:href="#DejaVuSans-114"/>
      <use x="874.546875" xlink:href="#DejaVuSans-101"/>
      <use x="936.070312" xlink:href="#DejaVuSans-103"/>
      <use x="999.546875" xlink:href="#DejaVuSans-97"/>
      <use x="1060.826172" xlink:href="#DejaVuSans-114"/>
      <use x="1101.923828" xlink:href="#DejaVuSans-100"/>
      <use x="1165.400391" xlink:href="#DejaVuSans-105"/>
      <use x="1193.183594" xlink:href="#DejaVuSans-110"/>
      <use x="1256.5625" xlink:href="#DejaVuSans-103"/>
      <use x="1320.039062" xlink:href="#DejaVuSans-32"/>
      <use x="1351.826172" xlink:href="#DejaVuSans-67"/>
      <use x="1421.650391" xlink:href="#DejaVuSans-71"/>
      <use x="1499.140625" xlink:href="#DejaVuSans-82"/>
     </g>
    </g>
   </g>
   <g id="patch_93">
    <path d="M 57.6 307.584 
L 57.6 41.472 
" style="fill:none;stroke:#000000;stroke-linecap:square;stroke-linejoin:miter;stroke-width:0.8;"/>
   </g>
   <g id="patch_94">
    <path d="M 414.72 307.584 
L 414.72 41.472 
" style="fill:none;stroke:#000000;stroke-linecap:square;stroke-linejoin:miter;stroke-width:0.8;"/>
   </g>
   <g id="patch_95">
    <path d="M 57.6 307.584 
L 414.72 307.584 
" style="fill:none;stroke:#000000;stroke-linecap:square;stroke-linejoin:miter;stroke-width:0.8;"/>
   </g>
   <g id="patch_96">
    <path d="M 57.6 41.472 
L 414.72 41.472 
" style="fill:none;stroke:#000000;stroke-linecap:square;stroke-linejoin:miter;stroke-width:0.8;"/>
   </g>
   <g id="legend_1">
    <g id="patch_97">
     <path d="M 176.763125 302.584 
L 295.556875 302.584 
Q 297.556875 302.584 297.556875 300.584 
L 297.556875 154.80275 
Q 297.556875 152.80275 295.556875 152.80275 
L 176.763125 152.80275 
Q 174.763125 152.80275 174.763125 154.80275 
L 174.763125 300.584 
Q 174.763125 302.584 176.763125 302.584 
z
" style="fill:#ffffff;opacity:0.8;stroke:#cccccc;stroke-linejoin:miter;"/>
    </g>
    <g id="patch_98">
     <path d="M 178.763125 164.401187 
L 198.763125 164.401187 
L 198.763125 157.401187 
L 178.763125 157.401187 
z
"/>
    </g>
    <g id="text_17">
     <!-- CGR-FaultsAware -->
     <defs>
      <path d="M 4.890625 31.390625 
L 31.203125 31.390625 
L 31.203125 23.390625 
L 4.890625 23.390625 
z
" id="DejaVuSans-45"/>
      <path d="M 9.8125 72.90625 
L 51.703125 72.90625 
L 51.703125 64.59375 
L 19.671875 64.59375 
L 19.671875 43.109375 
L 48.578125 43.109375 
L 48.578125 34.8125 
L 19.671875 34.8125 
L 19.671875 0 
L 9.8125 0 
z
" id="DejaVuSans-70"/>
      <path d="M 44.28125 53.078125 
L 44.28125 44.578125 
Q 40.484375 46.53125 36.375 47.5 
Q 32.28125 48.484375 27.875 48.484375 
Q 21.1875 48.484375 17.84375 46.4375 
Q 14.5 44.390625 14.5 40.28125 
Q 14.5 37.15625 16.890625 35.375 
Q 19.28125 33.59375 26.515625 31.984375 
L 29.59375 31.296875 
Q 39.15625 29.25 43.1875 25.515625 
Q 47.21875 21.78125 47.21875 15.09375 
Q 47.21875 7.46875 41.1875 3.015625 
Q 35.15625 -1.421875 24.609375 -1.421875 
Q 20.21875 -1.421875 15.453125 -0.5625 
Q 10.6875 0.296875 5.421875 2 
L 5.421875 11.28125 
Q 10.40625 8.6875 15.234375 7.390625 
Q 20.0625 6.109375 24.8125 6.109375 
Q 31.15625 6.109375 34.5625 8.28125 
Q 37.984375 10.453125 37.984375 14.40625 
Q 37.984375 18.0625 35.515625 20.015625 
Q 33.0625 21.96875 24.703125 23.78125 
L 21.578125 24.515625 
Q 13.234375 26.265625 9.515625 29.90625 
Q 5.8125 33.546875 5.8125 39.890625 
Q 5.8125 47.609375 11.28125 51.796875 
Q 16.75 56 26.8125 56 
Q 31.78125 56 36.171875 55.265625 
Q 40.578125 54.546875 44.28125 53.078125 
z
" id="DejaVuSans-115"/>
      <path d="M 34.1875 63.1875 
L 20.796875 26.90625 
L 47.609375 26.90625 
z
M 28.609375 72.90625 
L 39.796875 72.90625 
L 67.578125 0 
L 57.328125 0 
L 50.6875 18.703125 
L 17.828125 18.703125 
L 11.1875 0 
L 0.78125 0 
z
" id="DejaVuSans-65"/>
      <path d="M 4.203125 54.6875 
L 13.1875 54.6875 
L 24.421875 12.015625 
L 35.59375 54.6875 
L 46.1875 54.6875 
L 57.421875 12.015625 
L 68.609375 54.6875 
L 77.59375 54.6875 
L 63.28125 0 
L 52.6875 0 
L 40.921875 44.828125 
L 29.109375 0 
L 18.5 0 
z
" id="DejaVuSans-119"/>
     </defs>
     <g transform="translate(206.763125 164.401187)scale(0.1 -0.1)">
      <use xlink:href="#DejaVuSans-67"/>
      <use x="69.824219" xlink:href="#DejaVuSans-71"/>
      <use x="147.314453" xlink:href="#DejaVuSans-82"/>
      <use x="216.734375" xlink:href="#DejaVuSans-45"/>
      <use x="252.818359" xlink:href="#DejaVuSans-70"/>
      <use x="310.197266" xlink:href="#DejaVuSans-97"/>
      <use x="371.476562" xlink:href="#DejaVuSans-117"/>
      <use x="434.855469" xlink:href="#DejaVuSans-108"/>
      <use x="462.638672" xlink:href="#DejaVuSans-116"/>
      <use x="501.847656" xlink:href="#DejaVuSans-115"/>
      <use x="553.947266" xlink:href="#DejaVuSans-65"/>
      <use x="622.292969" xlink:href="#DejaVuSans-119"/>
      <use x="704.080078" xlink:href="#DejaVuSans-97"/>
      <use x="765.359375" xlink:href="#DejaVuSans-114"/>
      <use x="806.441406" xlink:href="#DejaVuSans-101"/>
     </g>
    </g>
    <g id="patch_99">
     <path d="M 178.763125 179.079313 
L 198.763125 179.079313 
L 198.763125 172.079313 
L 178.763125 172.079313 
z
" style="fill:#ffa500;"/>
    </g>
    <g id="text_18">
     <!-- BRUF-4 -->
     <defs>
      <path d="M 19.671875 34.8125 
L 19.671875 8.109375 
L 35.5 8.109375 
Q 43.453125 8.109375 47.28125 11.40625 
Q 51.125 14.703125 51.125 21.484375 
Q 51.125 28.328125 47.28125 31.5625 
Q 43.453125 34.8125 35.5 34.8125 
z
M 19.671875 64.796875 
L 19.671875 42.828125 
L 34.28125 42.828125 
Q 41.5 42.828125 45.03125 45.53125 
Q 48.578125 48.25 48.578125 53.8125 
Q 48.578125 59.328125 45.03125 62.0625 
Q 41.5 64.796875 34.28125 64.796875 
z
M 9.8125 72.90625 
L 35.015625 72.90625 
Q 46.296875 72.90625 52.390625 68.21875 
Q 58.5 63.53125 58.5 54.890625 
Q 58.5 48.1875 55.375 44.234375 
Q 52.25 40.28125 46.1875 39.3125 
Q 53.46875 37.75 57.5 32.78125 
Q 61.53125 27.828125 61.53125 20.40625 
Q 61.53125 10.640625 54.890625 5.3125 
Q 48.25 0 35.984375 0 
L 9.8125 0 
z
" id="DejaVuSans-66"/>
      <path d="M 8.6875 72.90625 
L 18.609375 72.90625 
L 18.609375 28.609375 
Q 18.609375 16.890625 22.84375 11.734375 
Q 27.09375 6.59375 36.625 6.59375 
Q 46.09375 6.59375 50.34375 11.734375 
Q 54.59375 16.890625 54.59375 28.609375 
L 54.59375 72.90625 
L 64.5 72.90625 
L 64.5 27.390625 
Q 64.5 13.140625 57.4375 5.859375 
Q 50.390625 -1.421875 36.625 -1.421875 
Q 22.796875 -1.421875 15.734375 5.859375 
Q 8.6875 13.140625 8.6875 27.390625 
z
" id="DejaVuSans-85"/>
     </defs>
     <g transform="translate(206.763125 179.079313)scale(0.1 -0.1)">
      <use xlink:href="#DejaVuSans-66"/>
      <use x="68.603516" xlink:href="#DejaVuSans-82"/>
      <use x="138.085938" xlink:href="#DejaVuSans-85"/>
      <use x="211.279297" xlink:href="#DejaVuSans-70"/>
      <use x="268.798828" xlink:href="#DejaVuSans-45"/>
      <use x="304.882812" xlink:href="#DejaVuSans-52"/>
     </g>
    </g>
    <g id="patch_100">
     <path d="M 178.763125 193.757438 
L 198.763125 193.757438 
L 198.763125 186.757438 
L 178.763125 186.757438 
z
" style="fill:#0000ff;"/>
    </g>
    <g id="text_19">
     <!-- BRUF-3 -->
     <g transform="translate(206.763125 193.757438)scale(0.1 -0.1)">
      <use xlink:href="#DejaVuSans-66"/>
      <use x="68.603516" xlink:href="#DejaVuSans-82"/>
      <use x="138.085938" xlink:href="#DejaVuSans-85"/>
      <use x="211.279297" xlink:href="#DejaVuSans-70"/>
      <use x="268.798828" xlink:href="#DejaVuSans-45"/>
      <use x="304.882812" xlink:href="#DejaVuSans-51"/>
     </g>
    </g>
    <g id="patch_101">
     <path d="M 178.763125 208.435563 
L 198.763125 208.435563 
L 198.763125 201.435563 
L 178.763125 201.435563 
z
" style="fill:#008000;"/>
    </g>
    <g id="text_20">
     <!-- BRUF-2 -->
     <g transform="translate(206.763125 208.435563)scale(0.1 -0.1)">
      <use xlink:href="#DejaVuSans-66"/>
      <use x="68.603516" xlink:href="#DejaVuSans-82"/>
      <use x="138.085938" xlink:href="#DejaVuSans-85"/>
      <use x="211.279297" xlink:href="#DejaVuSans-70"/>
      <use x="268.798828" xlink:href="#DejaVuSans-45"/>
      <use x="304.882812" xlink:href="#DejaVuSans-50"/>
     </g>
    </g>
    <g id="patch_102">
     <path d="M 178.763125 223.113688 
L 198.763125 223.113688 
L 198.763125 216.113688 
L 178.763125 216.113688 
z
" style="fill:#ff0000;"/>
    </g>
    <g id="text_21">
     <!-- BRUF-1 -->
     <g transform="translate(206.763125 223.113688)scale(0.1 -0.1)">
      <use xlink:href="#DejaVuSans-66"/>
      <use x="68.603516" xlink:href="#DejaVuSans-82"/>
      <use x="138.085938" xlink:href="#DejaVuSans-85"/>
      <use x="211.279297" xlink:href="#DejaVuSans-70"/>
      <use x="268.798828" xlink:href="#DejaVuSans-45"/>
      <use x="304.882812" xlink:href="#DejaVuSans-49"/>
     </g>
    </g>
    <g id="patch_103">
     <path d="M 178.763125 237.791812 
L 198.763125 237.791812 
L 198.763125 230.791812 
L 178.763125 230.791812 
z
" style="fill:#8b008b;"/>
    </g>
    <g id="text_22">
     <!-- CGR-BRUF -->
     <g transform="translate(206.763125 237.791812)scale(0.1 -0.1)">
      <use xlink:href="#DejaVuSans-67"/>
      <use x="69.824219" xlink:href="#DejaVuSans-71"/>
      <use x="147.314453" xlink:href="#DejaVuSans-82"/>
      <use x="216.734375" xlink:href="#DejaVuSans-45"/>
      <use x="252.771484" xlink:href="#DejaVuSans-66"/>
      <use x="321.375" xlink:href="#DejaVuSans-82"/>
      <use x="390.857422" xlink:href="#DejaVuSans-85"/>
      <use x="464.050781" xlink:href="#DejaVuSans-70"/>
     </g>
    </g>
    <g id="patch_104">
     <path d="M 178.763125 252.469938 
L 198.763125 252.469938 
L 198.763125 245.469938 
L 178.763125 245.469938 
z
" style="fill:#800080;"/>
    </g>
    <g id="text_23">
     <!-- CGR-DelTime -->
     <defs>
      <path d="M 19.671875 64.796875 
L 19.671875 8.109375 
L 31.59375 8.109375 
Q 46.6875 8.109375 53.6875 14.9375 
Q 60.6875 21.78125 60.6875 36.53125 
Q 60.6875 51.171875 53.6875 57.984375 
Q 46.6875 64.796875 31.59375 64.796875 
z
M 9.8125 72.90625 
L 30.078125 72.90625 
Q 51.265625 72.90625 61.171875 64.09375 
Q 71.09375 55.28125 71.09375 36.53125 
Q 71.09375 17.671875 61.125 8.828125 
Q 51.171875 0 30.078125 0 
L 9.8125 0 
z
" id="DejaVuSans-68"/>
      <path d="M -0.296875 72.90625 
L 61.375 72.90625 
L 61.375 64.59375 
L 35.5 64.59375 
L 35.5 0 
L 25.59375 0 
L 25.59375 64.59375 
L -0.296875 64.59375 
z
" id="DejaVuSans-84"/>
     </defs>
     <g transform="translate(206.763125 252.469938)scale(0.1 -0.1)">
      <use xlink:href="#DejaVuSans-67"/>
      <use x="69.824219" xlink:href="#DejaVuSans-71"/>
      <use x="147.314453" xlink:href="#DejaVuSans-82"/>
      <use x="216.734375" xlink:href="#DejaVuSans-45"/>
      <use x="252.818359" xlink:href="#DejaVuSans-68"/>
      <use x="329.820312" xlink:href="#DejaVuSans-101"/>
      <use x="391.34375" xlink:href="#DejaVuSans-108"/>
      <use x="419.126953" xlink:href="#DejaVuSans-84"/>
      <use x="480.164062" xlink:href="#DejaVuSans-105"/>
      <use x="507.947266" xlink:href="#DejaVuSans-109"/>
      <use x="605.359375" xlink:href="#DejaVuSans-101"/>
     </g>
    </g>
    <g id="patch_105">
     <path d="M 178.763125 267.148062 
L 198.763125 267.148062 
L 198.763125 260.148062 
L 178.763125 260.148062 
z
" style="fill:#ffc0cb;"/>
    </g>
    <g id="text_24">
     <!-- SprayAndWait-4 -->
     <defs>
      <path d="M 53.515625 70.515625 
L 53.515625 60.890625 
Q 47.90625 63.578125 42.921875 64.890625 
Q 37.9375 66.21875 33.296875 66.21875 
Q 25.25 66.21875 20.875 63.09375 
Q 16.5 59.96875 16.5 54.203125 
Q 16.5 49.359375 19.40625 46.890625 
Q 22.3125 44.4375 30.421875 42.921875 
L 36.375 41.703125 
Q 47.40625 39.59375 52.65625 34.296875 
Q 57.90625 29 57.90625 20.125 
Q 57.90625 9.515625 50.796875 4.046875 
Q 43.703125 -1.421875 29.984375 -1.421875 
Q 24.8125 -1.421875 18.96875 -0.25 
Q 13.140625 0.921875 6.890625 3.21875 
L 6.890625 13.375 
Q 12.890625 10.015625 18.65625 8.296875 
Q 24.421875 6.59375 29.984375 6.59375 
Q 38.421875 6.59375 43.015625 9.90625 
Q 47.609375 13.234375 47.609375 19.390625 
Q 47.609375 24.75 44.3125 27.78125 
Q 41.015625 30.8125 33.5 32.328125 
L 27.484375 33.5 
Q 16.453125 35.6875 11.515625 40.375 
Q 6.59375 45.0625 6.59375 53.421875 
Q 6.59375 63.09375 13.40625 68.65625 
Q 20.21875 74.21875 32.171875 74.21875 
Q 37.3125 74.21875 42.625 73.28125 
Q 47.953125 72.359375 53.515625 70.515625 
z
" id="DejaVuSans-83"/>
      <path d="M 3.328125 72.90625 
L 13.28125 72.90625 
L 28.609375 11.28125 
L 43.890625 72.90625 
L 54.984375 72.90625 
L 70.3125 11.28125 
L 85.59375 72.90625 
L 95.609375 72.90625 
L 77.296875 0 
L 64.890625 0 
L 49.515625 63.28125 
L 33.984375 0 
L 21.578125 0 
z
" id="DejaVuSans-87"/>
     </defs>
     <g transform="translate(206.763125 267.148062)scale(0.1 -0.1)">
      <use xlink:href="#DejaVuSans-83"/>
      <use x="63.476562" xlink:href="#DejaVuSans-112"/>
      <use x="126.953125" xlink:href="#DejaVuSans-114"/>
      <use x="168.066406" xlink:href="#DejaVuSans-97"/>
      <use x="229.345703" xlink:href="#DejaVuSans-121"/>
      <use x="288.525391" xlink:href="#DejaVuSans-65"/>
      <use x="356.933594" xlink:href="#DejaVuSans-110"/>
      <use x="420.3125" xlink:href="#DejaVuSans-100"/>
      <use x="483.789062" xlink:href="#DejaVuSans-87"/>
      <use x="582.572266" xlink:href="#DejaVuSans-97"/>
      <use x="643.851562" xlink:href="#DejaVuSans-105"/>
      <use x="671.634766" xlink:href="#DejaVuSans-116"/>
      <use x="710.84375" xlink:href="#DejaVuSans-45"/>
      <use x="746.927734" xlink:href="#DejaVuSans-52"/>
     </g>
    </g>
    <g id="patch_106">
     <path d="M 178.763125 281.826188 
L 198.763125 281.826188 
L 198.763125 274.826188 
L 178.763125 274.826188 
z
" style="fill:#6a5acd;"/>
    </g>
    <g id="text_25">
     <!-- SprayAndWait-3 -->
     <g transform="translate(206.763125 281.826188)scale(0.1 -0.1)">
      <use xlink:href="#DejaVuSans-83"/>
      <use x="63.476562" xlink:href="#DejaVuSans-112"/>
      <use x="126.953125" xlink:href="#DejaVuSans-114"/>
      <use x="168.066406" xlink:href="#DejaVuSans-97"/>
      <use x="229.345703" xlink:href="#DejaVuSans-121"/>
      <use x="288.525391" xlink:href="#DejaVuSans-65"/>
      <use x="356.933594" xlink:href="#DejaVuSans-110"/>
      <use x="420.3125" xlink:href="#DejaVuSans-100"/>
      <use x="483.789062" xlink:href="#DejaVuSans-87"/>
      <use x="582.572266" xlink:href="#DejaVuSans-97"/>
      <use x="643.851562" xlink:href="#DejaVuSans-105"/>
      <use x="671.634766" xlink:href="#DejaVuSans-116"/>
      <use x="710.84375" xlink:href="#DejaVuSans-45"/>
      <use x="746.927734" xlink:href="#DejaVuSans-51"/>
     </g>
    </g>
    <g id="patch_107">
     <path d="M 178.763125 296.504312 
L 198.763125 296.504312 
L 198.763125 289.504312 
L 178.763125 289.504312 
z
" style="fill:#008b8b;"/>
    </g>
    <g id="text_26">
     <!-- SprayAndWait-2 -->
     <g transform="translate(206.763125 296.504312)scale(0.1 -0.1)">
      <use xlink:href="#DejaVuSans-83"/>
      <use x="63.476562" xlink:href="#DejaVuSans-112"/>
      <use x="126.953125" xlink:href="#DejaVuSans-114"/>
      <use x="168.066406" xlink:href="#DejaVuSans-97"/>
      <use x="229.345703" xlink:href="#DejaVuSans-121"/>
      <use x="288.525391" xlink:href="#DejaVuSans-65"/>
      <use x="356.933594" xlink:href="#DejaVuSans-110"/>
      <use x="420.3125" xlink:href="#DejaVuSans-100"/>
      <use x="483.789062" xlink:href="#DejaVuSans-87"/>
      <use x="582.572266" xlink:href="#DejaVuSans-97"/>
      <use x="643.851562" xlink:href="#DejaVuSans-105"/>
      <use x="671.634766" xlink:href="#DejaVuSans-116"/>
      <use x="710.84375" xlink:href="#DejaVuSans-45"/>
      <use x="746.927734" xlink:href="#DejaVuSans-50"/>
     </g>
    </g>
   </g>
  </g>
 </g>
 <defs>
  <clipPath id="pf8078de5f2">
   <rect height="266.112" width="357.12" x="57.6" y="41.472"/>
  </clipPath>
 </defs>
</svg>
