a contact +0000000 +0000060 1 3 12000
a contact +0000006 +0000060 1 12 12000
a contact +0000060 +0000120 1 3 12000
a contact +0000060 +0000120 1 12 12000
a contact +0000120 +0000180 1 12 12000
a contact +0000180 +0000240 1 12 12000
a contact +0000240 +0000300 1 12 12000
a contact +0000300 +0000360 1 12 12000
a contact +0000360 +0000406 1 12 12000
a contact +0000540 +0000600 1 10 12000
a contact +0000600 +0000660 1 10 12000
a contact +0000660 +0000720 1 10 12000
a contact +0000720 +0000780 1 10 12000
a contact +0000780 +0000835 1 10 12000
a contact +0000983 +0001020 1 8 12000
a contact +0001020 +0001080 1 8 12000
a contact +0001080 +0001140 1 8 12000
a contact +0001140 +0001200 1 8 12000
a contact +0001158 +0001200 1 2 12000
a contact +0001200 +0001260 1 8 12000
a contact +0001200 +0001260 1 2 12000
a contact +0001260 +0001320 1 8 12000
a contact +0001260 +0001320 1 2 12000
a contact +0001320 +0001351 1 8 12000
a contact +0001320 +0001380 1 2 12000
a contact +0001380 +0001440 1 2 12000
a contact +0001440 +0001500 1 2 12000
a contact +0001454 +0001500 1 11 12000
a contact +0001500 +0001555 1 2 12000
a contact +0001500 +0001560 1 11 12000
a contact +0001560 +0001620 1 11 12000
a contact +0001620 +0001680 1 11 12000
a contact +0001680 +0001740 1 11 12000
a contact +0001740 +0001800 1 11 12000
a contact +0001800 +0001840 1 11 12000
a contact +0001980 +0002040 1 13 12000
a contact +0002040 +0002100 1 13 12000
a contact +0002100 +0002160 1 13 12000
a contact +0002160 +0002220 1 13 12000
a contact +0002220 +0002280 1 13 12000
a contact +0002420 +0002460 1 7 12000
a contact +0002460 +0002520 1 7 12000
a contact +0002520 +0002580 1 7 12000
a contact +0002580 +0002640 1 7 12000
a contact +0002589 +0002640 1 5 12000
a contact +0002640 +0002700 1 7 12000
a contact +0002640 +0002700 1 5 12000
a contact +0002700 +0002760 1 7 12000
a contact +0002700 +0002760 1 5 12000
a contact +0002760 +0002820 1 5 12000
a contact +0002820 +0002880 1 5 12000
a contact +0002880 +0002940 1 5 12000
a contact +0002910 +0002940 1 10 12000
a contact +0002940 +0002990 1 5 12000
a contact +0002940 +0003000 1 10 12000
a contact +0003000 +0003060 1 10 12000
a contact +0003060 +0003120 1 10 12000
a contact +0003120 +0003180 1 10 12000
a contact +0003180 +0003240 1 10 12000
a contact +0003240 +0003272 1 10 12000
a contact +0003420 +0003480 1 12 12000
a contact +0003480 +0003540 1 12 12000
a contact +0003540 +0003600 1 12 12000
a contact +0003600 +0003660 1 12 12000
a contact +0003660 +0003720 1 12 12000
a contact +0003720 +0003760 1 12 12000
a contact +0003857 +0003900 1 6 12000
a contact +0003900 +0003960 1 6 12000
a contact +0003960 +0004020 1 6 12000
a contact +0004020 +0004080 1 6 12000
a contact +0004022 +0004080 1 4 12000
a contact +0004080 +0004140 1 6 12000
a contact +0004080 +0004140 1 4 12000
a contact +0004140 +0004183 1 6 12000
a contact +0004140 +0004200 1 4 12000
a contact +0004200 +0004260 1 4 12000
a contact +0004260 +0004320 1 4 12000
a contact +0004320 +0004380 1 4 12000
a contact +0004380 +0004426 1 4 12000
a contact +0004380 +0004440 1 13 12000
a contact +0004440 +0004500 1 13 12000
a contact +0004500 +0004560 1 13 12000
a contact +0004560 +0004620 1 13 12000
a contact +0004620 +0004680 1 13 12000
a contact +0004860 +0004920 1 11 12000
a contact +0004920 +0004980 1 11 12000
a contact +0004980 +0005040 1 11 12000
a contact +0005040 +0005100 1 11 12000
a contact +0005100 +0005160 1 11 12000
a contact +0005113 +0005160 6 14 12000
a contact +0005160 +0005214 1 11 12000
a contact +0005160 +0005220 6 14 12000
a contact +0005220 +0005280 6 14 12000
a contact +0005292 +0005340 1 9 12000
a contact +0005340 +0005400 1 9 12000
a contact +0005400 +0005460 1 9 12000
a contact +0005460 +0005520 1 9 12000
a contact +0005460 +0005520 1 3 12000
a contact +0005520 +0005580 1 9 12000
a contact +0005520 +0005580 1 3 12000
a contact +0005580 +0005640 1 3 12000
a contact +0005640 +0005700 1 3 12000
a contact +0005700 +0005760 1 3 12000
a contact +0005760 +0005820 1 3 12000
a contact +0005820 +0005863 1 3 12000
a contact +0005880 +0005940 1 12 12000
a contact +0005940 +0006000 1 12 12000
a contact +0006000 +0006060 1 12 12000
a contact +0006060 +0006120 1 12 12000
a contact +0006300 +0006360 1 10 12000
a contact +0006360 +0006420 1 10 12000
a contact +0006420 +0006480 1 10 12000
a contact +0006480 +0006540 1 10 12000
a contact +0006540 +0006600 1 10 12000
a contact +0006540 +0006600 9 14 12000
a contact +0006600 +0006660 1 10 12000
a contact +0006600 +0006660 9 14 12000
a contact +0006660 +0006720 9 14 12000
a contact +0006720 +0006758 9 14 12000
a contact +0006725 +0006780 1 8 12000
a contact +0006780 +0006840 1 8 12000
a contact +0006840 +0006900 1 8 12000
a contact +0006900 +0006960 1 8 12000
a contact +0006900 +0006960 1 2 12000
a contact +0006960 +0007008 1 8 12000
a contact +0006960 +0007020 1 2 12000
a contact +0007020 +0007080 1 2 12000
a contact +0007080 +0007140 1 2 12000
a contact +0007140 +0007200 1 2 12000
a contact +0007200 +0007260 1 2 12000
a contact +0007260 +0007300 1 2 12000
a contact +0007380 +0007440 1 11 12000
a contact +0007440 +0007500 1 11 12000
a contact +0007500 +0007530 1 11 12000
a contact +0007710 +0007740 1 13 12000
a contact +0007740 +0007800 1 13 12000
a contact +0007800 +0007860 1 13 12000
a contact +0007860 +0007920 1 13 12000
a contact +0007920 +0007980 1 13 12000
a contact +0007980 +0008040 1 13 12000
a contact +0008007 +0008040 8 14 12000
a contact +0008040 +0008100 1 13 12000
a contact +0008040 +0008100 8 14 12000
a contact +0008160 +0008220 1 7 12000
a contact +0008220 +0008280 1 7 12000
a contact +0008280 +0008340 1 7 12000
a contact +0008340 +0008400 1 7 12000
a contact +0008340 +0008400 1 5 12000
a contact +0008400 +0008460 1 5 12000
a contact +0008460 +0008520 1 5 12000
a contact +0008520 +0008580 1 5 12000
a contact +0008580 +0008640 1 5 12000
a contact +0008640 +0008700 1 5 12000
a contact +0008700 +0008737 1 5 12000
a contact +0009148 +0009180 1 12 12000
a contact +0009180 +0009240 1 12 12000
a contact +0009240 +0009300 1 12 12000
a contact +0009300 +0009360 1 12 12000
a contact +0009360 +0009420 1 12 12000
a contact +0009420 +0009480 1 12 12000
a contact +0009480 +0009540 1 12 12000
a contact +0009600 +0009660 1 6 12000
a contact +0009660 +0009720 1 6 12000
a contact +0009720 +0009780 1 6 12000
a contact +0009780 +0009835 1 6 12000
a contact +0009780 +0009840 1 4 12000
a contact +0009840 +0009900 1 4 12000
a contact +0009900 +0009960 1 4 12000
a contact +0009960 +0010020 1 4 12000
a contact +0010020 +0010080 1 4 12000
a contact +0010080 +0010140 1 4 12000
a contact +0010140 +0010174 1 4 12000
a contact +0010585 +0010620 1 11 12000
a contact +0010620 +0010680 1 11 12000
a contact +0010680 +0010740 1 11 12000
a contact +0010740 +0010800 1 11 12000
a contact +0010800 +0010860 1 11 12000
a contact +0010860 +0010920 1 11 12000
a contact +0010920 +0010980 1 11 12000
a contact +0011007 +0011040 1 9 12000
a contact +0011040 +0011100 1 9 12000
a contact +0011100 +0011160 1 9 12000
a contact +0011160 +0011220 1 9 12000
a contact +0011220 +0011253 1 9 12000
a contact +0011223 +0011280 1 3 12000
a contact +0011280 +0011340 1 3 12000
a contact +0011340 +0011400 1 3 12000
a contact +0011400 +0011460 1 3 12000
a contact +0011460 +0011520 1 3 12000
a contact +0011520 +0011580 1 3 12000
a contact +0011580 +0011612 1 3 12000
a contact +0012022 +0012060 1 10 12000
a contact +0012060 +0012120 1 10 12000
a contact +0012120 +0012180 1 10 12000
a contact +0012180 +0012240 1 10 12000
a contact +0012240 +0012300 1 10 12000
a contact +0012300 +0012360 1 10 12000
a contact +0012360 +0012420 1 10 12000
a contact +0012427 +0012480 1 8 12000
a contact +0012480 +0012540 1 8 12000
a contact +0012540 +0012600 1 8 12000
a contact +0012600 +0012660 1 8 12000
a contact +0012674 +0012720 1 2 12000
a contact +0012720 +0012780 1 2 12000
a contact +0012780 +0012840 1 2 12000
a contact +0012840 +0012900 1 2 12000
a contact +0012900 +0012960 1 2 12000
a contact +0012960 +0013020 1 2 12000
a contact +0013459 +0013500 1 13 12000
a contact +0013500 +0013560 1 13 12000
a contact +0013560 +0013620 1 13 12000
a contact +0013620 +0013680 1 13 12000
a contact +0013680 +0013740 1 13 12000
a contact +0013740 +0013800 1 13 12000
a contact +0013800 +0013860 1 13 12000
a contact +0013860 +0013920 1 7 12000
a contact +0013920 +0013980 1 7 12000
a contact +0013980 +0014040 1 7 12000
a contact +0014040 +0014099 1 7 12000
a contact +0014130 +0014160 1 5 12000
a contact +0014160 +0014220 1 5 12000
a contact +0014220 +0014280 1 5 12000
a contact +0014280 +0014340 1 5 12000
a contact +0014340 +0014400 1 5 12000
a contact +0014400 +0014460 1 5 12000
a contact +0014894 +0014940 1 12 12000
a contact +0014940 +0015000 1 12 12000
a contact +0015000 +0015060 1 12 12000
a contact +0015060 +0015120 1 12 12000
a contact +0015120 +0015180 1 12 12000
a contact +0015180 +0015240 1 12 12000
a contact +0015240 +0015295 1 12 12000
a contact +0015257 +0015300 1 6 12000
a contact +0015300 +0015360 1 6 12000
a contact +0015360 +0015420 1 6 12000
a contact +0015420 +0015480 1 6 12000
a contact +0015480 +0015528 1 6 12000
a contact +0015600 +0015660 1 4 12000
a contact +0015660 +0015720 1 4 12000
a contact +0015720 +0015780 1 4 12000
a contact +0015780 +0015840 1 4 12000
a contact +0015840 +0015900 1 4 12000
a contact +0016143 +0016200 1 2 12000
a contact +0016200 +0016260 1 2 12000
a contact +0016260 +0016320 1 2 12000
a contact +0016320 +0016353 1 2 12000
a contact +0016329 +0016380 1 11 12000
a contact +0016380 +0016440 1 11 12000
a contact +0016440 +0016500 1 11 12000
a contact +0016500 +0016560 1 11 12000
a contact +0016560 +0016620 1 11 12000
a contact +0016620 +0016680 1 11 12000
a contact +0016680 +0016725 1 11 12000
a contact +0016680 +0016740 1 9 12000
a contact +0016740 +0016800 1 9 12000
a contact +0016800 +0016860 1 9 12000
a contact +0016860 +0016920 1 9 12000
a contact +0016920 +0016960 1 9 12000
a contact +0017058 +0017100 1 3 12000
a contact +0017100 +0017160 1 3 12000
a contact +0017160 +0017220 1 3 12000
a contact +0017220 +0017280 1 3 12000
a contact +0017280 +0017340 1 3 12000
a contact +0017580 +0017640 1 5 12000
a contact +0017640 +0017700 1 5 12000
a contact +0017700 +0017760 1 5 12000
a contact +0017760 +0017820 1 5 12000
a contact +0017764 +0017820 1 10 12000
a contact +0017820 +0017880 1 10 12000
a contact +0017880 +0017940 1 10 12000
a contact +0017940 +0018000 1 10 12000
a contact +0018000 +0018060 1 10 12000
a contact +0018060 +0018120 1 10 12000
a contact +0018082 +0018120 1 8 12000
a contact +0018120 +0018155 1 10 12000
a contact +0018120 +0018180 1 8 12000
a contact +0018180 +0018240 1 8 12000
a contact +0018240 +0018300 1 8 12000
a contact +0018300 +0018360 1 8 12000
a contact +0018360 +0018394 1 8 12000
a contact +0018540 +0018600 1 2 12000
a contact +0018600 +0018660 1 2 12000
a contact +0018660 +0018720 1 2 12000
a contact +0018720 +0018780 1 2 12000
a contact +0018981 +0019020 1 4 12000
a contact +0019020 +0019080 1 4 12000
a contact +0019080 +0019140 1 4 12000
a contact +0019140 +0019200 1 4 12000
a contact +0019200 +0019260 1 4 12000
a contact +0019200 +0019260 1 13 12000
a contact +0019260 +0019318 1 4 12000
a contact +0019260 +0019320 1 13 12000
a contact +0019320 +0019380 1 13 12000
a contact +0019380 +0019440 1 13 12000
a contact +0019380 +0019440 10 14 12000
a contact +0019440 +0019500 1 13 12000
a contact +0019440 +0019500 10 14 12000
a contact +0019500 +0019560 1 13 12000
a contact +0019500 +0019560 10 14 12000
a contact +0019500 +0019560 1 7 12000
a contact +0019560 +0019590 10 14 12000
a contact +0019560 +0019620 1 7 12000
a contact +0019620 +0019680 1 7 12000
a contact +0019680 +0019740 1 7 12000
a contact +0019740 +0019800 1 7 12000
a contact +0020040 +0020100 1 5 12000
a contact +0020100 +0020160 1 5 12000
a contact +0020160 +0020205 1 5 12000
a contact +0020410 +0020460 1 3 12000
a contact +0020460 +0020520 1 3 12000
a contact +0020520 +0020580 1 3 12000
a contact +0020580 +0020640 1 3 12000
a contact +0020640 +0020700 1 3 12000
a contact +0020640 +0020700 1 12 12000
a contact +0020700 +0020760 1 3 12000
a contact +0020700 +0020760 1 12 12000
a contact +0020760 +0020820 1 12 12000
a contact +0020820 +0020880 1 12 12000
a contact +0020820 +0020880 13 14 12000
a contact +0020880 +0020940 1 12 12000
a contact +0020880 +0020940 13 14 12000
a contact +0020940 +0021000 1 12 12000
a contact +0020940 +0021000 13 14 12000
a contact +0020940 +0021000 1 6 12000
a contact +0021000 +0021060 1 6 12000
a contact +0021060 +0021120 1 6 12000
a contact +0021120 +0021180 1 6 12000
a contact +0021180 +0021240 1 6 12000
a contact +0021540 +0021600 1 4 12000
