a contact +0000000 +0000121 1 3 1
a contact +0000000 +0000100 10 14 1
a contact +0000006 +0000406 1 12 1
a contact +0000529 +0000835 1 10 1
a contact +0000983 +0001351 1 8 1
a contact +0001158 +0001555 1 2 1
a contact +0001454 +0001840 1 11 1
a contact +0001963 +0002300 1 13 1
a contact +0002420 +0002769 1 7 1
a contact +0002589 +0002990 1 5 1
a contact +0002910 +0003272 1 10 1
a contact +0003399 +0003760 1 12 1
a contact +0003857 +0004183 1 6 1
a contact +0004022 +0004426 1 4 1
a contact +0004376 +0004701 1 13 1
a contact +0004836 +0005214 1 11 1
a contact +0005292 +0005596 1 9 1
a contact +0005456 +0005863 1 3 1
a contact +0005854 +0006123 1 12 1
a contact +0006273 +0006664 1 10 1
a contact +0006725 +0007008 1 8 1
a contact +0006893 +0007300 1 2 1
a contact +0007354 +0007530 1 11 1
a contact +0007710 +0008110 1 13 1
a contact +0008156 +0008421 1 7 1
a contact +0008333 +0008737 1 5 1
a contact +0009148 +0009553 1 12 1
a contact +0009583 +0009835 1 6 1
a contact +0009776 +0010174 1 4 1
a contact +0010585 +0010992 1 11 1
a contact +0011007 +0011253 1 9 1
a contact +0011223 +0011612 1 3 1
a contact +0012022 +0012428 1 10 1
a contact +0012427 +0012674 1 8 1
a contact +0012674 +0013049 1 2 1
a contact +0013459 +0013862 1 13 1
a contact +0013843 +0014099 1 7 1
a contact +0014130 +0014485 1 5 1
a contact +0014859 +0015019 5 14 1
a contact +0014894 +0015295 1 12 1
a contact +0015257 +0015528 1 6 1
a contact +0015591 +0015920 1 4 1
a contact +0016143 +0016353 1 2 1
a contact +0016268 +0016495 4 14 1
a contact +0016329 +0016725 1 11 1
a contact +0016669 +0016960 1 9 1
a contact +0017058 +0017353 1 3 1
a contact +0017556 +0017844 1 5 1
a contact +0017695 +0017945 3 14 1
a contact +0017764 +0018155 1 10 1
a contact +0018082 +0018394 1 8 1
a contact +0018533 +0018783 1 2 1
a contact +0018981 +0019318 1 4 1
a contact +0019133 +0019377 2 14 1
a contact +0019197 +0019585 1 13 1
a contact +0019495 +0019829 1 7 1
a contact +0020019 +0020205 1 5 1
a contact +0020410 +0020781 1 3 1
a contact +0020581 +0020792 5 14 1
a contact +0020629 +0021014 1 12 1
a contact +0020847 +0020980 8 14 1
a contact +0020911 +0021266 1 6 1
a contact +0021536 +0021602 1 4 1
a contact +0021843 +0022234 1 2 1
a contact +0022045 +0022183 4 14 1
a contact +0022060 +0022444 1 11 1
a contact +0022237 +0022446 7 14 1
a contact +0022329 +0022703 1 9 1
a contact +0023278 +0023680 1 5 1
a contact +0023491 +0023874 1 10 1
a contact +0023650 +0023894 6 14 1
a contact +0023752 +0024141 1 8 1
a contact +0024714 +0025118 1 4 1
a contact +0024920 +0025305 1 13 1
a contact +0025082 +0025332 9 14 1
a contact +0025179 +0025578 1 7 1
a contact +0025735 +0025891 1 9 1
a contact +0026151 +0026551 1 3 1
a contact +0026350 +0026737 1 12 1
a contact +0026531 +0026760 8 14 1
a contact +0026611 +0027015 1 6 1
a contact +0027152 +0027383 1 8 1
a contact +0027589 +0027979 1 2 1
a contact +0027779 +0028170 1 11 1
a contact +0028005 +0028170 7 14 1
a contact +0028049 +0028451 1 9 1
a contact +0028580 +0028862 1 7 1
a contact +0029027 +0029402 1 5 1
a contact +0029209 +0029604 1 10 1
a contact +0029494 +0029886 1 8 1
a contact +0030012 +0030331 1 6 1
a contact +0030464 +0030821 1 4 1
a contact +0030640 +0031039 1 13 1
a contact +0030947 +0031319 1 7 1
a contact +0031447 +0031794 1 9 1
a contact +0031901 +0032237 1 3 1
a contact +0032071 +0032474 1 12 1
a contact +0032408 +0032749 1 6 1
a contact +0032882 +0033251 1 8 1
a contact +0033337 +0033650 1 2 1
a contact +0033505 +0033911 1 11 1
a contact +0033881 +0034174 1 9 1
a contact +0034319 +0034703 1 7 1
a contact +0034772 +0035062 1 5 1
a contact +0034941 +0035347 1 10 1
a contact +0035370 +0035589 1 8 1
a contact +0035756 +0036151 1 6 1
a contact +0036204 +0036474 1 4 1
a contact +0036379 +0036785 1 13 1
a contact +0036911 +0036957 1 7 1
a contact +0037193 +0037596 1 9 1
a contact +0037633 +0037888 1 3 1
a contact +0037821 +0038222 1 12 1
a contact +0038631 +0039036 1 8 1
a contact +0039059 +0039303 1 2 1
a contact +0039266 +0039660 1 11 1
a contact +0040068 +0040474 1 7 1
a contact +0040481 +0040723 1 5 1
a contact +0040714 +0041097 1 10 1
a contact +0041504 +0041910 1 6 1
a contact +0041899 +0042146 1 4 1
a contact +0042168 +0042534 1 13 1
a contact +0042935 +0043030 13 14 1
a contact +0042940 +0043200 1 9 1
