a contact +0000000 +0000079 1 26 12500
a contact +0000000 +0000227 16 34 12500
a contact +0000003 +0000228 9 29 12500
a contact +0000104 +0000342 23 35 12500
a contact +0000104 +0000342 35 23 12500
a contact +0000104 +0000342 37 25 12500
a contact +0000104 +0000342 25 37 12500
a contact +0000104 +0000321 13 26 12500
a contact +0000238 +0000422 4 26 12500
a contact +0000280 +0000499 11 29 12500
a contact +0000281 +0000522 6 28 12500
a contact +0000333 +0000504 20 34 12500
a contact +0000338 +0000562 5 27 12500
a contact +0000458 +0000696 36 33 12500
a contact +0000458 +0000696 33 36 12500
a contact +0000458 +0000696 38 31 12500
a contact +0000458 +0000696 31 38 12500
a contact +0000529 +0000758 17 29 12500
a contact +0000618 +0000863 10 37 12500
a contact +0000653 +0000883 19 28 12500
a contact +0000666 +0000832 16 24 12500
a contact +0000799 +0000999 7 28 12500
a contact +0000813 +0001051 29 32 12500
a contact +0000813 +0001051 32 29 12500
a contact +0000813 +0001051 34 27 12500
a contact +0000813 +0001051 27 34 12500
a contact +0000845 +0001065 14 37 12500
a contact +0000856 +0001003 22 37 12500
a contact +0000988 +0001233 8 28 12500
a contact +0001048 +0001276 6 37 12500
a contact +0001168 +0001405 23 30 12500
a contact +0001168 +0001405 30 23 12500
a contact +0001168 +0001405 25 28 12500
a contact +0001168 +0001405 28 25 12500
a contact +0001236 +0001413 3 26 12500
a contact +0001325 +0001570 1 25 12500
a contact +0001474 +0001691 16 33 12500
a contact +0001502 +0001701 9 28 12500
a contact +0001522 +0001759 36 24 12500
a contact +0001522 +0001759 26 38 12500
a contact +0001522 +0001759 38 26 12500
a contact +0001522 +0001759 24 36 12500
a contact +0001655 +0001854 21 31 12500
a contact +0001766 +0001986 11 28 12500
a contact +0001773 +0002017 20 33 12500
a contact +0001811 +0001946 6 27 12500
a contact +0001819 +0002036 5 30 12500
a contact +0001863 +0002025 14 27 12500
a contact +0001876 +0002114 37 34 12500
a contact +0001876 +0002114 32 35 12500
a contact +0001876 +0002114 35 32 12500
a contact +0001876 +0002114 34 37 12500
a contact +0001929 +0002057 22 27 12500
a contact +0001998 +0002046 33 39 12500
a contact +0002017 +0002223 17 28 12500
a contact +0002111 +0002324 10 36 12500
a contact +0002206 +0002293 19 27 12500
a contact +0002231 +0002469 33 30 12500
a contact +0002231 +0002469 31 28 12500
a contact +0002231 +0002469 30 33 12500
a contact +0002231 +0002469 28 31 12500
a contact +0002253 +0002499 7 27 12500
a contact +0002481 +0002702 8 27 12500
a contact +0002586 +0002823 29 26 12500
a contact +0002586 +0002823 26 29 12500
a contact +0002586 +0002823 24 27 12500
a contact +0002586 +0002823 27 24 12500
a contact +0002818 +0003032 1 24 12500
a contact +0002829 +0003035 12 36 12500
a contact +0002940 +0003177 25 37 12500
a contact +0002940 +0003177 37 25 12500
a contact +0002940 +0003177 35 23 12500
a contact +0002940 +0003177 23 35 12500
a contact +0003003 +0003176 9 27 12500
a contact +0003108 +0003354 21 34 12500
a contact +0003248 +0003475 11 27 12500
a contact +0003262 +0003486 20 32 12500
a contact +0003294 +0003532 33 36 12500
a contact +0003294 +0003532 36 33 12500
a contact +0003294 +0003532 31 38 12500
a contact +0003294 +0003532 38 31 12500
a contact +0003298 +0003543 14 30 12500
a contact +0003302 +0003505 5 29 12500
a contact +0003349 +0003589 22 30 12500
a contact +0003388 +0003605 32 39 12500
a contact +0003457 +0003520 2 29 12500
a contact +0003517 +0003672 17 27 12500
a contact +0003649 +0003887 29 32 12500
a contact +0003649 +0003887 32 29 12500
a contact +0003649 +0003887 34 27 12500
a contact +0003649 +0003887 27 34 12500
a contact +0003747 +0003965 7 30 12500
a contact +0004004 +0004241 25 28 12500
a contact +0004004 +0004241 23 30 12500
a contact +0004004 +0004241 28 25 12500
a contact +0004004 +0004241 30 23 12500
a contact +0004011 +0004143 8 30 12500
a contact +0004103 +0004259 8 23 12500
a contact +0004286 +0004532 12 35 12500
a contact +0004358 +0004595 24 36 12500
a contact +0004358 +0004595 26 38 12500
a contact +0004358 +0004595 36 24 12500
a contact +0004358 +0004595 38 26 12500
a contact +0004370 +0004428 1 23 12500
a contact +0004504 +0004654 9 30 12500
a contact +0004611 +0004809 21 33 12500
a contact +0004712 +0004950 34 37 12500
a contact +0004712 +0004950 32 35 12500
a contact +0004712 +0004950 37 34 12500
a contact +0004712 +0004950 35 32 12500
a contact +0004728 +0004965 11 30 12500
a contact +0004790 +0004966 5 28 12500
a contact +0004792 +0005005 14 29 12500
a contact +0004819 +0004894 20 31 12500
a contact +0004833 +0005061 22 29 12500
a contact +0004851 +0005097 31 39 12500
a contact +0004899 +0005058 2 28 12500
a contact +0005033 +0005215 18 29 12500
a contact +0005067 +0005305 31 28 12500
a contact +0005067 +0005305 30 33 12500
a contact +0005067 +0005305 33 30 12500
a contact +0005067 +0005305 28 31 12500
a contact +0005300 +0005380 7 29 12500
a contact +0005422 +0005659 24 27 12500
a contact +0005422 +0005659 27 24 12500
a contact +0005422 +0005659 26 29 12500
a contact +0005422 +0005659 29 26 12500
a contact +0005551 +0005780 8 26 12500
a contact +0005776 +0006013 35 23 12500
a contact +0005776 +0006013 37 25 12500
a contact +0005776 +0006013 23 35 12500
a contact +0005776 +0006013 25 37 12500
a contact +0005788 +0005991 12 38 12500
a contact +0005999 +0006140 9 29 12500
a contact +0006093 +0006127 4 32 12500
a contact +0006130 +0006368 31 38 12500
a contact +0006130 +0006368 36 33 12500
a contact +0006130 +0006368 38 31 12500
a contact +0006130 +0006368 33 36 12500
a contact +0006208 +0006451 11 29 12500
a contact +0006275 +0006449 10 28 12500
a contact +0006291 +0006411 5 27 12500
a contact +0006346 +0006564 34 39 12500
a contact +0006360 +0006571 2 27 12500
a contact +0006407 +0006447 22 28 12500
a contact +0006434 +0006601 2 34 12500
a contact +0006478 +0006722 18 28 12500
a contact +0006485 +0006723 34 27 12500
a contact +0006485 +0006723 32 29 12500
a contact +0006485 +0006723 27 34 12500
a contact +0006485 +0006723 29 32 12500
a contact +0006698 +0006811 17 32 12500
a contact +0006840 +0007077 28 25 12500
a contact +0006840 +0007077 23 30 12500
a contact +0006840 +0007077 30 23 12500
a contact +0006840 +0007077 25 28 12500
a contact +0007024 +0007268 8 25 12500
a contact +0007194 +0007431 38 26 12500
a contact +0007194 +0007431 36 24 12500
a contact +0007194 +0007431 24 36 12500
a contact +0007194 +0007431 26 38 12500
a contact +0007473 +0007697 4 31 12500
a contact +0007485 +0007634 9 28 12500
a contact +0007548 +0007786 35 32 12500
a contact +0007548 +0007786 32 35 12500
a contact +0007548 +0007786 37 34 12500
a contact +0007548 +0007786 34 37 12500
a contact +0007689 +0007932 11 28 12500
a contact +0007716 +0007960 10 27 12500
a contact +0007830 +0008069 2 30 12500
a contact +0007878 +0008108 2 33 12500
a contact +0007884 +0007996 33 39 12500
a contact +0007903 +0008141 28 31 12500
a contact +0007903 +0008141 30 33 12500
a contact +0007903 +0008141 31 28 12500
a contact +0007903 +0008141 33 30 12500
a contact +0007951 +0007969 15 38 12500
a contact +0007967 +0008192 18 27 12500
a contact +0008134 +0008321 17 31 12500
a contact +0008258 +0008495 24 27 12500
a contact +0008258 +0008495 29 26 12500
a contact +0008258 +0008495 26 29 12500
a contact +0008258 +0008495 27 24 12500
a contact +0008521 +0008725 8 24 12500
a contact +0008612 +0008849 23 35 12500
a contact +0008612 +0008849 25 37 12500
a contact +0008612 +0008849 37 25 12500
a contact +0008612 +0008849 35 23 12500
a contact +0008941 +0009185 4 34 12500
a contact +0008961 +0009161 3 37 12500
a contact +0008964 +0009135 9 27 12500
a contact +0008966 +0009204 36 33 12500
a contact +0008966 +0009204 38 31 12500
a contact +0008966 +0009204 31 38 12500
a contact +0008966 +0009204 33 36 12500
a contact +0008990 +0009123 13 34 12500
a contact +0009174 +0009404 11 27 12500
a contact +0009209 +0009425 10 30 12500
a contact +0009308 +0009552 2 29 12500
a contact +0009321 +0009559 27 34 12500
a contact +0009321 +0009559 34 27 12500
a contact +0009321 +0009559 32 29 12500
a contact +0009321 +0009559 29 32 12500
a contact +0009325 +0009554 15 37 12500
a contact +0009349 +0009595 2 32 12500
a contact +0009467 +0009655 29 39 12500
a contact +0009508 +0009617 18 30 12500
a contact +0009593 +0009813 17 34 12500
a contact +0009675 +0009913 23 30 12500
a contact +0009675 +0009913 28 25 12500
a contact +0009675 +0009913 25 28 12500
a contact +0009675 +0009913 30 23 12500
a contact +0009942 +0010121 7 23 12500
a contact +0010029 +0010267 24 36 12500
a contact +0010029 +0010267 36 24 12500
a contact +0010029 +0010267 26 38 12500
a contact +0010029 +0010267 38 26 12500
a contact +0010384 +0010622 32 35 12500
a contact +0010384 +0010622 34 37 12500
a contact +0010384 +0010622 37 34 12500
a contact +0010384 +0010622 35 32 12500
a contact +0010415 +0010649 13 33 12500
a contact +0010419 +0010664 3 36 12500
a contact +0010439 +0010636 9 30 12500
a contact +0010451 +0010636 4 33 12500
a contact +0010670 +0010861 11 30 12500
a contact +0010739 +0010977 31 28 12500
a contact +0010739 +0010977 30 33 12500
a contact +0010739 +0010977 28 31 12500
a contact +0010739 +0010977 33 30 12500
a contact +0010798 +0011036 15 36 12500
a contact +0010800 +0011015 2 28 12500
a contact +0010838 +0011070 2 31 12500
a contact +0010845 +0010990 11 33 12500
a contact +0010923 +0011164 28 39 12500
a contact +0011063 +0011299 17 33 12500
a contact +0011093 +0011331 24 27 12500
a contact +0011093 +0011331 27 24 12500
a contact +0011093 +0011331 29 26 12500
a contact +0011093 +0011331 26 29 12500
a contact +0011393 +0011635 7 26 12500
a contact +0011447 +0011685 25 37 12500
a contact +0011447 +0011685 23 35 12500
a contact +0011447 +0011685 35 23 12500
a contact +0011447 +0011685 37 25 12500
a contact +0011731 +0011942 15 30 12500
a contact +0011802 +0012040 38 31 12500
a contact +0011802 +0012040 33 36 12500
a contact +0011802 +0012040 36 33 12500
a contact +0011802 +0012040 31 38 12500
a contact +0011890 +0012131 13 32 12500
a contact +0011913 +0012135 9 29 12500
a contact +0011913 +0012125 3 35 12500
a contact +0012157 +0012395 29 32 12500
a contact +0012157 +0012395 34 27 12500
a contact +0012157 +0012395 32 29 12500
a contact +0012157 +0012395 27 34 12500
a contact +0012198 +0012279 11 29 12500
a contact +0012287 +0012498 11 32 12500
a contact +0012325 +0012438 2 27 12500
a contact +0012338 +0012450 15 35 12500
a contact +0012342 +0012538 2 34 12500
a contact +0012404 +0012641 27 39 12500
a contact +0012485 +0012510 5 34 12500
a contact +0012511 +0012749 28 25 12500
a contact +0012511 +0012749 23 30 12500
a contact +0012511 +0012749 30 23 12500
a contact +0012511 +0012749 25 28 12500
a contact +0012539 +0012781 17 32 12500
a contact +0012547 +0012727 20 27 12500
a contact +0012865 +0013103 38 26 12500
a contact +0012865 +0013103 26 38 12500
a contact +0012865 +0013103 24 36 12500
a contact +0012865 +0013103 36 24 12500
a contact +0012876 +0013108 7 25 12500
a contact +0013025 +0013225 19 25 12500
a contact +0013191 +0013436 15 29 12500
a contact +0013220 +0013458 34 37 12500
a contact +0013220 +0013458 32 35 12500
a contact +0013220 +0013458 35 32 12500
a contact +0013220 +0013458 37 34 12500
a contact +0013388 +0013628 9 28 12500
a contact +0013402 +0013583 13 31 12500
a contact +0013575 +0013813 33 30 12500
a contact +0013575 +0013813 28 31 12500
a contact +0013575 +0013813 31 28 12500
a contact +0013575 +0013813 30 33 12500
a contact +0013607 +0013698 12 34 12500
a contact +0013751 +0013988 11 31 12500
a contact +0013861 +0013995 2 33 12500
a contact +0013896 +0014043 5 33 12500
a contact +0013920 +0014076 30 39 12500
a contact +0013929 +0014167 27 24 12500
a contact +0013929 +0014167 29 26 12500
a contact +0013929 +0014167 24 27 12500
a contact +0013929 +0014167 26 29 12500
a contact +0013996 +0014240 20 30 12500
a contact +0014018 +0014263 17 31 12500
a contact +0014230 +0014322 18 24 12500
a contact +0014283 +0014521 25 37 12500
a contact +0014283 +0014521 37 25 12500
a contact +0014283 +0014521 23 35 12500
a contact +0014283 +0014521 35 23 12500
a contact +0014409 +0014526 7 24 12500
a contact +0014481 +0014728 19 24 12500
a contact +0014638 +0014876 38 31 12500
a contact +0014638 +0014876 36 33 12500
a contact +0014638 +0014876 33 36 12500
a contact +0014638 +0014876 31 38 12500
a contact +0014709 +0014875 15 28 12500
a contact +0014780 +0014927 1 34 12500
a contact +0014867 +0015112 9 27 12500
a contact +0014993 +0015231 29 32 12500
a contact +0014993 +0015231 32 29 12500
a contact +0014993 +0015231 34 27 12500
a contact +0014993 +0015231 27 34 12500
a contact +0015022 +0015248 12 33 12500
a contact +0015027 +0015167 9 34 12500
a contact +0015227 +0015472 11 34 12500
a contact +0015347 +0015585 25 28 12500
a contact +0015347 +0015585 23 30 12500
a contact +0015347 +0015585 30 23 12500
a contact +0015347 +0015585 28 25 12500
a contact +0015349 +0015537 5 32 12500
a contact +0015484 +0015706 20 29 12500
a contact +0015488 +0015645 21 27 12500
a contact +0015499 +0015744 17 34 12500
a contact +0015649 +0015870 18 23 12500
a contact +0015701 +0015939 36 24 12500
a contact +0015701 +0015939 26 38 12500
a contact +0015701 +0015939 38 26 12500
a contact +0015701 +0015939 24 36 12500
a contact +0015984 +0016179 19 23 12500
a contact +0016056 +0016294 34 37 12500
a contact +0016056 +0016294 35 32 12500
a contact +0016056 +0016294 37 34 12500
a contact +0016056 +0016294 32 35 12500
a contact +0016213 +0016445 1 33 12500
a contact +0016354 +0016582 9 30 12500
a contact +0016411 +0016649 30 33 12500
a contact +0016411 +0016649 33 30 12500
a contact +0016411 +0016649 28 31 12500
a contact +0016411 +0016649 31 28 12500
a contact +0016463 +0016679 9 33 12500
a contact +0016493 +0016736 12 32 12500
a contact +0016711 +0016952 11 33 12500
a contact +0016765 +0017003 27 24 12500
a contact +0016765 +0017003 29 26 12500
a contact +0016765 +0017003 26 29 12500
a contact +0016765 +0017003 24 27 12500
a contact +0016814 +0017023 5 31 12500
a contact +0016926 +0017168 21 30 12500
a contact +0016981 +0017225 17 33 12500
a contact +0017117 +0017362 18 26 12500
a contact +0017119 +0017357 23 35 12500
a contact +0017119 +0017357 35 23 12500
a contact +0017119 +0017357 37 25 12500
a contact +0017119 +0017357 25 37 12500
a contact +0017474 +0017712 36 33 12500
a contact +0017474 +0017712 38 31 12500
a contact +0017474 +0017712 33 36 12500
a contact +0017474 +0017712 31 38 12500
a contact +0017685 +0017929 1 32 12500
a contact +0017829 +0018067 32 29 12500
a contact +0017829 +0018067 29 32 12500
a contact +0017829 +0018067 34 27 12500
a contact +0017829 +0018067 27 34 12500
a contact +0017856 +0018031 9 29 12500
a contact +0017928 +0018170 9 32 12500
a contact +0018006 +0018174 12 31 12500
a contact +0018059 +0018246 13 29 12500
a contact +0018171 +0018375 4 29 12500
a contact +0018183 +0018421 30 23 12500
a contact +0018183 +0018421 23 30 12500
a contact +0018183 +0018421 25 28 12500
a contact +0018183 +0018421 28 25 12500
a contact +0018199 +0018432 11 32 12500
a contact +0018285 +0018505 5 34 12500
a contact +0018412 +0018637 21 29 12500
a contact +0018462 +0018706 17 32 12500
a contact +0018537 +0018775 24 36 12500
a contact +0018537 +0018775 26 38 12500
a contact +0018537 +0018775 38 26 12500
a contact +0018537 +0018775 36 24 12500
a contact +0018603 +0018784 16 27 12500
a contact +0018620 +0018811 18 25 12500
a contact +0018701 +0018727 19 31 12500
a contact +0018776 +0018976 22 25 12500
a contact +0018861 +0018940 14 25 12500
a contact +0018891 +0019129 32 35 12500
a contact +0018891 +0019129 34 37 12500
a contact +0018891 +0019129 37 34 12500
a contact +0018891 +0019129 35 32 12500
a contact +0019160 +0019372 3 29 12500
a contact +0019187 +0019393 1 31 12500
a contact +0019247 +0019485 31 28 12500
a contact +0019247 +0019485 33 30 12500
a contact +0019247 +0019485 30 33 12500
a contact +0019247 +0019485 28 31 12500
a contact +0019323 +0019435 1 28 12500
a contact +0019408 +0019651 9 31 12500
a contact +0019494 +0019565 16 36 12500
a contact +0019513 +0019756 13 28 12500
a contact +0019601 +0019839 24 27 12500
a contact +0019601 +0019839 27 24 12500
a contact +0019601 +0019839 29 26 12500
a contact +0019601 +0019839 26 29 12500
a contact +0019630 +0019876 4 28 12500
a contact +0019688 +0019913 11 31 12500
a contact +0019723 +0019923 6 34 12500
a contact +0019760 +0019984 5 33 12500
a contact +0019944 +0020184 17 31 12500
a contact +0019955 +0020193 37 25 12500
a contact +0019955 +0020193 25 37 12500
a contact +0019955 +0020193 35 23 12500
a contact +0019955 +0020193 23 35 12500
a contact +0020049 +0020295 16 30 12500
a contact +0020076 +0020303 19 34 12500
a contact +0020090 +0020233 10 24 12500
a contact +0020232 +0020478 22 24 12500
a contact +0020264 +0020496 14 24 12500
a contact +0020309 +0020547 31 38 12500
a contact +0020309 +0020547 36 33 12500
a contact +0020309 +0020547 33 36 12500
a contact +0020309 +0020547 38 31 12500
a contact +0020433 +0020632 8 34 12500
a contact +0020474 +0020698 6 24 12500
a contact +0020620 +0020866 3 28 12500
a contact +0020664 +0020902 34 27 12500
a contact +0020664 +0020902 32 29 12500
a contact +0020664 +0020902 29 32 12500
a contact +0020664 +0020902 27 34 12500
a contact +0020730 +0020823 1 34 12500
a contact +0020759 +0020971 1 27 12500
a contact +0020890 +0021124 16 35 12500
a contact +0020897 +0021128 9 34 12500
a contact +0020997 +0021228 13 27 12500
a contact +0021019 +0021257 30 23 12500
a contact +0021019 +0021257 23 30 12500
a contact +0021019 +0021257 28 25 12500
a contact +0021019 +0021257 25 28 12500
a contact +0021126 +0021335 4 27 12500
a contact +0021177 +0021424 6 33 12500
a contact +0021177 +0021397 11 34 12500
a contact +0021238 +0021461 5 32 12500
a contact +0021260 +0021381 20 35 12500
a contact +0021373 +0021600 26 38 12500
a contact +0021373 +0021600 38 26 12500
a contact +0021373 +0021600 24 36 12500
a contact +0021373 +0021600 36 24 12500
a contact +0021427 +0021600 17 34 12500
a contact +0021523 +0021600 10 23 12500
a contact +0021547 +0021600 19 33 12500
a contact +0021550 +0021600 16 29 12500
