<?xml version="1.0" encoding="utf-8" standalone="no"?>
<!DOCTYPE svg PUBLIC "-//W3C//DTD SVG 1.1//EN"
  "http://www.w3.org/Graphics/SVG/1.1/DTD/svg11.dtd">
<!-- Created with matplotlib (https://matplotlib.org/) -->
<svg height="345.6pt" version="1.1" viewBox="0 0 460.8 345.6" width="460.8pt" xmlns="http://www.w3.org/2000/svg" xmlns:xlink="http://www.w3.org/1999/xlink">
 <defs>
  <style type="text/css">
*{stroke-linecap:butt;stroke-linejoin:round;}
  </style>
 </defs>
 <g id="figure_1">
  <g id="patch_1">
   <path d="M 0 345.6 
L 460.8 345.6 
L 460.8 0 
L 0 0 
z
" style="fill:#ffffff;"/>
  </g>
  <g id="axes_1">
   <g id="patch_2">
    <path d="M 57.6 307.584 
L 414.72 307.584 
L 414.72 41.472 
L 57.6 41.472 
z
" style="fill:#ffffff;"/>
   </g>
   <g id="matplotlib.axis_1">
    <g id="xtick_1">
     <g id="line2d_1">
      <path clip-path="url(#p0a2f316529)" d="M 73.832727 307.584 
L 73.832727 41.472 
" style="fill:none;stroke:#808080;stroke-dasharray:2.96,1.28;stroke-dashoffset:0;stroke-width:0.8;"/>
     </g>
     <g id="line2d_2">
      <defs>
       <path d="M 0 0 
L 0 3.5 
" id="m9e504702df" style="stroke:#000000;stroke-width:0.8;"/>
      </defs>
      <g>
       <use style="stroke:#000000;stroke-width:0.8;" x="73.832727" xlink:href="#m9e504702df" y="307.584"/>
      </g>
     </g>
     <g id="text_1">
      <!-- 0.0 -->
      <defs>
       <path d="M 31.78125 66.40625 
Q 24.171875 66.40625 20.328125 58.90625 
Q 16.5 51.421875 16.5 36.375 
Q 16.5 21.390625 20.328125 13.890625 
Q 24.171875 6.390625 31.78125 6.390625 
Q 39.453125 6.390625 43.28125 13.890625 
Q 47.125 21.390625 47.125 36.375 
Q 47.125 51.421875 43.28125 58.90625 
Q 39.453125 66.40625 31.78125 66.40625 
z
M 31.78125 74.21875 
Q 44.046875 74.21875 50.515625 64.515625 
Q 56.984375 54.828125 56.984375 36.375 
Q 56.984375 17.96875 50.515625 8.265625 
Q 44.046875 -1.421875 31.78125 -1.421875 
Q 19.53125 -1.421875 13.0625 8.265625 
Q 6.59375 17.96875 6.59375 36.375 
Q 6.59375 54.828125 13.0625 64.515625 
Q 19.53125 74.21875 31.78125 74.21875 
z
" id="DejaVuSans-48"/>
       <path d="M 10.6875 12.40625 
L 21 12.40625 
L 21 0 
L 10.6875 0 
z
" id="DejaVuSans-46"/>
      </defs>
      <g transform="translate(65.881165 322.182437)scale(0.1 -0.1)">
       <use xlink:href="#DejaVuSans-48"/>
       <use x="63.623047" xlink:href="#DejaVuSans-46"/>
       <use x="95.410156" xlink:href="#DejaVuSans-48"/>
      </g>
     </g>
    </g>
    <g id="xtick_2">
     <g id="line2d_3">
      <path clip-path="url(#p0a2f316529)" d="M 138.763636 307.584 
L 138.763636 41.472 
" style="fill:none;stroke:#808080;stroke-dasharray:2.96,1.28;stroke-dashoffset:0;stroke-width:0.8;"/>
     </g>
     <g id="line2d_4">
      <g>
       <use style="stroke:#000000;stroke-width:0.8;" x="138.763636" xlink:href="#m9e504702df" y="307.584"/>
      </g>
     </g>
     <g id="text_2">
      <!-- 0.2 -->
      <defs>
       <path d="M 19.1875 8.296875 
L 53.609375 8.296875 
L 53.609375 0 
L 7.328125 0 
L 7.328125 8.296875 
Q 12.9375 14.109375 22.625 23.890625 
Q 32.328125 33.6875 34.8125 36.53125 
Q 39.546875 41.84375 41.421875 45.53125 
Q 43.3125 49.21875 43.3125 52.78125 
Q 43.3125 58.59375 39.234375 62.25 
Q 35.15625 65.921875 28.609375 65.921875 
Q 23.96875 65.921875 18.8125 64.3125 
Q 13.671875 62.703125 7.8125 59.421875 
L 7.8125 69.390625 
Q 13.765625 71.78125 18.9375 73 
Q 24.125 74.21875 28.421875 74.21875 
Q 39.75 74.21875 46.484375 68.546875 
Q 53.21875 62.890625 53.21875 53.421875 
Q 53.21875 48.921875 51.53125 44.890625 
Q 49.859375 40.875 45.40625 35.40625 
Q 44.1875 33.984375 37.640625 27.21875 
Q 31.109375 20.453125 19.1875 8.296875 
z
" id="DejaVuSans-50"/>
      </defs>
      <g transform="translate(130.812074 322.182437)scale(0.1 -0.1)">
       <use xlink:href="#DejaVuSans-48"/>
       <use x="63.623047" xlink:href="#DejaVuSans-46"/>
       <use x="95.410156" xlink:href="#DejaVuSans-50"/>
      </g>
     </g>
    </g>
    <g id="xtick_3">
     <g id="line2d_5">
      <path clip-path="url(#p0a2f316529)" d="M 203.694545 307.584 
L 203.694545 41.472 
" style="fill:none;stroke:#808080;stroke-dasharray:2.96,1.28;stroke-dashoffset:0;stroke-width:0.8;"/>
     </g>
     <g id="line2d_6">
      <g>
       <use style="stroke:#000000;stroke-width:0.8;" x="203.694545" xlink:href="#m9e504702df" y="307.584"/>
      </g>
     </g>
     <g id="text_3">
      <!-- 0.4 -->
      <defs>
       <path d="M 37.796875 64.3125 
L 12.890625 25.390625 
L 37.796875 25.390625 
z
M 35.203125 72.90625 
L 47.609375 72.90625 
L 47.609375 25.390625 
L 58.015625 25.390625 
L 58.015625 17.1875 
L 47.609375 17.1875 
L 47.609375 0 
L 37.796875 0 
L 37.796875 17.1875 
L 4.890625 17.1875 
L 4.890625 26.703125 
z
" id="DejaVuSans-52"/>
      </defs>
      <g transform="translate(195.742983 322.182437)scale(0.1 -0.1)">
       <use xlink:href="#DejaVuSans-48"/>
       <use x="63.623047" xlink:href="#DejaVuSans-46"/>
       <use x="95.410156" xlink:href="#DejaVuSans-52"/>
      </g>
     </g>
    </g>
    <g id="xtick_4">
     <g id="line2d_7">
      <path clip-path="url(#p0a2f316529)" d="M 268.625455 307.584 
L 268.625455 41.472 
" style="fill:none;stroke:#808080;stroke-dasharray:2.96,1.28;stroke-dashoffset:0;stroke-width:0.8;"/>
     </g>
     <g id="line2d_8">
      <g>
       <use style="stroke:#000000;stroke-width:0.8;" x="268.625455" xlink:href="#m9e504702df" y="307.584"/>
      </g>
     </g>
     <g id="text_4">
      <!-- 0.6 -->
      <defs>
       <path d="M 33.015625 40.375 
Q 26.375 40.375 22.484375 35.828125 
Q 18.609375 31.296875 18.609375 23.390625 
Q 18.609375 15.53125 22.484375 10.953125 
Q 26.375 6.390625 33.015625 6.390625 
Q 39.65625 6.390625 43.53125 10.953125 
Q 47.40625 15.53125 47.40625 23.390625 
Q 47.40625 31.296875 43.53125 35.828125 
Q 39.65625 40.375 33.015625 40.375 
z
M 52.59375 71.296875 
L 52.59375 62.3125 
Q 48.875 64.0625 45.09375 64.984375 
Q 41.3125 65.921875 37.59375 65.921875 
Q 27.828125 65.921875 22.671875 59.328125 
Q 17.53125 52.734375 16.796875 39.40625 
Q 19.671875 43.65625 24.015625 45.921875 
Q 28.375 48.1875 33.59375 48.1875 
Q 44.578125 48.1875 50.953125 41.515625 
Q 57.328125 34.859375 57.328125 23.390625 
Q 57.328125 12.15625 50.6875 5.359375 
Q 44.046875 -1.421875 33.015625 -1.421875 
Q 20.359375 -1.421875 13.671875 8.265625 
Q 6.984375 17.96875 6.984375 36.375 
Q 6.984375 53.65625 15.1875 63.9375 
Q 23.390625 74.21875 37.203125 74.21875 
Q 40.921875 74.21875 44.703125 73.484375 
Q 48.484375 72.75 52.59375 71.296875 
z
" id="DejaVuSans-54"/>
      </defs>
      <g transform="translate(260.673892 322.182437)scale(0.1 -0.1)">
       <use xlink:href="#DejaVuSans-48"/>
       <use x="63.623047" xlink:href="#DejaVuSans-46"/>
       <use x="95.410156" xlink:href="#DejaVuSans-54"/>
      </g>
     </g>
    </g>
    <g id="xtick_5">
     <g id="line2d_9">
      <path clip-path="url(#p0a2f316529)" d="M 333.556364 307.584 
L 333.556364 41.472 
" style="fill:none;stroke:#808080;stroke-dasharray:2.96,1.28;stroke-dashoffset:0;stroke-width:0.8;"/>
     </g>
     <g id="line2d_10">
      <g>
       <use style="stroke:#000000;stroke-width:0.8;" x="333.556364" xlink:href="#m9e504702df" y="307.584"/>
      </g>
     </g>
     <g id="text_5">
      <!-- 0.8 -->
      <defs>
       <path d="M 31.78125 34.625 
Q 24.75 34.625 20.71875 30.859375 
Q 16.703125 27.09375 16.703125 20.515625 
Q 16.703125 13.921875 20.71875 10.15625 
Q 24.75 6.390625 31.78125 6.390625 
Q 38.8125 6.390625 42.859375 10.171875 
Q 46.921875 13.96875 46.921875 20.515625 
Q 46.921875 27.09375 42.890625 30.859375 
Q 38.875 34.625 31.78125 34.625 
z
M 21.921875 38.8125 
Q 15.578125 40.375 12.03125 44.71875 
Q 8.5 49.078125 8.5 55.328125 
Q 8.5 64.0625 14.71875 69.140625 
Q 20.953125 74.21875 31.78125 74.21875 
Q 42.671875 74.21875 48.875 69.140625 
Q 55.078125 64.0625 55.078125 55.328125 
Q 55.078125 49.078125 51.53125 44.71875 
Q 48 40.375 41.703125 38.8125 
Q 48.828125 37.15625 52.796875 32.3125 
Q 56.78125 27.484375 56.78125 20.515625 
Q 56.78125 9.90625 50.3125 4.234375 
Q 43.84375 -1.421875 31.78125 -1.421875 
Q 19.734375 -1.421875 13.25 4.234375 
Q 6.78125 9.90625 6.78125 20.515625 
Q 6.78125 27.484375 10.78125 32.3125 
Q 14.796875 37.15625 21.921875 38.8125 
z
M 18.3125 54.390625 
Q 18.3125 48.734375 21.84375 45.5625 
Q 25.390625 42.390625 31.78125 42.390625 
Q 38.140625 42.390625 41.71875 45.5625 
Q 45.3125 48.734375 45.3125 54.390625 
Q 45.3125 60.0625 41.71875 63.234375 
Q 38.140625 66.40625 31.78125 66.40625 
Q 25.390625 66.40625 21.84375 63.234375 
Q 18.3125 60.0625 18.3125 54.390625 
z
" id="DejaVuSans-56"/>
      </defs>
      <g transform="translate(325.604801 322.182437)scale(0.1 -0.1)">
       <use xlink:href="#DejaVuSans-48"/>
       <use x="63.623047" xlink:href="#DejaVuSans-46"/>
       <use x="95.410156" xlink:href="#DejaVuSans-56"/>
      </g>
     </g>
    </g>
    <g id="xtick_6">
     <g id="line2d_11">
      <path clip-path="url(#p0a2f316529)" d="M 398.487273 307.584 
L 398.487273 41.472 
" style="fill:none;stroke:#808080;stroke-dasharray:2.96,1.28;stroke-dashoffset:0;stroke-width:0.8;"/>
     </g>
     <g id="line2d_12">
      <g>
       <use style="stroke:#000000;stroke-width:0.8;" x="398.487273" xlink:href="#m9e504702df" y="307.584"/>
      </g>
     </g>
     <g id="text_6">
      <!-- 1.0 -->
      <defs>
       <path d="M 12.40625 8.296875 
L 28.515625 8.296875 
L 28.515625 63.921875 
L 10.984375 60.40625 
L 10.984375 69.390625 
L 28.421875 72.90625 
L 38.28125 72.90625 
L 38.28125 8.296875 
L 54.390625 8.296875 
L 54.390625 0 
L 12.40625 0 
z
" id="DejaVuSans-49"/>
      </defs>
      <g transform="translate(390.53571 322.182437)scale(0.1 -0.1)">
       <use xlink:href="#DejaVuSans-49"/>
       <use x="63.623047" xlink:href="#DejaVuSans-46"/>
       <use x="95.410156" xlink:href="#DejaVuSans-48"/>
      </g>
     </g>
    </g>
    <g id="text_7">
     <!-- Probability of contact failure -->
     <defs>
      <path d="M 19.671875 64.796875 
L 19.671875 37.40625 
L 32.078125 37.40625 
Q 38.96875 37.40625 42.71875 40.96875 
Q 46.484375 44.53125 46.484375 51.125 
Q 46.484375 57.671875 42.71875 61.234375 
Q 38.96875 64.796875 32.078125 64.796875 
z
M 9.8125 72.90625 
L 32.078125 72.90625 
Q 44.34375 72.90625 50.609375 67.359375 
Q 56.890625 61.8125 56.890625 51.125 
Q 56.890625 40.328125 50.609375 34.8125 
Q 44.34375 29.296875 32.078125 29.296875 
L 19.671875 29.296875 
L 19.671875 0 
L 9.8125 0 
z
" id="DejaVuSans-80"/>
      <path d="M 41.109375 46.296875 
Q 39.59375 47.171875 37.8125 47.578125 
Q 36.03125 48 33.890625 48 
Q 26.265625 48 22.1875 43.046875 
Q 18.109375 38.09375 18.109375 28.8125 
L 18.109375 0 
L 9.078125 0 
L 9.078125 54.6875 
L 18.109375 54.6875 
L 18.109375 46.1875 
Q 20.953125 51.171875 25.484375 53.578125 
Q 30.03125 56 36.53125 56 
Q 37.453125 56 38.578125 55.875 
Q 39.703125 55.765625 41.0625 55.515625 
z
" id="DejaVuSans-114"/>
      <path d="M 30.609375 48.390625 
Q 23.390625 48.390625 19.1875 42.75 
Q 14.984375 37.109375 14.984375 27.296875 
Q 14.984375 17.484375 19.15625 11.84375 
Q 23.34375 6.203125 30.609375 6.203125 
Q 37.796875 6.203125 41.984375 11.859375 
Q 46.1875 17.53125 46.1875 27.296875 
Q 46.1875 37.015625 41.984375 42.703125 
Q 37.796875 48.390625 30.609375 48.390625 
z
M 30.609375 56 
Q 42.328125 56 49.015625 48.375 
Q 55.71875 40.765625 55.71875 27.296875 
Q 55.71875 13.875 49.015625 6.21875 
Q 42.328125 -1.421875 30.609375 -1.421875 
Q 18.84375 -1.421875 12.171875 6.21875 
Q 5.515625 13.875 5.515625 27.296875 
Q 5.515625 40.765625 12.171875 48.375 
Q 18.84375 56 30.609375 56 
z
" id="DejaVuSans-111"/>
      <path d="M 48.6875 27.296875 
Q 48.6875 37.203125 44.609375 42.84375 
Q 40.53125 48.484375 33.40625 48.484375 
Q 26.265625 48.484375 22.1875 42.84375 
Q 18.109375 37.203125 18.109375 27.296875 
Q 18.109375 17.390625 22.1875 11.75 
Q 26.265625 6.109375 33.40625 6.109375 
Q 40.53125 6.109375 44.609375 11.75 
Q 48.6875 17.390625 48.6875 27.296875 
z
M 18.109375 46.390625 
Q 20.953125 51.265625 25.265625 53.625 
Q 29.59375 56 35.59375 56 
Q 45.5625 56 51.78125 48.09375 
Q 58.015625 40.1875 58.015625 27.296875 
Q 58.015625 14.40625 51.78125 6.484375 
Q 45.5625 -1.421875 35.59375 -1.421875 
Q 29.59375 -1.421875 25.265625 0.953125 
Q 20.953125 3.328125 18.109375 8.203125 
L 18.109375 0 
L 9.078125 0 
L 9.078125 75.984375 
L 18.109375 75.984375 
z
" id="DejaVuSans-98"/>
      <path d="M 34.28125 27.484375 
Q 23.390625 27.484375 19.1875 25 
Q 14.984375 22.515625 14.984375 16.5 
Q 14.984375 11.71875 18.140625 8.90625 
Q 21.296875 6.109375 26.703125 6.109375 
Q 34.1875 6.109375 38.703125 11.40625 
Q 43.21875 16.703125 43.21875 25.484375 
L 43.21875 27.484375 
z
M 52.203125 31.203125 
L 52.203125 0 
L 43.21875 0 
L 43.21875 8.296875 
Q 40.140625 3.328125 35.546875 0.953125 
Q 30.953125 -1.421875 24.3125 -1.421875 
Q 15.921875 -1.421875 10.953125 3.296875 
Q 6 8.015625 6 15.921875 
Q 6 25.140625 12.171875 29.828125 
Q 18.359375 34.515625 30.609375 34.515625 
L 43.21875 34.515625 
L 43.21875 35.40625 
Q 43.21875 41.609375 39.140625 45 
Q 35.0625 48.390625 27.6875 48.390625 
Q 23 48.390625 18.546875 47.265625 
Q 14.109375 46.140625 10.015625 43.890625 
L 10.015625 52.203125 
Q 14.9375 54.109375 19.578125 55.046875 
Q 24.21875 56 28.609375 56 
Q 40.484375 56 46.34375 49.84375 
Q 52.203125 43.703125 52.203125 31.203125 
z
" id="DejaVuSans-97"/>
      <path d="M 9.421875 54.6875 
L 18.40625 54.6875 
L 18.40625 0 
L 9.421875 0 
z
M 9.421875 75.984375 
L 18.40625 75.984375 
L 18.40625 64.59375 
L 9.421875 64.59375 
z
" id="DejaVuSans-105"/>
      <path d="M 9.421875 75.984375 
L 18.40625 75.984375 
L 18.40625 0 
L 9.421875 0 
z
" id="DejaVuSans-108"/>
      <path d="M 18.3125 70.21875 
L 18.3125 54.6875 
L 36.8125 54.6875 
L 36.8125 47.703125 
L 18.3125 47.703125 
L 18.3125 18.015625 
Q 18.3125 11.328125 20.140625 9.421875 
Q 21.96875 7.515625 27.59375 7.515625 
L 36.8125 7.515625 
L 36.8125 0 
L 27.59375 0 
Q 17.1875 0 13.234375 3.875 
Q 9.28125 7.765625 9.28125 18.015625 
L 9.28125 47.703125 
L 2.6875 47.703125 
L 2.6875 54.6875 
L 9.28125 54.6875 
L 9.28125 70.21875 
z
" id="DejaVuSans-116"/>
      <path d="M 32.171875 -5.078125 
Q 28.375 -14.84375 24.75 -17.8125 
Q 21.140625 -20.796875 15.09375 -20.796875 
L 7.90625 -20.796875 
L 7.90625 -13.28125 
L 13.1875 -13.28125 
Q 16.890625 -13.28125 18.9375 -11.515625 
Q 21 -9.765625 23.484375 -3.21875 
L 25.09375 0.875 
L 2.984375 54.6875 
L 12.5 54.6875 
L 29.59375 11.921875 
L 46.6875 54.6875 
L 56.203125 54.6875 
z
" id="DejaVuSans-121"/>
      <path id="DejaVuSans-32"/>
      <path d="M 37.109375 75.984375 
L 37.109375 68.5 
L 28.515625 68.5 
Q 23.6875 68.5 21.796875 66.546875 
Q 19.921875 64.59375 19.921875 59.515625 
L 19.921875 54.6875 
L 34.71875 54.6875 
L 34.71875 47.703125 
L 19.921875 47.703125 
L 19.921875 0 
L 10.890625 0 
L 10.890625 47.703125 
L 2.296875 47.703125 
L 2.296875 54.6875 
L 10.890625 54.6875 
L 10.890625 58.5 
Q 10.890625 67.625 15.140625 71.796875 
Q 19.390625 75.984375 28.609375 75.984375 
z
" id="DejaVuSans-102"/>
      <path d="M 48.78125 52.59375 
L 48.78125 44.1875 
Q 44.96875 46.296875 41.140625 47.34375 
Q 37.3125 48.390625 33.40625 48.390625 
Q 24.65625 48.390625 19.8125 42.84375 
Q 14.984375 37.3125 14.984375 27.296875 
Q 14.984375 17.28125 19.8125 11.734375 
Q 24.65625 6.203125 33.40625 6.203125 
Q 37.3125 6.203125 41.140625 7.25 
Q 44.96875 8.296875 48.78125 10.40625 
L 48.78125 2.09375 
Q 45.015625 0.34375 40.984375 -0.53125 
Q 36.96875 -1.421875 32.421875 -1.421875 
Q 20.0625 -1.421875 12.78125 6.34375 
Q 5.515625 14.109375 5.515625 27.296875 
Q 5.515625 40.671875 12.859375 48.328125 
Q 20.21875 56 33.015625 56 
Q 37.15625 56 41.109375 55.140625 
Q 45.0625 54.296875 48.78125 52.59375 
z
" id="DejaVuSans-99"/>
      <path d="M 54.890625 33.015625 
L 54.890625 0 
L 45.90625 0 
L 45.90625 32.71875 
Q 45.90625 40.484375 42.875 44.328125 
Q 39.84375 48.1875 33.796875 48.1875 
Q 26.515625 48.1875 22.3125 43.546875 
Q 18.109375 38.921875 18.109375 30.90625 
L 18.109375 0 
L 9.078125 0 
L 9.078125 54.6875 
L 18.109375 54.6875 
L 18.109375 46.1875 
Q 21.34375 51.125 25.703125 53.5625 
Q 30.078125 56 35.796875 56 
Q 45.21875 56 50.046875 50.171875 
Q 54.890625 44.34375 54.890625 33.015625 
z
" id="DejaVuSans-110"/>
      <path d="M 8.5 21.578125 
L 8.5 54.6875 
L 17.484375 54.6875 
L 17.484375 21.921875 
Q 17.484375 14.15625 20.5 10.265625 
Q 23.53125 6.390625 29.59375 6.390625 
Q 36.859375 6.390625 41.078125 11.03125 
Q 45.3125 15.671875 45.3125 23.6875 
L 45.3125 54.6875 
L 54.296875 54.6875 
L 54.296875 0 
L 45.3125 0 
L 45.3125 8.40625 
Q 42.046875 3.421875 37.71875 1 
Q 33.40625 -1.421875 27.6875 -1.421875 
Q 18.265625 -1.421875 13.375 4.4375 
Q 8.5 10.296875 8.5 21.578125 
z
M 31.109375 56 
z
" id="DejaVuSans-117"/>
      <path d="M 56.203125 29.59375 
L 56.203125 25.203125 
L 14.890625 25.203125 
Q 15.484375 15.921875 20.484375 11.0625 
Q 25.484375 6.203125 34.421875 6.203125 
Q 39.59375 6.203125 44.453125 7.46875 
Q 49.3125 8.734375 54.109375 11.28125 
L 54.109375 2.78125 
Q 49.265625 0.734375 44.1875 -0.34375 
Q 39.109375 -1.421875 33.890625 -1.421875 
Q 20.796875 -1.421875 13.15625 6.1875 
Q 5.515625 13.8125 5.515625 26.8125 
Q 5.515625 40.234375 12.765625 48.109375 
Q 20.015625 56 32.328125 56 
Q 43.359375 56 49.78125 48.890625 
Q 56.203125 41.796875 56.203125 29.59375 
z
M 47.21875 32.234375 
Q 47.125 39.59375 43.09375 43.984375 
Q 39.0625 48.390625 32.421875 48.390625 
Q 24.90625 48.390625 20.390625 44.140625 
Q 15.875 39.890625 15.1875 32.171875 
z
" id="DejaVuSans-101"/>
     </defs>
     <g transform="translate(165.334219 335.860562)scale(0.1 -0.1)">
      <use xlink:href="#DejaVuSans-80"/>
      <use x="60.287109" xlink:href="#DejaVuSans-114"/>
      <use x="101.369141" xlink:href="#DejaVuSans-111"/>
      <use x="162.550781" xlink:href="#DejaVuSans-98"/>
      <use x="226.027344" xlink:href="#DejaVuSans-97"/>
      <use x="287.306641" xlink:href="#DejaVuSans-98"/>
      <use x="350.783203" xlink:href="#DejaVuSans-105"/>
      <use x="378.566406" xlink:href="#DejaVuSans-108"/>
      <use x="406.349609" xlink:href="#DejaVuSans-105"/>
      <use x="434.132812" xlink:href="#DejaVuSans-116"/>
      <use x="473.341797" xlink:href="#DejaVuSans-121"/>
      <use x="532.521484" xlink:href="#DejaVuSans-32"/>
      <use x="564.308594" xlink:href="#DejaVuSans-111"/>
      <use x="625.490234" xlink:href="#DejaVuSans-102"/>
      <use x="660.695312" xlink:href="#DejaVuSans-32"/>
      <use x="692.482422" xlink:href="#DejaVuSans-99"/>
      <use x="747.462891" xlink:href="#DejaVuSans-111"/>
      <use x="808.644531" xlink:href="#DejaVuSans-110"/>
      <use x="872.023438" xlink:href="#DejaVuSans-116"/>
      <use x="911.232422" xlink:href="#DejaVuSans-97"/>
      <use x="972.511719" xlink:href="#DejaVuSans-99"/>
      <use x="1027.492188" xlink:href="#DejaVuSans-116"/>
      <use x="1066.701172" xlink:href="#DejaVuSans-32"/>
      <use x="1098.488281" xlink:href="#DejaVuSans-102"/>
      <use x="1133.693359" xlink:href="#DejaVuSans-97"/>
      <use x="1194.972656" xlink:href="#DejaVuSans-105"/>
      <use x="1222.755859" xlink:href="#DejaVuSans-108"/>
      <use x="1250.539062" xlink:href="#DejaVuSans-117"/>
      <use x="1313.917969" xlink:href="#DejaVuSans-114"/>
      <use x="1355" xlink:href="#DejaVuSans-101"/>
     </g>
    </g>
   </g>
   <g id="matplotlib.axis_2">
    <g id="ytick_1">
     <g id="line2d_13">
      <path clip-path="url(#p0a2f316529)" d="M 57.6 284.765921 
L 414.72 284.765921 
" style="fill:none;stroke:#808080;stroke-dasharray:2.96,1.28;stroke-dashoffset:0;stroke-width:0.8;"/>
     </g>
     <g id="line2d_14">
      <defs>
       <path d="M 0 0 
L -3.5 0 
" id="m78cd0041a5" style="stroke:#000000;stroke-width:0.8;"/>
      </defs>
      <g>
       <use style="stroke:#000000;stroke-width:0.8;" x="57.6" xlink:href="#m78cd0041a5" y="284.765921"/>
      </g>
     </g>
     <g id="text_8">
      <!-- 0.2 -->
      <g transform="translate(34.696875 288.56514)scale(0.1 -0.1)">
       <use xlink:href="#DejaVuSans-48"/>
       <use x="63.623047" xlink:href="#DejaVuSans-46"/>
       <use x="95.410156" xlink:href="#DejaVuSans-50"/>
      </g>
     </g>
    </g>
    <g id="ytick_2">
     <g id="line2d_15">
      <path clip-path="url(#p0a2f316529)" d="M 57.6 252.99568 
L 414.72 252.99568 
" style="fill:none;stroke:#808080;stroke-dasharray:2.96,1.28;stroke-dashoffset:0;stroke-width:0.8;"/>
     </g>
     <g id="line2d_16">
      <g>
       <use style="stroke:#000000;stroke-width:0.8;" x="57.6" xlink:href="#m78cd0041a5" y="252.99568"/>
      </g>
     </g>
     <g id="text_9">
      <!-- 0.4 -->
      <g transform="translate(34.696875 256.794898)scale(0.1 -0.1)">
       <use xlink:href="#DejaVuSans-48"/>
       <use x="63.623047" xlink:href="#DejaVuSans-46"/>
       <use x="95.410156" xlink:href="#DejaVuSans-52"/>
      </g>
     </g>
    </g>
    <g id="ytick_3">
     <g id="line2d_17">
      <path clip-path="url(#p0a2f316529)" d="M 57.6 221.225438 
L 414.72 221.225438 
" style="fill:none;stroke:#808080;stroke-dasharray:2.96,1.28;stroke-dashoffset:0;stroke-width:0.8;"/>
     </g>
     <g id="line2d_18">
      <g>
       <use style="stroke:#000000;stroke-width:0.8;" x="57.6" xlink:href="#m78cd0041a5" y="221.225438"/>
      </g>
     </g>
     <g id="text_10">
      <!-- 0.6 -->
      <g transform="translate(34.696875 225.024657)scale(0.1 -0.1)">
       <use xlink:href="#DejaVuSans-48"/>
       <use x="63.623047" xlink:href="#DejaVuSans-46"/>
       <use x="95.410156" xlink:href="#DejaVuSans-54"/>
      </g>
     </g>
    </g>
    <g id="ytick_4">
     <g id="line2d_19">
      <path clip-path="url(#p0a2f316529)" d="M 57.6 189.455196 
L 414.72 189.455196 
" style="fill:none;stroke:#808080;stroke-dasharray:2.96,1.28;stroke-dashoffset:0;stroke-width:0.8;"/>
     </g>
     <g id="line2d_20">
      <g>
       <use style="stroke:#000000;stroke-width:0.8;" x="57.6" xlink:href="#m78cd0041a5" y="189.455196"/>
      </g>
     </g>
     <g id="text_11">
      <!-- 0.8 -->
      <g transform="translate(34.696875 193.254415)scale(0.1 -0.1)">
       <use xlink:href="#DejaVuSans-48"/>
       <use x="63.623047" xlink:href="#DejaVuSans-46"/>
       <use x="95.410156" xlink:href="#DejaVuSans-56"/>
      </g>
     </g>
    </g>
    <g id="ytick_5">
     <g id="line2d_21">
      <path clip-path="url(#p0a2f316529)" d="M 57.6 157.684955 
L 414.72 157.684955 
" style="fill:none;stroke:#808080;stroke-dasharray:2.96,1.28;stroke-dashoffset:0;stroke-width:0.8;"/>
     </g>
     <g id="line2d_22">
      <g>
       <use style="stroke:#000000;stroke-width:0.8;" x="57.6" xlink:href="#m78cd0041a5" y="157.684955"/>
      </g>
     </g>
     <g id="text_12">
      <!-- 1.0 -->
      <g transform="translate(34.696875 161.484173)scale(0.1 -0.1)">
       <use xlink:href="#DejaVuSans-49"/>
       <use x="63.623047" xlink:href="#DejaVuSans-46"/>
       <use x="95.410156" xlink:href="#DejaVuSans-48"/>
      </g>
     </g>
    </g>
    <g id="ytick_6">
     <g id="line2d_23">
      <path clip-path="url(#p0a2f316529)" d="M 57.6 125.914713 
L 414.72 125.914713 
" style="fill:none;stroke:#808080;stroke-dasharray:2.96,1.28;stroke-dashoffset:0;stroke-width:0.8;"/>
     </g>
     <g id="line2d_24">
      <g>
       <use style="stroke:#000000;stroke-width:0.8;" x="57.6" xlink:href="#m78cd0041a5" y="125.914713"/>
      </g>
     </g>
     <g id="text_13">
      <!-- 1.2 -->
      <g transform="translate(34.696875 129.713932)scale(0.1 -0.1)">
       <use xlink:href="#DejaVuSans-49"/>
       <use x="63.623047" xlink:href="#DejaVuSans-46"/>
       <use x="95.410156" xlink:href="#DejaVuSans-50"/>
      </g>
     </g>
    </g>
    <g id="ytick_7">
     <g id="line2d_25">
      <path clip-path="url(#p0a2f316529)" d="M 57.6 94.144471 
L 414.72 94.144471 
" style="fill:none;stroke:#808080;stroke-dasharray:2.96,1.28;stroke-dashoffset:0;stroke-width:0.8;"/>
     </g>
     <g id="line2d_26">
      <g>
       <use style="stroke:#000000;stroke-width:0.8;" x="57.6" xlink:href="#m78cd0041a5" y="94.144471"/>
      </g>
     </g>
     <g id="text_14">
      <!-- 1.4 -->
      <g transform="translate(34.696875 97.94369)scale(0.1 -0.1)">
       <use xlink:href="#DejaVuSans-49"/>
       <use x="63.623047" xlink:href="#DejaVuSans-46"/>
       <use x="95.410156" xlink:href="#DejaVuSans-52"/>
      </g>
     </g>
    </g>
    <g id="ytick_8">
     <g id="line2d_27">
      <path clip-path="url(#p0a2f316529)" d="M 57.6 62.37423 
L 414.72 62.37423 
" style="fill:none;stroke:#808080;stroke-dasharray:2.96,1.28;stroke-dashoffset:0;stroke-width:0.8;"/>
     </g>
     <g id="line2d_28">
      <g>
       <use style="stroke:#000000;stroke-width:0.8;" x="57.6" xlink:href="#m78cd0041a5" y="62.37423"/>
      </g>
     </g>
     <g id="text_15">
      <!-- 1.6 -->
      <g transform="translate(34.696875 66.173448)scale(0.1 -0.1)">
       <use xlink:href="#DejaVuSans-49"/>
       <use x="63.623047" xlink:href="#DejaVuSans-46"/>
       <use x="95.410156" xlink:href="#DejaVuSans-54"/>
      </g>
     </g>
    </g>
    <g id="text_16">
     <!-- Mean Bundles in SDR -->
     <defs>
      <path d="M 9.8125 72.90625 
L 24.515625 72.90625 
L 43.109375 23.296875 
L 61.8125 72.90625 
L 76.515625 72.90625 
L 76.515625 0 
L 66.890625 0 
L 66.890625 64.015625 
L 48.09375 14.015625 
L 38.1875 14.015625 
L 19.390625 64.015625 
L 19.390625 0 
L 9.8125 0 
z
" id="DejaVuSans-77"/>
      <path d="M 19.671875 34.8125 
L 19.671875 8.109375 
L 35.5 8.109375 
Q 43.453125 8.109375 47.28125 11.40625 
Q 51.125 14.703125 51.125 21.484375 
Q 51.125 28.328125 47.28125 31.5625 
Q 43.453125 34.8125 35.5 34.8125 
z
M 19.671875 64.796875 
L 19.671875 42.828125 
L 34.28125 42.828125 
Q 41.5 42.828125 45.03125 45.53125 
Q 48.578125 48.25 48.578125 53.8125 
Q 48.578125 59.328125 45.03125 62.0625 
Q 41.5 64.796875 34.28125 64.796875 
z
M 9.8125 72.90625 
L 35.015625 72.90625 
Q 46.296875 72.90625 52.390625 68.21875 
Q 58.5 63.53125 58.5 54.890625 
Q 58.5 48.1875 55.375 44.234375 
Q 52.25 40.28125 46.1875 39.3125 
Q 53.46875 37.75 57.5 32.78125 
Q 61.53125 27.828125 61.53125 20.40625 
Q 61.53125 10.640625 54.890625 5.3125 
Q 48.25 0 35.984375 0 
L 9.8125 0 
z
" id="DejaVuSans-66"/>
      <path d="M 45.40625 46.390625 
L 45.40625 75.984375 
L 54.390625 75.984375 
L 54.390625 0 
L 45.40625 0 
L 45.40625 8.203125 
Q 42.578125 3.328125 38.25 0.953125 
Q 33.9375 -1.421875 27.875 -1.421875 
Q 17.96875 -1.421875 11.734375 6.484375 
Q 5.515625 14.40625 5.515625 27.296875 
Q 5.515625 40.1875 11.734375 48.09375 
Q 17.96875 56 27.875 56 
Q 33.9375 56 38.25 53.625 
Q 42.578125 51.265625 45.40625 46.390625 
z
M 14.796875 27.296875 
Q 14.796875 17.390625 18.875 11.75 
Q 22.953125 6.109375 30.078125 6.109375 
Q 37.203125 6.109375 41.296875 11.75 
Q 45.40625 17.390625 45.40625 27.296875 
Q 45.40625 37.203125 41.296875 42.84375 
Q 37.203125 48.484375 30.078125 48.484375 
Q 22.953125 48.484375 18.875 42.84375 
Q 14.796875 37.203125 14.796875 27.296875 
z
" id="DejaVuSans-100"/>
      <path d="M 44.28125 53.078125 
L 44.28125 44.578125 
Q 40.484375 46.53125 36.375 47.5 
Q 32.28125 48.484375 27.875 48.484375 
Q 21.1875 48.484375 17.84375 46.4375 
Q 14.5 44.390625 14.5 40.28125 
Q 14.5 37.15625 16.890625 35.375 
Q 19.28125 33.59375 26.515625 31.984375 
L 29.59375 31.296875 
Q 39.15625 29.25 43.1875 25.515625 
Q 47.21875 21.78125 47.21875 15.09375 
Q 47.21875 7.46875 41.1875 3.015625 
Q 35.15625 -1.421875 24.609375 -1.421875 
Q 20.21875 -1.421875 15.453125 -0.5625 
Q 10.6875 0.296875 5.421875 2 
L 5.421875 11.28125 
Q 10.40625 8.6875 15.234375 7.390625 
Q 20.0625 6.109375 24.8125 6.109375 
Q 31.15625 6.109375 34.5625 8.28125 
Q 37.984375 10.453125 37.984375 14.40625 
Q 37.984375 18.0625 35.515625 20.015625 
Q 33.0625 21.96875 24.703125 23.78125 
L 21.578125 24.515625 
Q 13.234375 26.265625 9.515625 29.90625 
Q 5.8125 33.546875 5.8125 39.890625 
Q 5.8125 47.609375 11.28125 51.796875 
Q 16.75 56 26.8125 56 
Q 31.78125 56 36.171875 55.265625 
Q 40.578125 54.546875 44.28125 53.078125 
z
" id="DejaVuSans-115"/>
      <path d="M 53.515625 70.515625 
L 53.515625 60.890625 
Q 47.90625 63.578125 42.921875 64.890625 
Q 37.9375 66.21875 33.296875 66.21875 
Q 25.25 66.21875 20.875 63.09375 
Q 16.5 59.96875 16.5 54.203125 
Q 16.5 49.359375 19.40625 46.890625 
Q 22.3125 44.4375 30.421875 42.921875 
L 36.375 41.703125 
Q 47.40625 39.59375 52.65625 34.296875 
Q 57.90625 29 57.90625 20.125 
Q 57.90625 9.515625 50.796875 4.046875 
Q 43.703125 -1.421875 29.984375 -1.421875 
Q 24.8125 -1.421875 18.96875 -0.25 
Q 13.140625 0.921875 6.890625 3.21875 
L 6.890625 13.375 
Q 12.890625 10.015625 18.65625 8.296875 
Q 24.421875 6.59375 29.984375 6.59375 
Q 38.421875 6.59375 43.015625 9.90625 
Q 47.609375 13.234375 47.609375 19.390625 
Q 47.609375 24.75 44.3125 27.78125 
Q 41.015625 30.8125 33.5 32.328125 
L 27.484375 33.5 
Q 16.453125 35.6875 11.515625 40.375 
Q 6.59375 45.0625 6.59375 53.421875 
Q 6.59375 63.09375 13.40625 68.65625 
Q 20.21875 74.21875 32.171875 74.21875 
Q 37.3125 74.21875 42.625 73.28125 
Q 47.953125 72.359375 53.515625 70.515625 
z
" id="DejaVuSans-83"/>
      <path d="M 19.671875 64.796875 
L 19.671875 8.109375 
L 31.59375 8.109375 
Q 46.6875 8.109375 53.6875 14.9375 
Q 60.6875 21.78125 60.6875 36.53125 
Q 60.6875 51.171875 53.6875 57.984375 
Q 46.6875 64.796875 31.59375 64.796875 
z
M 9.8125 72.90625 
L 30.078125 72.90625 
Q 51.265625 72.90625 61.171875 64.09375 
Q 71.09375 55.28125 71.09375 36.53125 
Q 71.09375 17.671875 61.125 8.828125 
Q 51.171875 0 30.078125 0 
L 9.8125 0 
z
" id="DejaVuSans-68"/>
      <path d="M 44.390625 34.1875 
Q 47.5625 33.109375 50.5625 29.59375 
Q 53.5625 26.078125 56.59375 19.921875 
L 66.609375 0 
L 56 0 
L 46.6875 18.703125 
Q 43.0625 26.03125 39.671875 28.421875 
Q 36.28125 30.8125 30.421875 30.8125 
L 19.671875 30.8125 
L 19.671875 0 
L 9.8125 0 
L 9.8125 72.90625 
L 32.078125 72.90625 
Q 44.578125 72.90625 50.734375 67.671875 
Q 56.890625 62.453125 56.890625 51.90625 
Q 56.890625 45.015625 53.6875 40.46875 
Q 50.484375 35.9375 44.390625 34.1875 
z
M 19.671875 64.796875 
L 19.671875 38.921875 
L 32.078125 38.921875 
Q 39.203125 38.921875 42.84375 42.21875 
Q 46.484375 45.515625 46.484375 51.90625 
Q 46.484375 58.296875 42.84375 61.546875 
Q 39.203125 64.796875 32.078125 64.796875 
z
" id="DejaVuSans-82"/>
     </defs>
     <g transform="translate(28.617187 227.987375)rotate(-90)scale(0.1 -0.1)">
      <use xlink:href="#DejaVuSans-77"/>
      <use x="86.279297" xlink:href="#DejaVuSans-101"/>
      <use x="147.802734" xlink:href="#DejaVuSans-97"/>
      <use x="209.082031" xlink:href="#DejaVuSans-110"/>
      <use x="272.460938" xlink:href="#DejaVuSans-32"/>
      <use x="304.248047" xlink:href="#DejaVuSans-66"/>
      <use x="372.851562" xlink:href="#DejaVuSans-117"/>
      <use x="436.230469" xlink:href="#DejaVuSans-110"/>
      <use x="499.609375" xlink:href="#DejaVuSans-100"/>
      <use x="563.085938" xlink:href="#DejaVuSans-108"/>
      <use x="590.869141" xlink:href="#DejaVuSans-101"/>
      <use x="652.392578" xlink:href="#DejaVuSans-115"/>
      <use x="704.492188" xlink:href="#DejaVuSans-32"/>
      <use x="736.279297" xlink:href="#DejaVuSans-105"/>
      <use x="764.0625" xlink:href="#DejaVuSans-110"/>
      <use x="827.441406" xlink:href="#DejaVuSans-32"/>
      <use x="859.228516" xlink:href="#DejaVuSans-83"/>
      <use x="922.705078" xlink:href="#DejaVuSans-68"/>
      <use x="999.707031" xlink:href="#DejaVuSans-82"/>
     </g>
    </g>
   </g>
   <g id="line2d_29">
    <path clip-path="url(#p0a2f316529)" d="M 73.832727 295.488 
L 106.298182 295.147115 
L 138.763636 294.889095 
L 171.229091 294.106398 
L 203.694545 293.014089 
L 236.16 290.868692 
L 268.625455 287.47176 
L 301.090909 281.267057 
L 333.556364 266.59351 
L 366.021818 242.574427 
L 398.487273 226.927789 
" style="fill:none;stroke:#000000;stroke-dasharray:5.55,2.4;stroke-dashoffset:0;stroke-width:1.5;"/>
    <defs>
     <path d="M 0 -3 
L -3 3 
L 3 3 
z
" id="m0cb695efc6" style="stroke:#000000;stroke-linejoin:miter;"/>
    </defs>
    <g clip-path="url(#p0a2f316529)">
     <use style="stroke:#000000;stroke-linejoin:miter;" x="73.832727" xlink:href="#m0cb695efc6" y="295.488"/>
     <use style="stroke:#000000;stroke-linejoin:miter;" x="106.298182" xlink:href="#m0cb695efc6" y="295.147115"/>
     <use style="stroke:#000000;stroke-linejoin:miter;" x="138.763636" xlink:href="#m0cb695efc6" y="294.889095"/>
     <use style="stroke:#000000;stroke-linejoin:miter;" x="171.229091" xlink:href="#m0cb695efc6" y="294.106398"/>
     <use style="stroke:#000000;stroke-linejoin:miter;" x="203.694545" xlink:href="#m0cb695efc6" y="293.014089"/>
     <use style="stroke:#000000;stroke-linejoin:miter;" x="236.16" xlink:href="#m0cb695efc6" y="290.868692"/>
     <use style="stroke:#000000;stroke-linejoin:miter;" x="268.625455" xlink:href="#m0cb695efc6" y="287.47176"/>
     <use style="stroke:#000000;stroke-linejoin:miter;" x="301.090909" xlink:href="#m0cb695efc6" y="281.267057"/>
     <use style="stroke:#000000;stroke-linejoin:miter;" x="333.556364" xlink:href="#m0cb695efc6" y="266.59351"/>
     <use style="stroke:#000000;stroke-linejoin:miter;" x="366.021818" xlink:href="#m0cb695efc6" y="242.574427"/>
     <use style="stroke:#000000;stroke-linejoin:miter;" x="398.487273" xlink:href="#m0cb695efc6" y="226.927789"/>
    </g>
   </g>
   <g id="line2d_30">
    <path clip-path="url(#p0a2f316529)" d="M 73.832727 165.320712 
L 106.298182 92.085696 
L 138.763636 57.386839 
L 171.229091 56.745486 
L 203.694545 53.568 
L 236.16 57.592395 
L 268.625455 62.467816 
L 301.090909 66.993403 
L 333.556364 71.154796 
L 366.021818 82.303707 
L 398.487273 153.611847 
" style="fill:none;stroke:#ffa500;stroke-dasharray:5.55,2.4;stroke-dashoffset:0;stroke-width:1.5;"/>
    <defs>
     <path d="M 0 3 
C 0.795609 3 1.55874 2.683901 2.12132 2.12132 
C 2.683901 1.55874 3 0.795609 3 0 
C 3 -0.795609 2.683901 -1.55874 2.12132 -2.12132 
C 1.55874 -2.683901 0.795609 -3 0 -3 
C -0.795609 -3 -1.55874 -2.683901 -2.12132 -2.12132 
C -2.683901 -1.55874 -3 -0.795609 -3 0 
C -3 0.795609 -2.683901 1.55874 -2.12132 2.12132 
C -1.55874 2.683901 -0.795609 3 0 3 
z
" id="m0b542ea184" style="stroke:#ffa500;"/>
    </defs>
    <g clip-path="url(#p0a2f316529)">
     <use style="fill:#ffa500;stroke:#ffa500;" x="73.832727" xlink:href="#m0b542ea184" y="165.320712"/>
     <use style="fill:#ffa500;stroke:#ffa500;" x="106.298182" xlink:href="#m0b542ea184" y="92.085696"/>
     <use style="fill:#ffa500;stroke:#ffa500;" x="138.763636" xlink:href="#m0b542ea184" y="57.386839"/>
     <use style="fill:#ffa500;stroke:#ffa500;" x="171.229091" xlink:href="#m0b542ea184" y="56.745486"/>
     <use style="fill:#ffa500;stroke:#ffa500;" x="203.694545" xlink:href="#m0b542ea184" y="53.568"/>
     <use style="fill:#ffa500;stroke:#ffa500;" x="236.16" xlink:href="#m0b542ea184" y="57.592395"/>
     <use style="fill:#ffa500;stroke:#ffa500;" x="268.625455" xlink:href="#m0b542ea184" y="62.467816"/>
     <use style="fill:#ffa500;stroke:#ffa500;" x="301.090909" xlink:href="#m0b542ea184" y="66.993403"/>
     <use style="fill:#ffa500;stroke:#ffa500;" x="333.556364" xlink:href="#m0b542ea184" y="71.154796"/>
     <use style="fill:#ffa500;stroke:#ffa500;" x="366.021818" xlink:href="#m0b542ea184" y="82.303707"/>
     <use style="fill:#ffa500;stroke:#ffa500;" x="398.487273" xlink:href="#m0b542ea184" y="153.611847"/>
    </g>
   </g>
   <g id="line2d_31">
    <path clip-path="url(#p0a2f316529)" d="M 73.832727 275.506389 
L 106.298182 128.704465 
L 138.763636 128.042029 
L 171.229091 127.998729 
L 203.694545 127.84038 
L 236.16 126.875227 
L 268.625455 127.018621 
L 301.090909 126.054626 
L 333.556364 118.598854 
L 366.021818 109.085493 
L 398.487273 173.977386 
" style="fill:none;stroke:#0000ff;stroke-dasharray:5.55,2.4;stroke-dashoffset:0;stroke-width:1.5;"/>
    <defs>
     <path d="M -3 3 
L 3 3 
L 3 -3 
L -3 -3 
z
" id="ma16f769056" style="stroke:#0000ff;stroke-linejoin:miter;"/>
    </defs>
    <g clip-path="url(#p0a2f316529)">
     <use style="fill:#0000ff;stroke:#0000ff;stroke-linejoin:miter;" x="73.832727" xlink:href="#ma16f769056" y="275.506389"/>
     <use style="fill:#0000ff;stroke:#0000ff;stroke-linejoin:miter;" x="106.298182" xlink:href="#ma16f769056" y="128.704465"/>
     <use style="fill:#0000ff;stroke:#0000ff;stroke-linejoin:miter;" x="138.763636" xlink:href="#ma16f769056" y="128.042029"/>
     <use style="fill:#0000ff;stroke:#0000ff;stroke-linejoin:miter;" x="171.229091" xlink:href="#ma16f769056" y="127.998729"/>
     <use style="fill:#0000ff;stroke:#0000ff;stroke-linejoin:miter;" x="203.694545" xlink:href="#ma16f769056" y="127.84038"/>
     <use style="fill:#0000ff;stroke:#0000ff;stroke-linejoin:miter;" x="236.16" xlink:href="#ma16f769056" y="126.875227"/>
     <use style="fill:#0000ff;stroke:#0000ff;stroke-linejoin:miter;" x="268.625455" xlink:href="#ma16f769056" y="127.018621"/>
     <use style="fill:#0000ff;stroke:#0000ff;stroke-linejoin:miter;" x="301.090909" xlink:href="#ma16f769056" y="126.054626"/>
     <use style="fill:#0000ff;stroke:#0000ff;stroke-linejoin:miter;" x="333.556364" xlink:href="#ma16f769056" y="118.598854"/>
     <use style="fill:#0000ff;stroke:#0000ff;stroke-linejoin:miter;" x="366.021818" xlink:href="#ma16f769056" y="109.085493"/>
     <use style="fill:#0000ff;stroke:#0000ff;stroke-linejoin:miter;" x="398.487273" xlink:href="#ma16f769056" y="173.977386"/>
    </g>
   </g>
   <g id="line2d_32">
    <path clip-path="url(#p0a2f316529)" d="M 73.832727 275.506389 
L 106.298182 204.437448 
L 138.763636 204.317921 
L 171.229091 203.881327 
L 203.694545 203.104376 
L 236.16 201.389717 
L 268.625455 198.780186 
L 301.090909 193.303161 
L 333.556364 178.110962 
L 366.021818 159.912403 
L 398.487273 173.977386 
" style="fill:none;stroke:#008000;stroke-dasharray:5.55,2.4;stroke-dashoffset:0;stroke-width:1.5;"/>
    <defs>
     <path d="M -0 3 
L 3 -3 
L -3 -3 
z
" id="m7dc421c8f2" style="stroke:#008000;stroke-linejoin:miter;"/>
    </defs>
    <g clip-path="url(#p0a2f316529)">
     <use style="fill:#008000;stroke:#008000;stroke-linejoin:miter;" x="73.832727" xlink:href="#m7dc421c8f2" y="275.506389"/>
     <use style="fill:#008000;stroke:#008000;stroke-linejoin:miter;" x="106.298182" xlink:href="#m7dc421c8f2" y="204.437448"/>
     <use style="fill:#008000;stroke:#008000;stroke-linejoin:miter;" x="138.763636" xlink:href="#m7dc421c8f2" y="204.317921"/>
     <use style="fill:#008000;stroke:#008000;stroke-linejoin:miter;" x="171.229091" xlink:href="#m7dc421c8f2" y="203.881327"/>
     <use style="fill:#008000;stroke:#008000;stroke-linejoin:miter;" x="203.694545" xlink:href="#m7dc421c8f2" y="203.104376"/>
     <use style="fill:#008000;stroke:#008000;stroke-linejoin:miter;" x="236.16" xlink:href="#m7dc421c8f2" y="201.389717"/>
     <use style="fill:#008000;stroke:#008000;stroke-linejoin:miter;" x="268.625455" xlink:href="#m7dc421c8f2" y="198.780186"/>
     <use style="fill:#008000;stroke:#008000;stroke-linejoin:miter;" x="301.090909" xlink:href="#m7dc421c8f2" y="193.303161"/>
     <use style="fill:#008000;stroke:#008000;stroke-linejoin:miter;" x="333.556364" xlink:href="#m7dc421c8f2" y="178.110962"/>
     <use style="fill:#008000;stroke:#008000;stroke-linejoin:miter;" x="366.021818" xlink:href="#m7dc421c8f2" y="159.912403"/>
     <use style="fill:#008000;stroke:#008000;stroke-linejoin:miter;" x="398.487273" xlink:href="#m7dc421c8f2" y="173.977386"/>
    </g>
   </g>
   <g id="line2d_33">
    <path clip-path="url(#p0a2f316529)" d="M 73.832727 275.560131 
L 106.298182 292.529449 
L 138.763636 291.838557 
L 171.229091 291.078104 
L 203.694545 288.918499 
L 236.16 285.129624 
L 268.625455 279.525788 
L 301.090909 270.54374 
L 333.556364 254.531443 
L 366.021818 237.44111 
L 398.487273 226.927789 
" style="fill:none;stroke:#ff0000;stroke-dasharray:5.55,2.4;stroke-dashoffset:0;stroke-width:1.5;"/>
    <defs>
     <path d="M 0 -3 
L -2.85317 -0.927051 
L -1.763356 2.427051 
L 1.763356 2.427051 
L 2.85317 -0.927051 
z
" id="mc5e668f2d0" style="stroke:#ff0000;stroke-linejoin:miter;"/>
    </defs>
    <g clip-path="url(#p0a2f316529)">
     <use style="fill:#ff0000;stroke:#ff0000;stroke-linejoin:miter;" x="73.832727" xlink:href="#mc5e668f2d0" y="275.560131"/>
     <use style="fill:#ff0000;stroke:#ff0000;stroke-linejoin:miter;" x="106.298182" xlink:href="#mc5e668f2d0" y="292.529449"/>
     <use style="fill:#ff0000;stroke:#ff0000;stroke-linejoin:miter;" x="138.763636" xlink:href="#mc5e668f2d0" y="291.838557"/>
     <use style="fill:#ff0000;stroke:#ff0000;stroke-linejoin:miter;" x="171.229091" xlink:href="#mc5e668f2d0" y="291.078104"/>
     <use style="fill:#ff0000;stroke:#ff0000;stroke-linejoin:miter;" x="203.694545" xlink:href="#mc5e668f2d0" y="288.918499"/>
     <use style="fill:#ff0000;stroke:#ff0000;stroke-linejoin:miter;" x="236.16" xlink:href="#mc5e668f2d0" y="285.129624"/>
     <use style="fill:#ff0000;stroke:#ff0000;stroke-linejoin:miter;" x="268.625455" xlink:href="#mc5e668f2d0" y="279.525788"/>
     <use style="fill:#ff0000;stroke:#ff0000;stroke-linejoin:miter;" x="301.090909" xlink:href="#mc5e668f2d0" y="270.54374"/>
     <use style="fill:#ff0000;stroke:#ff0000;stroke-linejoin:miter;" x="333.556364" xlink:href="#mc5e668f2d0" y="254.531443"/>
     <use style="fill:#ff0000;stroke:#ff0000;stroke-linejoin:miter;" x="366.021818" xlink:href="#mc5e668f2d0" y="237.44111"/>
     <use style="fill:#ff0000;stroke:#ff0000;stroke-linejoin:miter;" x="398.487273" xlink:href="#mc5e668f2d0" y="226.927789"/>
    </g>
   </g>
   <g id="line2d_34">
    <path clip-path="url(#p0a2f316529)" d="M 73.832727 295.488 
L 106.298182 292.42127 
L 138.763636 291.614287 
L 171.229091 290.923185 
L 203.694545 288.482099 
L 236.16 284.662812 
L 268.625455 278.668474 
L 301.090909 269.837564 
L 333.556364 254.47045 
L 366.021818 238.241665 
L 398.487273 226.927789 
" style="fill:none;stroke:#8b008b;stroke-dasharray:5.55,2.4;stroke-dashoffset:0;stroke-width:1.5;"/>
    <defs>
     <path d="M -3 3 
L 3 -3 
M -3 -3 
L 3 3 
" id="m4181a9a907" style="stroke:#8b008b;"/>
    </defs>
    <g clip-path="url(#p0a2f316529)">
     <use style="fill:#8b008b;stroke:#8b008b;" x="73.832727" xlink:href="#m4181a9a907" y="295.488"/>
     <use style="fill:#8b008b;stroke:#8b008b;" x="106.298182" xlink:href="#m4181a9a907" y="292.42127"/>
     <use style="fill:#8b008b;stroke:#8b008b;" x="138.763636" xlink:href="#m4181a9a907" y="291.614287"/>
     <use style="fill:#8b008b;stroke:#8b008b;" x="171.229091" xlink:href="#m4181a9a907" y="290.923185"/>
     <use style="fill:#8b008b;stroke:#8b008b;" x="203.694545" xlink:href="#m4181a9a907" y="288.482099"/>
     <use style="fill:#8b008b;stroke:#8b008b;" x="236.16" xlink:href="#m4181a9a907" y="284.662812"/>
     <use style="fill:#8b008b;stroke:#8b008b;" x="268.625455" xlink:href="#m4181a9a907" y="278.668474"/>
     <use style="fill:#8b008b;stroke:#8b008b;" x="301.090909" xlink:href="#m4181a9a907" y="269.837564"/>
     <use style="fill:#8b008b;stroke:#8b008b;" x="333.556364" xlink:href="#m4181a9a907" y="254.47045"/>
     <use style="fill:#8b008b;stroke:#8b008b;" x="366.021818" xlink:href="#m4181a9a907" y="238.241665"/>
     <use style="fill:#8b008b;stroke:#8b008b;" x="398.487273" xlink:href="#m4181a9a907" y="226.927789"/>
    </g>
   </g>
   <g id="line2d_35">
    <path clip-path="url(#p0a2f316529)" d="M 73.832727 295.488 
L 106.298182 294.461019 
L 138.763636 293.772245 
L 171.229091 291.82353 
L 203.694545 288.509542 
L 236.16 282.668576 
L 268.625455 275.11113 
L 301.090909 265.794299 
L 333.556364 252.07758 
L 366.021818 237.282851 
L 398.487273 226.927789 
" style="fill:none;stroke:#800080;stroke-dasharray:5.55,2.4;stroke-dashoffset:0;stroke-width:1.5;"/>
    <defs>
     <path d="M -3 0 
L 3 0 
M 0 3 
L 0 -3 
" id="m42aa12729e" style="stroke:#800080;"/>
    </defs>
    <g clip-path="url(#p0a2f316529)">
     <use style="fill:#800080;stroke:#800080;" x="73.832727" xlink:href="#m42aa12729e" y="295.488"/>
     <use style="fill:#800080;stroke:#800080;" x="106.298182" xlink:href="#m42aa12729e" y="294.461019"/>
     <use style="fill:#800080;stroke:#800080;" x="138.763636" xlink:href="#m42aa12729e" y="293.772245"/>
     <use style="fill:#800080;stroke:#800080;" x="171.229091" xlink:href="#m42aa12729e" y="291.82353"/>
     <use style="fill:#800080;stroke:#800080;" x="203.694545" xlink:href="#m42aa12729e" y="288.509542"/>
     <use style="fill:#800080;stroke:#800080;" x="236.16" xlink:href="#m42aa12729e" y="282.668576"/>
     <use style="fill:#800080;stroke:#800080;" x="268.625455" xlink:href="#m42aa12729e" y="275.11113"/>
     <use style="fill:#800080;stroke:#800080;" x="301.090909" xlink:href="#m42aa12729e" y="265.794299"/>
     <use style="fill:#800080;stroke:#800080;" x="333.556364" xlink:href="#m42aa12729e" y="252.07758"/>
     <use style="fill:#800080;stroke:#800080;" x="366.021818" xlink:href="#m42aa12729e" y="237.282851"/>
     <use style="fill:#800080;stroke:#800080;" x="398.487273" xlink:href="#m42aa12729e" y="226.927789"/>
    </g>
   </g>
   <g id="line2d_36">
    <path clip-path="url(#p0a2f316529)" d="M 73.832727 60.847191 
L 106.298182 61.430507 
L 138.763636 62.428458 
L 171.229091 64.972859 
L 203.694545 67.279614 
L 236.16 69.337975 
L 268.625455 71.68383 
L 301.090909 79.703186 
L 333.556364 93.01272 
L 366.021818 130.288901 
L 398.487273 226.927789 
" style="fill:none;stroke:#ffc0cb;stroke-dasharray:5.55,2.4;stroke-dashoffset:0;stroke-width:1.5;"/>
    <defs>
     <path d="M -3 -0 
L 3 3 
L 3 -3 
z
" id="m8b097890d0" style="stroke:#ffc0cb;stroke-linejoin:miter;"/>
    </defs>
    <g clip-path="url(#p0a2f316529)">
     <use style="fill:#ffc0cb;stroke:#ffc0cb;stroke-linejoin:miter;" x="73.832727" xlink:href="#m8b097890d0" y="60.847191"/>
     <use style="fill:#ffc0cb;stroke:#ffc0cb;stroke-linejoin:miter;" x="106.298182" xlink:href="#m8b097890d0" y="61.430507"/>
     <use style="fill:#ffc0cb;stroke:#ffc0cb;stroke-linejoin:miter;" x="138.763636" xlink:href="#m8b097890d0" y="62.428458"/>
     <use style="fill:#ffc0cb;stroke:#ffc0cb;stroke-linejoin:miter;" x="171.229091" xlink:href="#m8b097890d0" y="64.972859"/>
     <use style="fill:#ffc0cb;stroke:#ffc0cb;stroke-linejoin:miter;" x="203.694545" xlink:href="#m8b097890d0" y="67.279614"/>
     <use style="fill:#ffc0cb;stroke:#ffc0cb;stroke-linejoin:miter;" x="236.16" xlink:href="#m8b097890d0" y="69.337975"/>
     <use style="fill:#ffc0cb;stroke:#ffc0cb;stroke-linejoin:miter;" x="268.625455" xlink:href="#m8b097890d0" y="71.68383"/>
     <use style="fill:#ffc0cb;stroke:#ffc0cb;stroke-linejoin:miter;" x="301.090909" xlink:href="#m8b097890d0" y="79.703186"/>
     <use style="fill:#ffc0cb;stroke:#ffc0cb;stroke-linejoin:miter;" x="333.556364" xlink:href="#m8b097890d0" y="93.01272"/>
     <use style="fill:#ffc0cb;stroke:#ffc0cb;stroke-linejoin:miter;" x="366.021818" xlink:href="#m8b097890d0" y="130.288901"/>
     <use style="fill:#ffc0cb;stroke:#ffc0cb;stroke-linejoin:miter;" x="398.487273" xlink:href="#m8b097890d0" y="226.927789"/>
    </g>
   </g>
   <g id="line2d_37">
    <path clip-path="url(#p0a2f316529)" d="M 73.832727 96.982635 
L 106.298182 97.862664 
L 138.763636 98.25557 
L 171.229091 100.050589 
L 203.694545 101.425302 
L 236.16 103.334636 
L 268.625455 105.501574 
L 301.090909 110.663181 
L 333.556364 118.14684 
L 366.021818 142.510563 
L 398.487273 226.927789 
" style="fill:none;stroke:#6a5acd;stroke-dasharray:5.55,2.4;stroke-dashoffset:0;stroke-width:1.5;"/>
    <defs>
     <path d="M 3 0 
L -3 -3 
L -3 3 
z
" id="mf069f9f46d" style="stroke:#6a5acd;stroke-linejoin:miter;"/>
    </defs>
    <g clip-path="url(#p0a2f316529)">
     <use style="fill:#6a5acd;stroke:#6a5acd;stroke-linejoin:miter;" x="73.832727" xlink:href="#mf069f9f46d" y="96.982635"/>
     <use style="fill:#6a5acd;stroke:#6a5acd;stroke-linejoin:miter;" x="106.298182" xlink:href="#mf069f9f46d" y="97.862664"/>
     <use style="fill:#6a5acd;stroke:#6a5acd;stroke-linejoin:miter;" x="138.763636" xlink:href="#mf069f9f46d" y="98.25557"/>
     <use style="fill:#6a5acd;stroke:#6a5acd;stroke-linejoin:miter;" x="171.229091" xlink:href="#mf069f9f46d" y="100.050589"/>
     <use style="fill:#6a5acd;stroke:#6a5acd;stroke-linejoin:miter;" x="203.694545" xlink:href="#mf069f9f46d" y="101.425302"/>
     <use style="fill:#6a5acd;stroke:#6a5acd;stroke-linejoin:miter;" x="236.16" xlink:href="#mf069f9f46d" y="103.334636"/>
     <use style="fill:#6a5acd;stroke:#6a5acd;stroke-linejoin:miter;" x="268.625455" xlink:href="#mf069f9f46d" y="105.501574"/>
     <use style="fill:#6a5acd;stroke:#6a5acd;stroke-linejoin:miter;" x="301.090909" xlink:href="#mf069f9f46d" y="110.663181"/>
     <use style="fill:#6a5acd;stroke:#6a5acd;stroke-linejoin:miter;" x="333.556364" xlink:href="#mf069f9f46d" y="118.14684"/>
     <use style="fill:#6a5acd;stroke:#6a5acd;stroke-linejoin:miter;" x="366.021818" xlink:href="#mf069f9f46d" y="142.510563"/>
     <use style="fill:#6a5acd;stroke:#6a5acd;stroke-linejoin:miter;" x="398.487273" xlink:href="#mf069f9f46d" y="226.927789"/>
    </g>
   </g>
   <g id="line2d_38">
    <path clip-path="url(#p0a2f316529)" d="M 73.832727 161.145965 
L 106.298182 161.193548 
L 138.763636 161.32577 
L 171.229091 161.531745 
L 203.694545 161.409114 
L 236.16 161.628796 
L 268.625455 160.679375 
L 301.090909 160.944929 
L 333.556364 162.312375 
L 366.021818 171.012249 
L 398.487273 226.927789 
" style="fill:none;stroke:#008b8b;stroke-dasharray:5.55,2.4;stroke-dashoffset:0;stroke-width:1.5;"/>
    <defs>
     <path d="M -1.5 -2.598076 
L -3 -0 
L -1.5 2.598076 
L 1.5 2.598076 
L 3 0 
L 1.5 -2.598076 
z
" id="m837499afd0" style="stroke:#008b8b;stroke-linejoin:miter;"/>
    </defs>
    <g clip-path="url(#p0a2f316529)">
     <use style="fill:#008b8b;stroke:#008b8b;stroke-linejoin:miter;" x="73.832727" xlink:href="#m837499afd0" y="161.145965"/>
     <use style="fill:#008b8b;stroke:#008b8b;stroke-linejoin:miter;" x="106.298182" xlink:href="#m837499afd0" y="161.193548"/>
     <use style="fill:#008b8b;stroke:#008b8b;stroke-linejoin:miter;" x="138.763636" xlink:href="#m837499afd0" y="161.32577"/>
     <use style="fill:#008b8b;stroke:#008b8b;stroke-linejoin:miter;" x="171.229091" xlink:href="#m837499afd0" y="161.531745"/>
     <use style="fill:#008b8b;stroke:#008b8b;stroke-linejoin:miter;" x="203.694545" xlink:href="#m837499afd0" y="161.409114"/>
     <use style="fill:#008b8b;stroke:#008b8b;stroke-linejoin:miter;" x="236.16" xlink:href="#m837499afd0" y="161.628796"/>
     <use style="fill:#008b8b;stroke:#008b8b;stroke-linejoin:miter;" x="268.625455" xlink:href="#m837499afd0" y="160.679375"/>
     <use style="fill:#008b8b;stroke:#008b8b;stroke-linejoin:miter;" x="301.090909" xlink:href="#m837499afd0" y="160.944929"/>
     <use style="fill:#008b8b;stroke:#008b8b;stroke-linejoin:miter;" x="333.556364" xlink:href="#m837499afd0" y="162.312375"/>
     <use style="fill:#008b8b;stroke:#008b8b;stroke-linejoin:miter;" x="366.021818" xlink:href="#m837499afd0" y="171.012249"/>
     <use style="fill:#008b8b;stroke:#008b8b;stroke-linejoin:miter;" x="398.487273" xlink:href="#m837499afd0" y="226.927789"/>
    </g>
   </g>
   <g id="patch_3">
    <path d="M 57.6 307.584 
L 57.6 41.472 
" style="fill:none;stroke:#000000;stroke-linecap:square;stroke-linejoin:miter;stroke-width:0.8;"/>
   </g>
   <g id="patch_4">
    <path d="M 414.72 307.584 
L 414.72 41.472 
" style="fill:none;stroke:#000000;stroke-linecap:square;stroke-linejoin:miter;stroke-width:0.8;"/>
   </g>
   <g id="patch_5">
    <path d="M 57.6 307.584 
L 414.72 307.584 
" style="fill:none;stroke:#000000;stroke-linecap:square;stroke-linejoin:miter;stroke-width:0.8;"/>
   </g>
   <g id="patch_6">
    <path d="M 57.6 41.472 
L 414.72 41.472 
" style="fill:none;stroke:#000000;stroke-linecap:square;stroke-linejoin:miter;stroke-width:0.8;"/>
   </g>
   <g id="legend_1">
    <g id="patch_7">
     <path d="M 176.763125 249.418625 
L 295.556875 249.418625 
Q 297.556875 249.418625 297.556875 247.418625 
L 297.556875 101.637375 
Q 297.556875 99.637375 295.556875 99.637375 
L 176.763125 99.637375 
Q 174.763125 99.637375 174.763125 101.637375 
L 174.763125 247.418625 
Q 174.763125 249.418625 176.763125 249.418625 
z
" style="fill:#ffffff;opacity:0.8;stroke:#cccccc;stroke-linejoin:miter;"/>
    </g>
    <g id="line2d_39">
     <path d="M 178.763125 107.735813 
L 198.763125 107.735813 
" style="fill:none;stroke:#000000;stroke-dasharray:5.55,2.4;stroke-dashoffset:0;stroke-width:1.5;"/>
    </g>
    <g id="line2d_40">
     <g>
      <use style="stroke:#000000;stroke-linejoin:miter;" x="188.763125" xlink:href="#m0cb695efc6" y="107.735813"/>
     </g>
    </g>
    <g id="text_17">
     <!-- CGR-FaultsAware -->
     <defs>
      <path d="M 64.40625 67.28125 
L 64.40625 56.890625 
Q 59.421875 61.53125 53.78125 63.8125 
Q 48.140625 66.109375 41.796875 66.109375 
Q 29.296875 66.109375 22.65625 58.46875 
Q 16.015625 50.828125 16.015625 36.375 
Q 16.015625 21.96875 22.65625 14.328125 
Q 29.296875 6.6875 41.796875 6.6875 
Q 48.140625 6.6875 53.78125 8.984375 
Q 59.421875 11.28125 64.40625 15.921875 
L 64.40625 5.609375 
Q 59.234375 2.09375 53.4375 0.328125 
Q 47.65625 -1.421875 41.21875 -1.421875 
Q 24.65625 -1.421875 15.125 8.703125 
Q 5.609375 18.84375 5.609375 36.375 
Q 5.609375 53.953125 15.125 64.078125 
Q 24.65625 74.21875 41.21875 74.21875 
Q 47.75 74.21875 53.53125 72.484375 
Q 59.328125 70.75 64.40625 67.28125 
z
" id="DejaVuSans-67"/>
      <path d="M 59.515625 10.40625 
L 59.515625 29.984375 
L 43.40625 29.984375 
L 43.40625 38.09375 
L 69.28125 38.09375 
L 69.28125 6.78125 
Q 63.578125 2.734375 56.6875 0.65625 
Q 49.8125 -1.421875 42 -1.421875 
Q 24.90625 -1.421875 15.25 8.5625 
Q 5.609375 18.5625 5.609375 36.375 
Q 5.609375 54.25 15.25 64.234375 
Q 24.90625 74.21875 42 74.21875 
Q 49.125 74.21875 55.546875 72.453125 
Q 61.96875 70.703125 67.390625 67.28125 
L 67.390625 56.78125 
Q 61.921875 61.421875 55.765625 63.765625 
Q 49.609375 66.109375 42.828125 66.109375 
Q 29.4375 66.109375 22.71875 58.640625 
Q 16.015625 51.171875 16.015625 36.375 
Q 16.015625 21.625 22.71875 14.15625 
Q 29.4375 6.6875 42.828125 6.6875 
Q 48.046875 6.6875 52.140625 7.59375 
Q 56.25 8.5 59.515625 10.40625 
z
" id="DejaVuSans-71"/>
      <path d="M 4.890625 31.390625 
L 31.203125 31.390625 
L 31.203125 23.390625 
L 4.890625 23.390625 
z
" id="DejaVuSans-45"/>
      <path d="M 9.8125 72.90625 
L 51.703125 72.90625 
L 51.703125 64.59375 
L 19.671875 64.59375 
L 19.671875 43.109375 
L 48.578125 43.109375 
L 48.578125 34.8125 
L 19.671875 34.8125 
L 19.671875 0 
L 9.8125 0 
z
" id="DejaVuSans-70"/>
      <path d="M 34.1875 63.1875 
L 20.796875 26.90625 
L 47.609375 26.90625 
z
M 28.609375 72.90625 
L 39.796875 72.90625 
L 67.578125 0 
L 57.328125 0 
L 50.6875 18.703125 
L 17.828125 18.703125 
L 11.1875 0 
L 0.78125 0 
z
" id="DejaVuSans-65"/>
      <path d="M 4.203125 54.6875 
L 13.1875 54.6875 
L 24.421875 12.015625 
L 35.59375 54.6875 
L 46.1875 54.6875 
L 57.421875 12.015625 
L 68.609375 54.6875 
L 77.59375 54.6875 
L 63.28125 0 
L 52.6875 0 
L 40.921875 44.828125 
L 29.109375 0 
L 18.5 0 
z
" id="DejaVuSans-119"/>
     </defs>
     <g transform="translate(206.763125 111.235813)scale(0.1 -0.1)">
      <use xlink:href="#DejaVuSans-67"/>
      <use x="69.824219" xlink:href="#DejaVuSans-71"/>
      <use x="147.314453" xlink:href="#DejaVuSans-82"/>
      <use x="216.734375" xlink:href="#DejaVuSans-45"/>
      <use x="252.818359" xlink:href="#DejaVuSans-70"/>
      <use x="310.197266" xlink:href="#DejaVuSans-97"/>
      <use x="371.476562" xlink:href="#DejaVuSans-117"/>
      <use x="434.855469" xlink:href="#DejaVuSans-108"/>
      <use x="462.638672" xlink:href="#DejaVuSans-116"/>
      <use x="501.847656" xlink:href="#DejaVuSans-115"/>
      <use x="553.947266" xlink:href="#DejaVuSans-65"/>
      <use x="622.292969" xlink:href="#DejaVuSans-119"/>
      <use x="704.080078" xlink:href="#DejaVuSans-97"/>
      <use x="765.359375" xlink:href="#DejaVuSans-114"/>
      <use x="806.441406" xlink:href="#DejaVuSans-101"/>
     </g>
    </g>
    <g id="line2d_41">
     <path d="M 178.763125 122.413938 
L 198.763125 122.413938 
" style="fill:none;stroke:#ffa500;stroke-dasharray:5.55,2.4;stroke-dashoffset:0;stroke-width:1.5;"/>
    </g>
    <g id="line2d_42">
     <g>
      <use style="fill:#ffa500;stroke:#ffa500;" x="188.763125" xlink:href="#m0b542ea184" y="122.413938"/>
     </g>
    </g>
    <g id="text_18">
     <!-- BRUF-4 -->
     <defs>
      <path d="M 8.6875 72.90625 
L 18.609375 72.90625 
L 18.609375 28.609375 
Q 18.609375 16.890625 22.84375 11.734375 
Q 27.09375 6.59375 36.625 6.59375 
Q 46.09375 6.59375 50.34375 11.734375 
Q 54.59375 16.890625 54.59375 28.609375 
L 54.59375 72.90625 
L 64.5 72.90625 
L 64.5 27.390625 
Q 64.5 13.140625 57.4375 5.859375 
Q 50.390625 -1.421875 36.625 -1.421875 
Q 22.796875 -1.421875 15.734375 5.859375 
Q 8.6875 13.140625 8.6875 27.390625 
z
" id="DejaVuSans-85"/>
     </defs>
     <g transform="translate(206.763125 125.913938)scale(0.1 -0.1)">
      <use xlink:href="#DejaVuSans-66"/>
      <use x="68.603516" xlink:href="#DejaVuSans-82"/>
      <use x="138.085938" xlink:href="#DejaVuSans-85"/>
      <use x="211.279297" xlink:href="#DejaVuSans-70"/>
      <use x="268.798828" xlink:href="#DejaVuSans-45"/>
      <use x="304.882812" xlink:href="#DejaVuSans-52"/>
     </g>
    </g>
    <g id="line2d_43">
     <path d="M 178.763125 137.092063 
L 198.763125 137.092063 
" style="fill:none;stroke:#0000ff;stroke-dasharray:5.55,2.4;stroke-dashoffset:0;stroke-width:1.5;"/>
    </g>
    <g id="line2d_44">
     <g>
      <use style="fill:#0000ff;stroke:#0000ff;stroke-linejoin:miter;" x="188.763125" xlink:href="#ma16f769056" y="137.092063"/>
     </g>
    </g>
    <g id="text_19">
     <!-- BRUF-3 -->
     <defs>
      <path d="M 40.578125 39.3125 
Q 47.65625 37.796875 51.625 33 
Q 55.609375 28.21875 55.609375 21.1875 
Q 55.609375 10.40625 48.1875 4.484375 
Q 40.765625 -1.421875 27.09375 -1.421875 
Q 22.515625 -1.421875 17.65625 -0.515625 
Q 12.796875 0.390625 7.625 2.203125 
L 7.625 11.71875 
Q 11.71875 9.328125 16.59375 8.109375 
Q 21.484375 6.890625 26.8125 6.890625 
Q 36.078125 6.890625 40.9375 10.546875 
Q 45.796875 14.203125 45.796875 21.1875 
Q 45.796875 27.640625 41.28125 31.265625 
Q 36.765625 34.90625 28.71875 34.90625 
L 20.21875 34.90625 
L 20.21875 43.015625 
L 29.109375 43.015625 
Q 36.375 43.015625 40.234375 45.921875 
Q 44.09375 48.828125 44.09375 54.296875 
Q 44.09375 59.90625 40.109375 62.90625 
Q 36.140625 65.921875 28.71875 65.921875 
Q 24.65625 65.921875 20.015625 65.03125 
Q 15.375 64.15625 9.8125 62.3125 
L 9.8125 71.09375 
Q 15.4375 72.65625 20.34375 73.4375 
Q 25.25 74.21875 29.59375 74.21875 
Q 40.828125 74.21875 47.359375 69.109375 
Q 53.90625 64.015625 53.90625 55.328125 
Q 53.90625 49.265625 50.4375 45.09375 
Q 46.96875 40.921875 40.578125 39.3125 
z
" id="DejaVuSans-51"/>
     </defs>
     <g transform="translate(206.763125 140.592063)scale(0.1 -0.1)">
      <use xlink:href="#DejaVuSans-66"/>
      <use x="68.603516" xlink:href="#DejaVuSans-82"/>
      <use x="138.085938" xlink:href="#DejaVuSans-85"/>
      <use x="211.279297" xlink:href="#DejaVuSans-70"/>
      <use x="268.798828" xlink:href="#DejaVuSans-45"/>
      <use x="304.882812" xlink:href="#DejaVuSans-51"/>
     </g>
    </g>
    <g id="line2d_45">
     <path d="M 178.763125 151.770188 
L 198.763125 151.770188 
" style="fill:none;stroke:#008000;stroke-dasharray:5.55,2.4;stroke-dashoffset:0;stroke-width:1.5;"/>
    </g>
    <g id="line2d_46">
     <g>
      <use style="fill:#008000;stroke:#008000;stroke-linejoin:miter;" x="188.763125" xlink:href="#m7dc421c8f2" y="151.770188"/>
     </g>
    </g>
    <g id="text_20">
     <!-- BRUF-2 -->
     <g transform="translate(206.763125 155.270188)scale(0.1 -0.1)">
      <use xlink:href="#DejaVuSans-66"/>
      <use x="68.603516" xlink:href="#DejaVuSans-82"/>
      <use x="138.085938" xlink:href="#DejaVuSans-85"/>
      <use x="211.279297" xlink:href="#DejaVuSans-70"/>
      <use x="268.798828" xlink:href="#DejaVuSans-45"/>
      <use x="304.882812" xlink:href="#DejaVuSans-50"/>
     </g>
    </g>
    <g id="line2d_47">
     <path d="M 178.763125 166.448313 
L 198.763125 166.448313 
" style="fill:none;stroke:#ff0000;stroke-dasharray:5.55,2.4;stroke-dashoffset:0;stroke-width:1.5;"/>
    </g>
    <g id="line2d_48">
     <g>
      <use style="fill:#ff0000;stroke:#ff0000;stroke-linejoin:miter;" x="188.763125" xlink:href="#mc5e668f2d0" y="166.448313"/>
     </g>
    </g>
    <g id="text_21">
     <!-- BRUF-1 -->
     <g transform="translate(206.763125 169.948313)scale(0.1 -0.1)">
      <use xlink:href="#DejaVuSans-66"/>
      <use x="68.603516" xlink:href="#DejaVuSans-82"/>
      <use x="138.085938" xlink:href="#DejaVuSans-85"/>
      <use x="211.279297" xlink:href="#DejaVuSans-70"/>
      <use x="268.798828" xlink:href="#DejaVuSans-45"/>
      <use x="304.882812" xlink:href="#DejaVuSans-49"/>
     </g>
    </g>
    <g id="line2d_49">
     <path d="M 178.763125 181.126438 
L 198.763125 181.126438 
" style="fill:none;stroke:#8b008b;stroke-dasharray:5.55,2.4;stroke-dashoffset:0;stroke-width:1.5;"/>
    </g>
    <g id="line2d_50">
     <g>
      <use style="fill:#8b008b;stroke:#8b008b;" x="188.763125" xlink:href="#m4181a9a907" y="181.126438"/>
     </g>
    </g>
    <g id="text_22">
     <!-- CGR-BRUF -->
     <g transform="translate(206.763125 184.626438)scale(0.1 -0.1)">
      <use xlink:href="#DejaVuSans-67"/>
      <use x="69.824219" xlink:href="#DejaVuSans-71"/>
      <use x="147.314453" xlink:href="#DejaVuSans-82"/>
      <use x="216.734375" xlink:href="#DejaVuSans-45"/>
      <use x="252.771484" xlink:href="#DejaVuSans-66"/>
      <use x="321.375" xlink:href="#DejaVuSans-82"/>
      <use x="390.857422" xlink:href="#DejaVuSans-85"/>
      <use x="464.050781" xlink:href="#DejaVuSans-70"/>
     </g>
    </g>
    <g id="line2d_51">
     <path d="M 178.763125 195.804563 
L 198.763125 195.804563 
" style="fill:none;stroke:#800080;stroke-dasharray:5.55,2.4;stroke-dashoffset:0;stroke-width:1.5;"/>
    </g>
    <g id="line2d_52">
     <g>
      <use style="fill:#800080;stroke:#800080;" x="188.763125" xlink:href="#m42aa12729e" y="195.804563"/>
     </g>
    </g>
    <g id="text_23">
     <!-- CGR-DelTime -->
     <defs>
      <path d="M -0.296875 72.90625 
L 61.375 72.90625 
L 61.375 64.59375 
L 35.5 64.59375 
L 35.5 0 
L 25.59375 0 
L 25.59375 64.59375 
L -0.296875 64.59375 
z
" id="DejaVuSans-84"/>
      <path d="M 52 44.1875 
Q 55.375 50.25 60.0625 53.125 
Q 64.75 56 71.09375 56 
Q 79.640625 56 84.28125 50.015625 
Q 88.921875 44.046875 88.921875 33.015625 
L 88.921875 0 
L 79.890625 0 
L 79.890625 32.71875 
Q 79.890625 40.578125 77.09375 44.375 
Q 74.3125 48.1875 68.609375 48.1875 
Q 61.625 48.1875 57.5625 43.546875 
Q 53.515625 38.921875 53.515625 30.90625 
L 53.515625 0 
L 44.484375 0 
L 44.484375 32.71875 
Q 44.484375 40.625 41.703125 44.40625 
Q 38.921875 48.1875 33.109375 48.1875 
Q 26.21875 48.1875 22.15625 43.53125 
Q 18.109375 38.875 18.109375 30.90625 
L 18.109375 0 
L 9.078125 0 
L 9.078125 54.6875 
L 18.109375 54.6875 
L 18.109375 46.1875 
Q 21.1875 51.21875 25.484375 53.609375 
Q 29.78125 56 35.6875 56 
Q 41.65625 56 45.828125 52.96875 
Q 50 49.953125 52 44.1875 
z
" id="DejaVuSans-109"/>
     </defs>
     <g transform="translate(206.763125 199.304563)scale(0.1 -0.1)">
      <use xlink:href="#DejaVuSans-67"/>
      <use x="69.824219" xlink:href="#DejaVuSans-71"/>
      <use x="147.314453" xlink:href="#DejaVuSans-82"/>
      <use x="216.734375" xlink:href="#DejaVuSans-45"/>
      <use x="252.818359" xlink:href="#DejaVuSans-68"/>
      <use x="329.820312" xlink:href="#DejaVuSans-101"/>
      <use x="391.34375" xlink:href="#DejaVuSans-108"/>
      <use x="419.126953" xlink:href="#DejaVuSans-84"/>
      <use x="480.164062" xlink:href="#DejaVuSans-105"/>
      <use x="507.947266" xlink:href="#DejaVuSans-109"/>
      <use x="605.359375" xlink:href="#DejaVuSans-101"/>
     </g>
    </g>
    <g id="line2d_53">
     <path d="M 178.763125 210.482687 
L 198.763125 210.482687 
" style="fill:none;stroke:#ffc0cb;stroke-dasharray:5.55,2.4;stroke-dashoffset:0;stroke-width:1.5;"/>
    </g>
    <g id="line2d_54">
     <g>
      <use style="fill:#ffc0cb;stroke:#ffc0cb;stroke-linejoin:miter;" x="188.763125" xlink:href="#m8b097890d0" y="210.482687"/>
     </g>
    </g>
    <g id="text_24">
     <!-- SprayAndWait-4 -->
     <defs>
      <path d="M 18.109375 8.203125 
L 18.109375 -20.796875 
L 9.078125 -20.796875 
L 9.078125 54.6875 
L 18.109375 54.6875 
L 18.109375 46.390625 
Q 20.953125 51.265625 25.265625 53.625 
Q 29.59375 56 35.59375 56 
Q 45.5625 56 51.78125 48.09375 
Q 58.015625 40.1875 58.015625 27.296875 
Q 58.015625 14.40625 51.78125 6.484375 
Q 45.5625 -1.421875 35.59375 -1.421875 
Q 29.59375 -1.421875 25.265625 0.953125 
Q 20.953125 3.328125 18.109375 8.203125 
z
M 48.6875 27.296875 
Q 48.6875 37.203125 44.609375 42.84375 
Q 40.53125 48.484375 33.40625 48.484375 
Q 26.265625 48.484375 22.1875 42.84375 
Q 18.109375 37.203125 18.109375 27.296875 
Q 18.109375 17.390625 22.1875 11.75 
Q 26.265625 6.109375 33.40625 6.109375 
Q 40.53125 6.109375 44.609375 11.75 
Q 48.6875 17.390625 48.6875 27.296875 
z
" id="DejaVuSans-112"/>
      <path d="M 3.328125 72.90625 
L 13.28125 72.90625 
L 28.609375 11.28125 
L 43.890625 72.90625 
L 54.984375 72.90625 
L 70.3125 11.28125 
L 85.59375 72.90625 
L 95.609375 72.90625 
L 77.296875 0 
L 64.890625 0 
L 49.515625 63.28125 
L 33.984375 0 
L 21.578125 0 
z
" id="DejaVuSans-87"/>
     </defs>
     <g transform="translate(206.763125 213.982687)scale(0.1 -0.1)">
      <use xlink:href="#DejaVuSans-83"/>
      <use x="63.476562" xlink:href="#DejaVuSans-112"/>
      <use x="126.953125" xlink:href="#DejaVuSans-114"/>
      <use x="168.066406" xlink:href="#DejaVuSans-97"/>
      <use x="229.345703" xlink:href="#DejaVuSans-121"/>
      <use x="288.525391" xlink:href="#DejaVuSans-65"/>
      <use x="356.933594" xlink:href="#DejaVuSans-110"/>
      <use x="420.3125" xlink:href="#DejaVuSans-100"/>
      <use x="483.789062" xlink:href="#DejaVuSans-87"/>
      <use x="582.572266" xlink:href="#DejaVuSans-97"/>
      <use x="643.851562" xlink:href="#DejaVuSans-105"/>
      <use x="671.634766" xlink:href="#DejaVuSans-116"/>
      <use x="710.84375" xlink:href="#DejaVuSans-45"/>
      <use x="746.927734" xlink:href="#DejaVuSans-52"/>
     </g>
    </g>
    <g id="line2d_55">
     <path d="M 178.763125 225.160813 
L 198.763125 225.160813 
" style="fill:none;stroke:#6a5acd;stroke-dasharray:5.55,2.4;stroke-dashoffset:0;stroke-width:1.5;"/>
    </g>
    <g id="line2d_56">
     <g>
      <use style="fill:#6a5acd;stroke:#6a5acd;stroke-linejoin:miter;" x="188.763125" xlink:href="#mf069f9f46d" y="225.160813"/>
     </g>
    </g>
    <g id="text_25">
     <!-- SprayAndWait-3 -->
     <g transform="translate(206.763125 228.660813)scale(0.1 -0.1)">
      <use xlink:href="#DejaVuSans-83"/>
      <use x="63.476562" xlink:href="#DejaVuSans-112"/>
      <use x="126.953125" xlink:href="#DejaVuSans-114"/>
      <use x="168.066406" xlink:href="#DejaVuSans-97"/>
      <use x="229.345703" xlink:href="#DejaVuSans-121"/>
      <use x="288.525391" xlink:href="#DejaVuSans-65"/>
      <use x="356.933594" xlink:href="#DejaVuSans-110"/>
      <use x="420.3125" xlink:href="#DejaVuSans-100"/>
      <use x="483.789062" xlink:href="#DejaVuSans-87"/>
      <use x="582.572266" xlink:href="#DejaVuSans-97"/>
      <use x="643.851562" xlink:href="#DejaVuSans-105"/>
      <use x="671.634766" xlink:href="#DejaVuSans-116"/>
      <use x="710.84375" xlink:href="#DejaVuSans-45"/>
      <use x="746.927734" xlink:href="#DejaVuSans-51"/>
     </g>
    </g>
    <g id="line2d_57">
     <path d="M 178.763125 239.838937 
L 198.763125 239.838937 
" style="fill:none;stroke:#008b8b;stroke-dasharray:5.55,2.4;stroke-dashoffset:0;stroke-width:1.5;"/>
    </g>
    <g id="line2d_58">
     <g>
      <use style="fill:#008b8b;stroke:#008b8b;stroke-linejoin:miter;" x="188.763125" xlink:href="#m837499afd0" y="239.838937"/>
     </g>
    </g>
    <g id="text_26">
     <!-- SprayAndWait-2 -->
     <g transform="translate(206.763125 243.338937)scale(0.1 -0.1)">
      <use xlink:href="#DejaVuSans-83"/>
      <use x="63.476562" xlink:href="#DejaVuSans-112"/>
      <use x="126.953125" xlink:href="#DejaVuSans-114"/>
      <use x="168.066406" xlink:href="#DejaVuSans-97"/>
      <use x="229.345703" xlink:href="#DejaVuSans-121"/>
      <use x="288.525391" xlink:href="#DejaVuSans-65"/>
      <use x="356.933594" xlink:href="#DejaVuSans-110"/>
      <use x="420.3125" xlink:href="#DejaVuSans-100"/>
      <use x="483.789062" xlink:href="#DejaVuSans-87"/>
      <use x="582.572266" xlink:href="#DejaVuSans-97"/>
      <use x="643.851562" xlink:href="#DejaVuSans-105"/>
      <use x="671.634766" xlink:href="#DejaVuSans-116"/>
      <use x="710.84375" xlink:href="#DejaVuSans-45"/>
      <use x="746.927734" xlink:href="#DejaVuSans-50"/>
     </g>
    </g>
   </g>
  </g>
 </g>
 <defs>
  <clipPath id="p0a2f316529">
   <rect height="266.112" width="357.12" x="57.6" y="41.472"/>
  </clipPath>
 </defs>
</svg>
